<svg width="210" height="40" viewBox="0 0 210 40" xmlns="http://www.w3.org/2000/svg">
  <title>
    Group
  </title>
  <g fill="#FFF" fill-rule="evenodd">
    <path d="M44.84 24.56c0 1.29-.175 1.81 1.65 1.81 5.016 0 5.754-2.24 6.035-2.24.153 0 .176.22.176.26 0 .78-.56 1.54-1.08 2.11-.69.78-1.17.74-2.13.74-1.65 0-3.3-.13-4.95-.09-.86.02-1.78.09-2.65.09-.19 0-.32-.05-.32-.22.05-.26.26-.22.96-.56.57-.27.61-.87.61-1.9v-11c0-1.13-1.82-.98-1.82-1.42 0-.23.15-.28.44-.28.46 0 1.13.09 2.2.09 1.24 0 1.76-.09 2.08-.09.28 0 .41.05.41.31 0 .5-1.58-.05-1.58 1.84v10.55M59 22.48c-1.39.31-4.04.65-4.04 2.56 0 1.24.63 1.72 1.78 1.72.784 0 2.26-.61 2.26-1.76v-2.52zm0-2.19c0-1.13-.89-1.89-2.24-1.89-1.04 0-1.886.11-1.886 1.3 0 .33.13.65.13.89s-.06.41-.474.41c-.37 0-1.02-.32-1.02-.71.02-1 1.236-2.52 3.647-2.46 1.348 0 3.432.39 3.432 2.24v4.49c0 .74-.2 2.02.93 2.02l.37-.04c.1 0 .28 0 .28.16 0 .45-.96.54-1.26.54-.85 0-1.41-.4-1.7-1.11-.91.78-2.11 1.26-3.32 1.26-1.42 0-2.35-.52-2.35-2.06 0-1.16.37-2.52 5.45-3.37v-1.67zm6.47 5.19c0 1.5 1.91.87 1.91 1.45 0 .26-.15.31-.477.31-.368 0-.8-.09-2.06-.09-1.154 0-1.587.09-1.85.09-.28 0-.387-.05-.387-.26 0-.44 1.28 0 1.28-1.41v-5.39c0-1.3-1.607-.74-1.607-1.2 0-.13.08-.21.19-.23 1.8-.4 2.24-1.09 2.74-1.09.13 0 .26.13.26.35v1.43c-.05.26 1.04-1.61 3.15-1.61 2.91 0 3.54 2.41 3.54 4.06v3.59c0 1.5 1.69.87 1.69 1.45 0 .26-.15.31-.37.31-.28 0-.83-.09-1.89-.09-.83 0-1.28.09-1.57.09-.29 0-.39-.05-.39-.26 0-.44.93 0 .93-1.41V21.5c0-1.08-.78-2.71-2.54-2.71-1.83 0-2.59 1.34-2.56 1.69v5m15.61-4.63c0-1.6-1.31-2.52-2.87-2.52-2.04 0-2.96 1.91-2.96 3.71 0 1.81 1.3 4.41 3.36 4.41 1.8 0 2.45-1.1 2.45-1.89v-3.71zm0-7.36c0-1.3-1.72-.74-1.72-1.19 0-.13.08-.22.19-.24 1.67-.39 2.34-1.09 2.84-1.09.13 0 .26.13.26.35v14.85c0 .26.43.44 1.15.55.15.02.24.02.24.19 0 .15-.57.3-1.37.3-.57 0-1.17.18-1.37.18-.18 0-.24-.18-.24-.33v-1.19H81c-.74.93-1.935 1.52-3.19 1.52-2.39 0-3.846-2.19-3.846-4.43 0-2.56 1.8-5.13 4.54-5.13.91 0 1.8.26 2.54.76v-5.1zm14.37.57c0-.16.09-.98-.22-1H91.7c-1.347 0-1.39.32-1.78 1.52-.066.22-.086.5-.37.5-.13 0-.218-.16-.218-.26l.24-2.11c.022-.26 0-.85.39-.85 1.694 0 3.366.09 6.168.09 3.93 0 5.93-.09 6.362-.09.498 0 .608.13.63.63l.108 1.74c.02.22.044.48-.24.48-.802 0 .37-1.65-1.845-1.65h-3.103c-.98 0-.87-.09-.87 1.06v11.07c0 1.83 1.76 1.11 1.76 1.79 0 .06.02.26-.198.26-.52 0-1.13-.09-1.758-.09-2.43 0-2.845.09-2.974.09-.195 0-.262-.07-.262-.29 0-.52 1.717-.3 1.717-1.6V14.06"/>
    <path d="M104.078 25.32c0 2.02 1.932.98 1.932 1.68 0 .19-.108.24-.35.24-.302 0-.823-.09-2.04-.09-1.454 0-1.845.09-1.997.09-.174 0-.24-.07-.24-.2 0-.46 1.11-.37 1.11-1.26v-5.6c0-1.3-1.564-.74-1.564-1.2 0-.13.17-.21.28-.23 1.67-.4 2.1-1.09 2.6-1.09.13 0 .26.13.26.35v1.63h.04c.45-.63 1.23-1.81 2.15-1.81.45 0 1.43.57 1.43.98 0 .33-.52.98-.78.98-.42 0-.66-.5-1.44-.5-.89 0-1.41 1-1.41 1.28v4.75m11.33-5.9c0-.83-1.15-.3-1.15-.83 0-.17.28-.19.39-.19.63 0 .93-.07 1.17-.13.23-.04.43-.11.78-.11.08 0 .39.11.39.52v7.51c0 .57 1.36.29 1.36.76 0 .18-.46.2-.81.2-.61 0-.91.06-1.17.11-.24.06-.42.13-.74.13-.18 0-.2-.24-.2-.33v-1.19h-.04c-.68 1.02-1.74 1.52-2.89 1.52-1.74 0-3.17-1.06-3.17-2.91v-5.06c0-.83-1.15-.3-1.15-.83 0-.17.28-.19.39-.19.63 0 .93-.07 1.17-.13.24-.04.43-.11.78-.11.09 0 .39.11.39.52v5.49c-.02 2.31 1.82 2.46 2.11 2.46 1.24 0 2.32-.92 2.37-1.54v-5.67m4.16 1.02c0-1.74 1.35-2.61 2.93-2.61.36 0 1.86.18 2.12.5.13.18.11.92.11 1.07 0 .58.09.84-.24.84-.22 0-.41-1.89-2.39-1.89-.85 0-1.52.5-1.52 1.39 0 .72.56 1.18 2.84 2.09 1.24.52 1.8 1.19 1.8 2.58 0 1.63-1.33 2.98-2.94 2.98-1.52 0-1.91-.63-2.43-.63-.48 0-.48-.02-.48-1.74 0-.37-.06-1.06.26-1.06.47 0 .23 2.86 2.58 2.86 1.06 0 1.93-.65 1.93-1.78 0-1.15-1.11-1.5-1.98-1.91-1.17-.58-2.63-1.15-2.63-2.69m8.17-1.43c-1.02 0-1.17 0-1.17-.16 0-.17.54-.54 1.65-1.75.43-.53.65-1 .82-1 .3 0 .28.45.28 2.02h2.39c.54 0 .78-.37.85-.37.11 0 .15.11.15.17 0 .09-.07.2-.13.31l-.44.78h-2.82v6.31c.04.9.65 1.31 1.52 1.31 1.15 0 1.48-.5 1.85-.5.09 0 .17.02.17.2 0 .32-1.17 1.06-2.69 1.06-1 0-2.43-.28-2.43-2.52v-5.86m15.58.87c-.15.3 0 .39.28.39h4.3c.48 0 .46-.16.35-.44l-2.13-5.23c-.11-.26-.22-.26-.35 0l-2.46 5.28zm5.87 2.17c-.22-.5-.34-.83-.96-.83h-4.77c-.41 0-.8 0-1.02.46L141 24.72c-.06.15-.15.48-.15.76 0 1.52 1.54.87 1.54 1.43 0 .39-.305.33-.59.33-.606 0-1.213-.09-1.82-.09-.59 0-1.18.09-1.74.09-.13 0-.196-.11-.196-.24 0-.46 1.02-.09 1.584-1.33l5.19-11.07c1.28-2.74 1.346-3.09 1.63-3.09.24 0 .39.63.45.81l4.516 11.18c.326.81.59 1.72 1.086 2.48.653 1 1.914.52 1.914 1.06 0 .2-.16.2-.31.2-.89 0-1.78-.09-2.67-.09-.59 0-1.18.09-1.76.09-.13 0-.48 0-.48-.22 0-.52 1.3-.3 1.3-1.13 0-.48-.46-1.48-.672-2.06l-.696-1.78zm8.23 3.43c0 1.5 1.8.87 1.8 1.45 0 .26-.17.31-.5.31-.3 0-.98-.09-2-.09-1.06 0-1.47.09-1.69.09-.17 0-.26-.09-.26-.29 0-.32 1.07-.26 1.07-1.19V13.49c0-1.3-1.48-.74-1.48-1.19 0-.13.08-.22.19-.24 1.67-.39 2.11-1.09 2.61-1.09.13 0 .26.13.26.35v14.16m5.64 0c0 1.5 1.8.87 1.8 1.45 0 .26-.17.31-.5.31-.3 0-.98-.09-2-.09-1.06 0-1.48.09-1.69.09-.18 0-.26-.09-.26-.29 0-.32 1.06-.26 1.06-1.19V13.49c0-1.3-1.48-.74-1.48-1.19 0-.13.09-.22.2-.24 1.68-.39 2.11-1.09 2.61-1.09.13 0 .26.13.26.35v14.16m5.6-10.97c0 .26-.63 1.13-.91 1.13-.26 0-.92-.89-.92-1.13 0-.24.65-1.15.91-1.15.28 0 .91.89.91 1.15m-1.7 5.67c0-1.3-1.19-.74-1.19-1.2 0-.13.09-.21.19-.23 1.39-.4 1.83-1.09 2.32-1.09.13 0 .26.13.26.35v7.79c0 1.11 1.72.63 1.72 1.2 0 .17-.13.24-.41.24-.45 0-1.13-.09-2.02-.09-.7 0-1.26.09-1.5.09-.17 0-.3-.03-.33-.24 0-.55.96.28.96-1.7v-5.12m9.84 2.3c-1.39.31-4.04.65-4.04 2.56 0 1.24.63 1.72 1.78 1.72.78 0 2.26-.61 2.26-1.76v-2.52zm0-2.19c0-1.13-.89-1.89-2.24-1.89-1.04 0-1.89.11-1.89 1.3 0 .33.13.65.13.89s-.07.41-.48.41c-.37 0-1.02-.32-1.02-.71.02-1 1.23-2.52 3.65-2.46 1.34 0 3.42.39 3.42 2.24v4.49c0 .74-.19 2.02.94 2.02l.37-.04c.1 0 .28 0 .28.16 0 .45-.96.54-1.26.54-.85 0-1.41-.4-1.7-1.11-.91.78-2.11 1.26-3.32 1.26-1.41 0-2.34-.52-2.34-2.06 0-1.16.37-2.52 5.45-3.37v-1.67zm6.73 5.19c0 1.5 1.91.87 1.91 1.45 0 .26-.15.31-.48.31-.37 0-.8-.09-2.07-.09-1.15 0-1.58.09-1.84.09-.28 0-.39-.05-.39-.26 0-.44 1.28 0 1.28-1.41v-5.39c0-1.3-1.61-.74-1.61-1.2 0-.13.09-.21.2-.23 1.8-.4 2.24-1.09 2.73-1.09.13 0 .26.13.26.35v1.43c-.04.26 1.05-1.61 3.15-1.61 2.91 0 3.54 2.41 3.54 4.06v3.59c0 1.5 1.7.87 1.7 1.45 0 .26-.15.31-.37.31-.28 0-.82-.09-1.89-.09-.82 0-1.28.09-1.56.09s-.39-.05-.39-.26c0-.44.94 0 .94-1.41V21.5c0-1.08-.78-2.71-2.54-2.71-1.826 0-2.58 1.34-2.56 1.69v5m8.81-2.69c0-2.72 2.15-4.96 4.89-4.96 1.083 0 2.56.31 2.622.81.05.48.03 1 .03 1.28 0 .3-.06.46-.17.46-.22 0-.46-.42-.52-.5-.74-1-1.69-1.33-2.69-1.33-1.85 0-2.56 1.91-2.56 3.48 0 2.34 1.385 4.27 3.844 4.27 1.69 0 2.64-1.26 2.97-1.26l.17.13c0 .35-1.3 2.22-4.28 2.22-2.49 0-4.3-2.19-4.3-4.6m15.26-1.72c.31 0 .44-.11.44-.44 0-1.21-1.22-2.3-2.41-2.3-1.34 0-2.3 1.55-2.3 2.74h4.27zm-4.27.59c0 3.58 2.17 4.64 3.497 4.64 1.87 0 2.59-1.13 3.07-1.13l.08.16c0 .5-1.89 2.06-3.84 2.06-3.26 0-4.39-3.02-4.39-4.45 0-2.78 1.54-5.11 4.26-5.11 2.67 0 3.84 2.59 3.84 3.46 0 .39-.24.37-.74.37h-5.77zM41.57 32.13h4.23v.47h-1.835v5.72H43.4V32.6h-1.836v-.47m4.538 3.97c0 1.21.402 1.9 1.32 1.9.916 0 1.32-.69 1.32-1.9s-.404-1.91-1.32-1.91c-.918 0-1.32.7-1.32 1.91m3.154 0c0 1.21-.445 2.31-1.835 2.31-1.38 0-1.83-1.1-1.83-2.31s.45-2.32 1.84-2.32c1.39 0 1.84 1.11 1.84 2.32m2.36.35c.73 0 1.16-.35 1.16-1.12 0-.78-.43-1.14-1.16-1.14-.71 0-1.15.45-1.15 1.14 0 .77.53 1.12 1.16 1.12m-1.37 2.3c0 .44.43.74 1.36.74 1.12 0 1.6-.3 1.6-.76 0-.37-.29-.73-1.63-.73-1.01 0-1.32.37-1.32.75m3.44-4.59c-.23 0-.53.02-.71.2.2.24.32.51.32.94 0 1.1-.78 1.56-1.72 1.56-.28 0-.49-.06-.72-.14-.28.1-.41.27-.41.43 0 .26.17.39 1.38.39 1.34 0 1.9.42 1.9 1.15 0 .65-.5 1.21-2.03 1.21s-1.95-.52-1.95-1.05c0-.39.16-.71.78-.95v-.01c-.32-.07-.59-.21-.59-.58 0-.38.34-.69.67-.76-.4-.27-.64-.7-.64-1.17 0-.97.69-1.6 1.77-1.6.43 0 .76.12 1.04.31.26-.26.58-.4.93-.4v.47m3.57 1.54c-.11-.92-.51-1.5-1.29-1.51-.91-.01-1.29.92-1.3 1.51h2.59zm-2.59.41c0 1.01.42 1.89 1.43 1.89.57 0 .86-.2 1.3-.9l.42.22c-.48.79-.91 1.09-1.76 1.09-1.17 0-1.9-.75-1.9-2.31 0-1.39.7-2.32 1.84-2.32 1.21 0 1.78.95 1.78 2.33H54.7zm4.22-2.24v-1.46h.51v1.46h.98v.41h-.98v3.26c0 .3.14.46.45.46.18 0 .36-.04.53-.1v.43c-.17.03-.35.08-.53.08-.72 0-.96-.24-.96-.78v-3.35h-.66v-.41h.67m2.33 4.45v-6.19h.51v2.44c.48-.5.88-.79 1.53-.79.92 0 1.32.53 1.32 1.5v3.04h-.52v-2.99c0-.74-.22-1.14-.91-1.14-.55 0-.85.34-1.42.85v3.28h-.51m7.48-2.62c-.1-.92-.5-1.5-1.28-1.51-.91-.01-1.29.92-1.3 1.51h2.59zm-2.59.41c0 1.01.42 1.89 1.44 1.89.57 0 .86-.2 1.3-.9l.42.22c-.48.79-.92 1.09-1.77 1.09-1.16 0-1.9-.75-1.9-2.31 0-1.39.7-2.32 1.83-2.32 1.21 0 1.78.95 1.78 2.33h-3.1zm4.14 2.21v-4.45h.51v.84h.02c.25-.54.73-.93 1.29-.93h.23v.5h-.23c-.56 0-1.3.67-1.3 1.52v2.52h-.52m3.12-.77v.77l-.54 1.29h-.34l.5-1.29h-.36v-.77h.74M80 35.12c-.23-.52-.56-.93-1.153-.93-.84 0-1.4.52-1.4 1.91 0 1.14.51 1.9 1.4 1.9.64 0 .98-.35 1.34-.93l.41.2c-.372.63-.893 1.14-1.743 1.14-1.25 0-1.92-.97-1.92-2.31 0-1.54.77-2.32 1.92-2.32.84 0 1.36.47 1.63 1.21l-.475.13m1.72.98c0 1.21.4 1.9 1.32 1.9s1.32-.69 1.32-1.9-.41-1.91-1.32-1.91c-.92 0-1.32.7-1.32 1.91m3.15 0c0 1.21-.44 2.31-1.83 2.31-1.39 0-1.83-1.1-1.83-2.31s.45-2.32 1.83-2.32c1.39 0 1.83 1.11 1.83 2.32m1.01 2.22v-4.45h.51v.7c.48-.5.87-.79 1.52-.79.93 0 1.32.53 1.32 1.5v3.04h-.52v-2.99c0-.74-.22-1.14-.91-1.14-.55 0-.86.34-1.42.85v3.28h-.52m4.65-1.08c.42.6.79.76 1.38.76.56 0 .99-.37.99-.85 0-1.3-2.62-.57-2.62-2.15 0-.84.66-1.22 1.41-1.22.74 0 1.22.29 1.54.81l-.4.27c-.3-.41-.62-.67-1.16-.67-.5 0-.89.24-.89.78 0 1.09 2.62.45 2.62 2.18 0 .8-.74 1.26-1.54 1.26-.69 0-1.31-.27-1.73-.9l.37-.27m6.63-1.54c-.1-.92-.51-1.5-1.29-1.51-.91-.01-1.3.92-1.3 1.51h2.59zm-2.59.41c0 1.01.42 1.89 1.43 1.89.57 0 .85-.2 1.3-.9l.42.22c-.48.79-.92 1.09-1.77 1.09-1.17 0-1.91-.75-1.91-2.31 0-1.39.7-2.32 1.83-2.32 1.21 0 1.78.95 1.78 2.33H94.5zm4.13 2.21v-4.45h.51v.84h.01c.24-.54.72-.93 1.28-.93h.23v.5h-.24c-.57 0-1.3.67-1.3 1.52v2.52h-.52m2.32-4.45h.55l1.21 3.67h.02l1.24-3.67h.55L103 38.32h-.506l-1.53-4.45m4.39 0h.51v4.45h-.517v-4.45zm0-1.74h.51v.76h-.515v-.76zm1.91 6.19v-4.45h.51v.7c.48-.5.876-.79 1.526-.79.926 0 1.32.53 1.32 1.5v3.04h-.51v-2.99c0-.74-.226-1.14-.91-1.14-.55 0-.858.34-1.424.85v3.28h-.51m6.12-1.87c.72 0 1.16-.35 1.16-1.12 0-.78-.435-1.14-1.156-1.14-.72 0-1.155.45-1.155 1.14 0 .77.53 1.12 1.15 1.12m-1.37 2.3c0 .44.43.74 1.356.74 1.12 0 1.6-.3 1.6-.76 0-.37-.29-.73-1.63-.73-1.01 0-1.32.37-1.32.75m3.44-4.59c-.23 0-.53.02-.71.2.2.24.32.51.32.94 0 1.1-.78 1.56-1.72 1.56-.29 0-.5-.06-.72-.14-.29.1-.41.27-.41.43 0 .26.17.39 1.38.39 1.33 0 1.89.42 1.89 1.15 0 .65-.5 1.21-2.03 1.21s-1.95-.52-1.95-1.05c0-.39.15-.71.78-.95v-.01c-.33-.07-.59-.21-.59-.58 0-.38.34-.69.67-.76-.4-.27-.64-.7-.64-1.17 0-.97.69-1.6 1.77-1.6.43 0 .76.12 1.04.31.26-.26.58-.4.93-.4v.47m3.3-.29v-1.46h.52v1.46h.98v.41h-.97v3.26c0 .3.14.46.46.46.18 0 .36-.04.53-.1v.43c-.17.03-.35.08-.52.08-.73 0-.97-.24-.97-.78v-3.35h-.67v-.41h.67m2.33 4.45v-6.19h.52v2.44c.48-.5.87-.79 1.52-.79.92 0 1.32.53 1.32 1.5v3.04h-.51v-2.99c0-.74-.22-1.14-.91-1.14-.54 0-.85.34-1.42.85v3.28h-.51m7.48-2.62c-.1-.92-.51-1.5-1.29-1.51-.91-.01-1.29.92-1.3 1.51h2.59zm-2.59.41c0 1.01.42 1.89 1.43 1.89.57 0 .86-.2 1.3-.9l.42.22c-.48.79-.91 1.09-1.76 1.09-1.17 0-1.91-.75-1.91-2.31 0-1.39.7-2.32 1.83-2.32 1.21 0 1.78.95 1.78 2.33H126zm7.15 1.09c.17.3.76.8 1.26.8.93 0 1.38-.74 1.38-1.97 0-.93-.41-1.84-1.3-1.84-.57 0-.9.35-1.34.82v2.19zm-.51-3.33h.51v.68h.02c.35-.51.77-.77 1.34-.77 1.16 0 1.79 1.11 1.79 2.34 0 1.55-.72 2.29-1.76 2.29-.6 0-.96-.2-1.39-.67v2.16h-.52v-6.03zm4.67-1.74h.51v6.19h-.51v-6.19zm4.26 3.67c-2.04.45-2.31.87-2.31 1.44 0 .48.34.76.8.76.48 0 1.07-.29 1.52-.74V35.8zm.09 2.52l-.07-.54c-.53.43-.93.63-1.62.63-.69 0-1.22-.43-1.22-1.17 0-1.21.99-1.44 2.86-1.85v-.31c0-.59-.25-.89-1.02-.89-.53 0-.97.29-1.29.81l-.34-.21c.38-.72.93-1.01 1.65-1.01 1.01 0 1.49.41 1.49 1.4v2.33c0 .22.02.51.07.81h-.49zm4.54-3.2c-.23-.52-.56-.93-1.16-.93-.84 0-1.4.52-1.4 1.91 0 1.14.52 1.9 1.41 1.9.64 0 .98-.35 1.34-.93l.41.2c-.38.63-.9 1.14-1.75 1.14-1.25 0-1.92-.97-1.92-2.31 0-1.54.77-2.32 1.92-2.32.84 0 1.36.47 1.63 1.21l-.47.13m4.32.58c-.11-.92-.51-1.5-1.29-1.51-.91-.01-1.292.92-1.302 1.51h2.59zm-2.59.41c0 1.01.42 1.89 1.43 1.89.58 0 .86-.2 1.3-.9l.416.22c-.48.79-.92 1.09-1.77 1.09-1.17 0-1.91-.75-1.91-2.31 0-1.39.7-2.32 1.83-2.32 1.21 0 1.79.95 1.79 2.33h-3.11zm4.05 1.13c.42.6.795.76 1.38.76.56 0 .99-.37.99-.85 0-1.3-2.622-.57-2.622-2.15 0-.84.66-1.22 1.41-1.22.75 0 1.22.29 1.54.81l-.4.27c-.3-.41-.63-.67-1.16-.67-.5 0-.89.24-.89.78 0 1.09 2.63.45 2.63 2.18 0 .8-.73 1.26-1.54 1.26-.68 0-1.3-.27-1.72-.9l.38-.27m7.49.25h.02l1.25-3.62h.55l-1.66 4.77c-.3.88-.62 1.26-1.42 1.26-.226 0-.36-.02-.48-.05v-.42c.15.02.314.06.51.06.36 0 .755-.32 1-1.24l-1.55-4.38h.567l1.23 3.62m2.73-1.39c0 1.21.41 1.9 1.32 1.9.92 0 1.32-.69 1.32-1.9s-.4-1.91-1.32-1.91c-.91 0-1.32.7-1.32 1.91m3.16 0c0 1.21-.45 2.31-1.832 2.31-1.38 0-1.83-1.1-1.83-2.31s.45-2.32 1.83-2.32c1.39 0 1.83 1.11 1.83 2.32m4.37-2.23v4.45h-.512v-.7c-.48.5-.88.79-1.53.79-.93 0-1.32-.53-1.32-1.5v-3.04h.51v2.99c0 .74.22 1.14.91 1.14.55 0 .86-.34 1.42-.85v-3.28h.52m3.78-1.74h.51v6.19h-.52v-6.19zm2.03 3.97c0 1.21.4 1.9 1.32 1.9s1.32-.69 1.32-1.9-.41-1.91-1.32-1.91-1.32.7-1.32 1.91m3.15 0c0 1.21-.45 2.31-1.84 2.31-1.39 0-1.83-1.1-1.83-2.31s.44-2.32 1.83-2.32 1.84 1.11 1.84 2.32m.43-2.23h.55l1.22 3.67h.01l1.24-3.67h.55l-1.534 4.45h-.507l-1.53-4.45m7.09 1.83c-.1-.92-.5-1.5-1.28-1.51-.91-.01-1.29.92-1.3 1.51h2.59zm-2.58.41c0 1.01.42 1.89 1.43 1.89.57 0 .86-.2 1.3-.9l.42.22c-.48.79-.92 1.09-1.766 1.09-1.17 0-1.91-.75-1.91-2.31 0-1.39.707-2.32 1.84-2.32 1.2 0 1.78.95 1.78 2.33h-3.11zM26.94 10.02l-.164.08-.01.08.147-.06.02-.1M18.24 7.13l.14-.14c.185-.01.188-.15.435-.18-.228.13-.346.26-.575.32m-.705.47c-.16.11-.255.29-.556.32.06-.16.57-.29.58-.45.16-.01.33-.14.27-.2l.1.02c.03-.02-.09-.03 0-.06.09.06.19-.11.33-.08-.27.18-.5.3-.74.45m-1.3 1.07l-.08-.02.15-.02-.09.04m-.44 1.54l-.13-.04c.11.05.1-.04.18-.02l-.05.06m-.19-.38c-.12-.02.03-.06.04-.08.12.01-.04.03-.04.08m7.86-5.49l-.09.06-.12-.02.21-.04m.52-.29l.15-.04-.03.05-.08.02-.05-.03m7.78-2.27l-.14.04.14-.04m.29-.05c-.1.02-.12.04-.17.03l.17-.03m2.93.29l-.13.02.13-.02M35.1 2l-.1.01.106-.01m.255-.05l-.16.03.17-.03m.65-.13c-.22.05-.35.07-.52.1.15-.04.35-.07.52-.1M18.67 9.83c.098-.02.16-.08.05-.13.01-.04.22-.04.11-.08h.145c.238-.22.58-.42.675-.63L19.6 9l.022-.05.068.05c.195-.15.384-.29.433-.39.104-.02.15-.07.162-.13.115-.02.186-.15.312-.18.14-.15.24-.25.52-.45l.34-.23c.513-.32.854-.6 1.536-.97l.04-.07c.592-.34 1.34-.76 1.92-1.09.582-.25.986-.5 1.53-.74l.233-.12c.376-.12.633-.27 1.01-.42l.118-.04c1.74-.74 3.74-1.36 5.664-1.82.147-.03.323-.09.477-.13.223-.05.47-.09.696-.14-.32.1-.75.16-1.02.25-.21.05-.67.16-.93.23-.1.03-.29.08-.32.1l-.02-.01-.08.02-.01.03c-.85.2-1.67.5-2.43.73l.01.04c.37-.13.73-.25 1.08-.36l.12-.04.22-.06c.52-.16 1.1-.34 1.66-.48 1.32-.34 2.51-.59 4.07-.86l.02.01c.13-.04.35-.06.48-.08l.01-.02.02.01c.29-.04.63-.09.93-.13.48-.06.96-.12 1.37-.16.59-.08.96-.09 1.51-.15.12-.04.39-.07.42-.1l.11-.01c.02-.02.04-.03.14-.05-.07 0-.06-.02.08-.04L42 .94l.075-.07c.07-.02.093-.03 0-.03l.06-.02-.1-.05.11-.01-.082-.01c.117-.04.04-.06-.01-.09h-.12l.05-.01c-.28 0-.76.02-1.17.06L40.77.7h-.03l-.05.01h.04-.17c-.128.02-.273.02-.293.01l-.214.03.064-.02-.113.02h-.277l-.02.01-.154.02.112-.02c-.116-.01-.477.02-.736.04-.59.04-1.14.08-1.57.11l-.19.03.09.01-.13.02h-.08l.06-.03c-.13.02-.58.04-.66.09l-.18.03-.04-.02-.15.01h.09c-.13.04-.31.05-.53.07l-.01.02c-.31.01-.79.1-1.16.14l-.12.04c-.21-.01-.68.09-.86.11l.03.01-.05-.01c-.43.08-.83.18-1.34.25l.1.01-.19.04.04-.03c-.19.03-.21.05-.37.06-.06.03-.2.05-.29.06l.13.01-.19.03.01-.01-.09.03-.04-.02c-.22.05-.35.06-.5.11l.15-.02c-.03.04-.38.11-.48.09l.15-.01.02-.01V2c-.16.05-.36.07-.52.13.12-.02.18-.03.28-.06-.17.07-.45.12-.7.18l.03-.04.06.01c.11-.04.17-.06.29-.08-.15-.01-.35.07-.54.1l.09.02c-.2.05-.38.09-.53.14l.1-.01-.05.04-.1-.03-.28.11-.07-.02c-.11.04-.15.04-.29.09l.05.02h-.1l.02.02-.2.01c-.11.04.06.01.04.04l-.1-.01-.12.02.02.03c-.16.03-.17.07-.24.1l.02-.04-.19.07c-.13.02-.13-.01-.26.04.15 0-.15.06-.02.06h-.09l.09-.05-.17.04-.12.08.07-.05c-.14 0-.23.07-.38.09l-.11.11-.1.03-.05.01-.08.01.03-.05c-.19.04-.25.08-.46.14l.07.01-.09.05c-.1.02-.22.01-.29.04l.08.06c-.09.02-.1.02-.14.06l.02-.06v-.04l-.13.09-.1.02c.04.04-.07 0-.21.08.1-.02.03.01.03.04l-.04-.03c-.16.05-.21.06-.28.12l-.04-.04-.06.04-.29.08.02.03-.06-.02-.12.04h.08l-.09.05-.01-.02-.2.06.05.01c-.14.01-.27.06-.4.11l.08.03-.11-.02-.13.05.06.02c-.1-.02-.26.08-.35.1l.19-.04-.01.04c-.24.04-.29.13-.58.18l-.04.05.04-.04.08.04c-.1 0-.18.05-.24.01l-.04.06.09-.03.01.05-.17.05.06-.01-.12.01c-.14.03-.28.1-.38.11l.02.05c-.14.01-.07.04-.21.08l.02-.05c-.05.05-.14.07-.23.15-.1.02-.05-.01-.07-.03l-.03.08c-.09-.01-.04.08-.19.08l.05-.07c-.13.01-.01.05-.17.06.1.03 0 .08.11.06l-.12.09c-.12-.04-.17.06-.29-.01l.04.07.11-.02c-.07.06-.28.18-.39.21l.04-.04c-.09-.01-.01-.04-.06-.06l-.18.1.13-.05c.05.03-.1.07.05.06l-.12.03c.05.03-.16.06-.05.1l-.2-.04-.08.04.13.02c-.09.03-.12.06-.26.08.09.03-.04.04-.03.08l-.11.01.07.05-.11-.03-.06.05-.29.19-.05-.04-.15.05h.08c.01.1-.23.08-.29.11.12 0 .01.07-.12.14H19l-.05.03.06.06-.02.03c-.182-.01-.19.1-.34.13l.027.02c-.09-.02-.06.08-.21.1l-.1-.06.03.05-.15.09h-.06c.04.06.11-.05.21-.08.13.05-.16.04.014.09l-.16.03.04.03c-.2.05-.29.13-.44.24.13.03-.05.07-.13.08.13.03-.13.18-.22.11l-.06.07.08.01c-.14.05-.15.14-.31.13v.05l-.07-.02-.11.08.07.02c-.21.16-.34.23-.48.34l.11.02c.1-.01.06-.03.14-.06l.08.04c-.11.08-.37.16-.25.25-.17-.02-.26.13-.35.17h.1l.03.04-.21.03.13-.02-.08.07-.08-.04c-.11.11-.13.12-.26.23.17.01 0 .07.1.09l.16-.15c.04.1-.14.15-.2.22l.16-.01-.08.13c-.09-.02-.06-.05-.06-.09l-.152.06c-.03-.05.1-.1-.08-.1l.16-.03c-.15-.02.01-.03-.02-.06-.11.03-.18.1-.24.14l.08-.01c-.04.06-.05.06-.17.1h.193l-.2.06.11.09-.09-.01-.06.08c.09.02.02.06.135.07-.23.08-.15.2-.364.3.21.03.23-.2.32-.13.036.03-.04.11-.16.16l.07.03c-.1 0-.04.04-.14.05l.06.01-.18.08.08.02c-.13.04-.06.14-.19.17.1.02.15-.12.29-.13.07.02-.02.07.08.09-.1.01-.173.08-.18.13l.11-.01c-.04.06-.03.07-.144.09l.007.07c.12-.05.27-.15.26-.26l.15-.06c.18.06-.29.17-.16.26l-.12.03c.1.06.05.02.01.11l.11-.06h.11c.1.03-.03.04-.04.09l.06.04.1-.01.21.12-.12.02.09.02c-.06.06-.2.1-.09.16 0-.03.26-.03.16 0 .2-.05.164-.16.34-.24l-.03.08c.1.04 0-.07.15-.02.06.08-.19.12-.19.25l.25-.16-.03.18h.22c0 .11-.04.14-.11.22l.03.04.1-.05c.15.03-.05.07.05.11.09 0 .03-.04.1-.05l-.04.13.24-.14.03.01.18-.24c.26-.06.3-.38.53-.44.07-.2.45-.33.57-.52.08 0 .118.03.21.01l-.09-.01m1.44-4l-.16.03v.06l.144-.03.02-.06m.4 3.96l-.176.07-.01.08.15-.06.03-.09m4.32-2.94l-.08.03-.05-.04.16-.06-.03.07m-.81.56l-.13-.03.24-.07-.11.1m9.35-4.3l-.16.06.16-.06m.323-.08c-.107.03-.14.06-.19.05l.19-.05m3.16.38v.02l-.14.02.144-.04m.14-.02l-.12.01.11-.01m.29-.08l-.19.05.19-.05m.73-.18c-.25.07-.39.09-.58.15.16-.07.38-.12.58-.15m-10.7 4.55c.1-.06.22-.09.26-.19.41-.2.7-.43 1.12-.67l.13-.06c1.93-1.18 4.18-2.15 6.35-2.85.17-.05.37-.13.54-.19.25-.08.53-.14.79-.21-.37.14-.846.23-1.16.38-.24.06-.76.23-1.04.34-.12.04-.33.12-.36.16l-.03-.02-.09.03-.02.04c-.96.31-1.89.78-2.72 1.15v.05c.4-.2.82-.39 1.21-.56l.13-.06.24-.1c.57-.25 1.23-.52 1.87-.74 1.48-.51 2.82-.89 4.58-1.26l.01.02c.144-.06.39-.09.54-.11l.015-.03.01.02c.32-.07.71-.13 1.04-.18.54-.08 1.08-.16 1.53-.2.67-.1 1.08-.1 1.7-.17.135-.04.44-.08.48-.12l.12-.01c.02-.02.05-.03.16-.06-.08-.01-.06-.04.09-.05l-.13-.04c.09-.02.17-.06.1-.09.08-.02.11-.04.01-.04l.08-.03c-.09-.02-.12-.05-.1-.08l.12-.01-.09-.01c.14-.05.06-.09.01-.14h-.13l.06-.02c-.3-.01-.84.01-1.3.04v-.02l-.04.01h-.05l.04.01h-.19c-.15.03-.31.02-.33 0-.1.02-.16.03-.24.03l.07-.02-.13.02c-.02-.02-.2-.02-.3-.01l-.02.02-.18.02.13-.02c-.13-.03-.53.01-.82.03-.65.04-1.27.1-1.75.13l-.21.05h.1l-.15.04-.07-.01.08-.03c-.14.01-.65.04-.74.12l-.2.04-.04-.04-.17.02h.11c-.14.06-.35.07-.59.11l-.01.02c-.34.01-.88.14-1.3.2l-.14.07c-.23-.02-.76.13-.96.17l.03.01-.056-.01c-.48.12-.93.26-1.5.39h.11l-.21.08.05-.06c-.22.05-.24.08-.42.1-.06.04-.21.08-.32.1h.15l-.213.06.02-.02-.1.04-.04-.02c-.25.08-.4.09-.57.17l.17-.03c-.04.05-.43.18-.54.16l.16-.03.02-.02-.01-.03c-.18.08-.4.11-.58.21.13-.03.2-.05.32-.1-.196.11-.51.2-.78.29l.04-.05.064.01c.13-.06.2-.1.33-.13-.16-.01-.39.12-.6.17l.1.02c-.23.08-.43.15-.6.23l.11-.02-.06.07-.11-.04-.32.16-.074-.02c-.12.07-.17.07-.33.14l.06.04c-.07.03-.01-.07-.1-.01l.02.04c-.1.03-.17.05-.21.02-.13.06.06.01.04.06l-.11-.02-.14.04.03.04c-.18.06-.2.11-.28.16l.03-.06-.22.12c-.14.04-.13-.02-.28.06.16 0-.17.1-.03.1h-.1l.1-.08-.18.07-.14.12.08-.07c-.15.01-.26.11-.42.16l-.14.17-.11.03-.05.03-.08.02.04-.07c-.2.07-.27.13-.5.22l.08.01-.1.08c-.11.03-.23.03-.31.08l.08.08c-.1.04-.11.04-.16.1l.03-.08v-.07c-.1.05-.1.08-.14.14l-.12.03c.047.07-.073.02-.23.14.11-.03.04.02.03.06v-.04c-.17.09-.223.09-.31.2l-.04-.07-.075.07-.31.14.01.04-.06-.02-.13.06h.08l-.1.09-.01-.05-.23.11.05.02c-.16.02-.3.11-.44.19l.08.04-.11-.02-.12.08.06.01c-.11-.01-.29.15-.38.18l.2-.07-.01.06c-.27.07-.32.21-.63.31l-.05.08.04-.06.08.06c-.11 0-.19.07-.25.03l-.05.09.1-.05c-.01.04-.08.06.02.07l-.19.08.05-.02-.13.03c-.15.05-.31.18-.41.2l.01.07c-.15.03-.08.06-.23.14l.02-.08c-.05.07-.15.12-.25.24-.1.03-.05-.01-.08-.04l-.02.12c-.09-.01-.04.11-.205.13l.06-.11c-.144.03-.02.07-.19.12.1.02 0 .11.11.06l-.13.14c-.12-.04-.18.12-.31.03l.04.1c.01-.12.02.01.116-.05-.07.1-.3.29-.41.34l.04-.05c-.1-.02-.01-.07-.06-.09-.06.1-.15.09-.19.17l.14-.09c.05.05-.11.11.04.08l-.134.06c.05.04-.16.11-.05.16l-.2-.05-.08.07.13.01c-.09.06-.12.1-.27.15.1.04-.04.06-.03.12l-.11.02.07.06-.11-.02-.06.07c-.04.09-.37.23-.31.32l-.06-.05c-.08 0-.06.03-.15.08l.074-.01c.01.14-.24.15-.31.19.12 0 .01.11-.12.23l-.16.01-.06.05.066.07-.02.05c-.2.01-.21.18-.36.23l.02.03c-.09-.02-.06.12-.22.16l-.11-.06.03.06-.15.09.05.01.1-.08c.103.04-.05.07-.047.1l.27.06.105-.06-.06.07 3.006.65c.44-.43.81-.84 1.45-1.37l.04-.1c.64-.55 1.45-1.21 2.08-1.74.64-.41 1.08-.8 1.68-1.19m15.97-3.6c.17-.06.38-.08.57-.1-.25.05-.39.06-.57.1m-.32.06l.19-.04-.18.04m-.2.02l.11-.01-.11.01m-.03.02l-.13.01.14-.03v.02m-3.03-.67l.186-.03c-.11.02-.14.05-.19.03m-.29.07l.15-.04-.15.04M31.12 7l-.08.03-.04-.04.16-.06-.035.07m-.8.57l-.115-.03.224-.07-.107.1m-5.205 4.65c0-.09.148-.14.13-.22.182-.04.178-.25.422-.33-.222.22-.33.44-.552.55M50.47 3.34l-.08-.02c.137-.04.078-.09.048-.15l-.12-.02.057-.01c-.273-.06-.768-.11-1.19-.14l-.003-.01h-.036l-.05-.01.037.02-.172-.02c-.13 0-.28-.02-.29-.04-.09 0-.15 0-.22-.01h.08-.12c-.02-.02-.18-.05-.28-.05l-.02.02h-.16l.13-.01c-.11-.04-.49-.05-.76-.06-.6-.04-1.19-.05-1.63-.06l-.2.02.1.02-.14.02-.06-.02.08-.03c-.13 0-.61-.02-.71.05l-.19.02-.03-.04-.16.01.1.01c-.14.04-.33.02-.56.04l-.01.03c-.32-.03-.85.06-1.24.08l-.14.06c-.21-.04-.73.07-.93.09l.03.01-.05-.01c-.47.08-.91.2-1.47.28l.1.01-.22.06.05-.05c-.21.03-.22.06-.4.07-.06.04-.21.07-.31.08l.13.02-.21.04.03-.02-.1.04-.03-.03c-.25.06-.38.07-.55.14l.16-.02c-.04.06-.43.16-.53.12l.16-.02.03-.02-.01-.02c-.18.07-.39.09-.57.18.13-.03.19-.04.31-.08-.2.1-.5.17-.77.25l.04-.05.06.02c.13-.06.2-.1.33-.12-.15-.03-.38.1-.58.14l.09.02c-.22.08-.41.13-.58.21l.11-.02-.06.07-.1-.04-.31.15-.07-.03c-.12.06-.17.07-.33.13l.04.04c-.07.03 0-.07-.09-.01l.02.04c-.09.03-.16.04-.19.01-.13.06.06.02.03.06l-.1-.02-.13.04.02.04c-.17.05-.19.1-.28.16l.03-.07-.22.11c-.13.03-.12-.02-.28.05.15.01-.16.1-.03.1h-.1l.11-.08-.18.06-.14.13.08-.07c-.15 0-.26.1-.41.14l-.14.17c-.06.02-.05-.05-.11.04l-.04.02-.08.02.05-.07c-.2.06-.27.12-.49.21l.07.01-.1.08c-.11.04-.23.02-.31.08l.07.08c-.1.04-.11.04-.16.1l.03-.08.01-.08c-.09.05-.1.08-.14.15l-.11.03c.04.07-.07.01-.23.13.11-.03.03.03.02.07l-.03-.05c-.17.09-.22.09-.31.2L32 6.4l-.073.08-.3.13.01.04-.054-.01-.127.05.077.01-.096.08-.005-.04-.218.11.052.02c-.146.01-.286.1-.428.18l.078.04-.1-.02-.134.08.056.02c-.105-.02-.28.14-.37.18l.19-.07-.006.06c-.257.07-.317.21-.614.31l-.047.08.04-.06.08.06c-.1 0-.19.07-.24.03l-.05.09.1-.05.01.08-.17.08.06-.02-.13.03c-.15.05-.29.18-.39.2l.01.07c-.14.03-.08.07-.22.14l.02-.07c-.05.07-.14.11-.25.24-.1.03-.04-.01-.07-.05l-.03.14c-.08-.02-.04.11-.2.13l.06-.11c-.13.02-.02.07-.18.12.1.02 0 .11.11.06l-.13.15c-.12-.04-.18.12-.29.02l.04.11c.01-.12.02.01.11-.05-.07.1-.29.3-.4.36l.05-.07c-.09-.01-.01-.06-.05-.09-.06.1-.14.1-.18.18l.13-.09c.05.04-.1.11.04.08l-.13.06c.05.05-.15.12-.05.17l-.19-.05-.07.07.13.01c-.09.06-.12.11-.26.16.1.04-.03.06-.02.12l-.11.02.07.07-.11-.03-.05.08c-.04.09-.35.23-.29.33l-.05-.05-.14.09.08-.02c.01.15-.23.15-.29.2.12 0 .01.11-.11.23l-.15.02-.05.05.06.08-.02.05c-.18.01-.19.18-.33.24l.02.03c-.09-.02-.05.12-.2.17l-.11-.07.03.07-.14.16-.06.01c.06.09.11-.1.21-.15.14.06-.15.08.02.14l-.16.06.05.04c-.2.1-.28.24-.43.41.13.04-.04.12-.12.16.13.02-.12.27-.21.19l-.01.05.23.05.03-.16.1.01c.02-.04-.09-.03 0-.1.1.09.19-.18.32-.16-.13.16-.25.29-.37.43l2.94.64c.06-.09.13-.18.22-.3.06-.06.33-.26.32-.38.5-.52.83-.98 1.51-1.6l.04-.1c.6-.56 1.37-1.23 1.99-1.76.61-.41 1.05-.8 1.63-1.19.09-.06.21-.08.26-.18.4-.19.68-.43 1.09-.66l.13-.06c1.9-1.13 4.12-2 6.24-2.55.16-.04.36-.11.53-.15.24-.07.51-.11.76-.16-.37.12-.82.17-1.14.3-.23.04-.74.18-1.02.27-.12.03-.33.1-.36.13L40 4.92l-.09.02-.024.04c-.937.25-1.86.68-2.68 1.02l-.01.05c.4-.18.804-.36 1.19-.51l.13-.05.24-.09c.566-.22 1.22-.46 1.836-.64 1.444-.41 2.75-.68 4.435-.88l.01.02c.14-.05.37-.05.518-.06l.02-.03.01.02c.31-.04.68-.05.99-.07.51-.02 1.02-.04 1.44-.03.63-.02 1.01.03 1.58.04.13-.03.42-.03.46-.06h.12c.02-.02.05-.03.16-.04-.06-.02-.04-.05.1-.05l-.11-.05.12-.08c.078-.01.11-.03.02-.04l.08-.02-.07-.1.11.01"/>
    <path d="M9.553 12.21l.162-.02-.168.01.006.01m-.164.02l.12-.03-.13.03m-.34.03l.22-.02-.23.02m-.85.07c.3-.02.46-.04.68-.06-.2-.01-.46.03-.68.06m28.69 3.44l.09.06c.06-.07.23-.06.14-.1-.12.1-.14-.02-.24.04m.04-.6c-.14.06.08.02.09.09.13-.07-.07-.07-.09-.09m-5.34-2.69c.34.08.55.22.86.21l-.24-.13c-.23.06-.31-.12-.62-.08m3.95 1.47l.12.02.08-.05-.2.03M24.7 10.96l.15.05.134-.08-.28.03m8.74 1.92c-.2.06-.47-.05-.43-.15l-.117.06c-.045-.03.1-.08-.038-.09-.08.12-.29-.06-.44.03.41.13.75.2 1.11.32.24.08.45.28.83.21-.17-.19-.85-.17-.94-.38m-9.72-2.1l.06.05h.1l.04-.06-.2.01m-10.21-.1l-.19.01.19-.01m-.57.06c.12-.02.16 0 .22-.03l-.22.03M2.82 12.4c.027-.02.225-.08.336-.1l.027.01.2-.04-.148.02c.135-.06.59-.15.913-.22.73-.17 1.427-.32 1.956-.43l.237-.03-.1.04.17-.02.09-.03-.09-.01c.16-.03.73-.17.85-.13.1-.02.19-.03.23-.03l.04-.04.19-.04-.11.04c.17 0 .4-.06.67-.11l.02.03c.38-.11 1.01-.17 1.48-.26l.17.02c.25-.1.87-.14 1.1-.18l-.02.02.06-.03c.55-.06 1.09-.08 1.75-.17l-.12.05.26-.01-.06-.04c.25-.03.28-.01.48-.05.09.02.26-.01.38-.03l-.16.06c.01.01.16-.02.25-.02l-.03-.02c.07-.04.03.03.12.01l.03-.04c.3-.02.46-.06.66-.04l-.19.03c.05.04.52.01.63-.05l-.19.03-.03-.01.01-.03c.22.01.46-.04.69-.01-.16.01-.24.02-.38.02.24.03.61 0 .94-.02l-.05-.03-.07.03c-.17-.01-.25-.02-.41.01.17-.08.46-.04.7-.07l-.11.05c.27 0 .51-.02.72 0l-.13.02c.09.01-.02.03.08.04l.11-.08.39.03c.09.01.07-.02.08-.04.15.01.21 0 .4 0l-.05.05c.08.01-.01-.06.11-.04l-.02.04c.12 0 .2-.02.24-.05.16 0-.06.03-.03.06l.11-.06.16-.01-.02.05c.22-.02.25.02.35.04l-.04-.04c.09.02.25-.03.27.02.16-.02.15-.07.33-.06-.17.07.21.03.06.08.1.02.04-.04.11-.03l-.14-.04.23-.01c.02.04.08.06.18.06l-.11-.03c.17-.05.32 0 .51-.02l.2.1.12-.01.06.01.1-.01-.06-.06c.24-.01.34.02.62.01l-.09.04.14.03c.13-.01.27-.07.37-.05l-.06.1c.12 0 .13 0 .2.03l-.05-.06-.02-.06c.12 0 .13.03.2.07l.14-.02c-.03.08.09-.01.29.03-.13.02-.03.04-.01.07l.03-.05c.21.01.27-.01.4.05l.03-.08.1.04c.02-.06.28-.02.38 0-.07.01-.11.03 0 .04l.05-.04h.16c.09.03-.08.02-.09.04l.13.03v-.04l.28.01-.06.04c.17-.05.35-.02.54-.01l-.08.07.12-.06.18.01-.06.04c.12-.06.36.02.48.01l-.24.02.02.05c.31-.05.42.06.79.01.1 0 0 .06.08.06l-.06-.04c-.1 0-.05.06-.08.09.12-.05.24-.02.3-.08.11 0 0 .06.08.06h-.12c.03.04.11.02.01.07h.23-.07l.16-.02c.19-.02.39.03.52 0l.01.07c.18-.03.11.03.3.03l-.04-.06c.08.04.21.04.36.11.12-.02.05-.03.07-.07.11.01.08.05.07.1.1-.05.08.08.27.03l-.1-.08c.16-.04.04.06.24.03-.1.06.04.1-.11.1.07.04.1.03.2.08.13-.1.24.02.35-.12l-.01.11c-.04-.1-.01.02-.14.01.12.05.43.13.58.13l-.07-.03c.11-.06-.01-.07.04-.11.1.06.19.02.27.07l-.18-.02c-.05.07.16.06-.03.09h.17c-.04.06.22.03.11.12.11.01.19-.08.21-.13l.11.03c-.11 0-.03.1-.14.06.13.01.18.04.36.02-.11.08.05.04.06.1l.13-.03-.06.08c.1 0 .03-.07.11-.07.02.03 0 .06.1.04l-.06-.07.22-.01c-.1.02-.08.06.03.07l-.19.01c.07.07.49.04.45.15.04.02.15-.08.04-.07.1-.03.08 0 .2.01l-.09.02c.04.13.32.03.41.04-.14.05.03.1.22.14l.18-.06.08.03-.05.09.04.03c.22-.07.29.07.47.05l-.02.04c.1-.06.11.08.31.04l.1-.1-.01.06.24.07.07-.02c-.03.1-.16-.03-.3-.02-.14.11.215-.01.026.12l.22-.03-.04.06c.277-.01.428.06.66.14-.13.1.1.08.21.07-.143.09.25.17.326.06l.11.06-.1.05c.19.02.25.13.45.06l.02.06.07-.06c.09.04.06.06.177.07l-.07.05c.34.14.53.17.77.27l-.13.06c-.12.03-.09-.02-.2-.02l-.07.08c.18.06.53.08.43.23.19-.08.374.08.51.11l-.13.03-.01.06.27-.03-.17.01.14.06.09-.08c.19.1.22.11.44.21-.21.07.04.08-.07.15-.09-.05-.18-.09-.27-.13.01.14.25.14.36.2l-.2.05c-.01.12.19.04.17.15.1-.06.04-.1.03-.14l.22.01c.02-.07-.16-.09.06-.16-.1-.08-.13.09-.2.02.16-.08-.04-.02-.01-.09.14 0 .26.06.35.11l-.1.01c.08.06.08.05.26.07l-.24.07.27.01-.08.15.11-.04.102.08c-.11.06 0 .08-.137.13.33.04.29.21.6.27-.24.12-.38-.17-.45-.05-.03.05.11.13.28.15l-.07.07c.12-.04.06.04.19.01l-.06.03.26.05-.09.05c.18 0 .14.15.32.16-.11.05-.25-.11-.42-.08-.07.06.06.09-.05.15.12-.02.25.05.28.11l-.14.03c.08.06.08.08.22.06-.09.05.03.05.04.1-.18-.02-.41-.11-.44-.25l-.21-.02c-.2.14.44.12.31.28l.17-.01c-.09.12-.05.05.04.15l-.16-.03-.13.03c-.1.08.06.04.1.11l-.05.07-.13.03-.19.23.15-.02-.09.06c.107.06.29.06.19.17-.01-.03-.323.07-.2.07-.26.01-.27-.15-.53-.19l.077.1c-.102.08-.03-.09-.19.02-.03.13.29.09.357.26-.13-.03-.26-.05-.37-.11.03.08.16.11.13.22l-.27.09c.05.14.11.16.25.24l-.03.07-.15-.04c-.16.11.1.08-.01.17-.12.03-.06-.03-.147-.03 0 .13.24.24.32.32-.15.05-.38-.09-.49-.15-.18-.1-.34-.22-.45-.33-.36.02-.56-.38-.87-.38-.19-.23-.72-.27-.95-.47-.11.03-.13.09-.25.09l.1-.04c-.13 0-.24-.06-.13-.15-.04-.06-.29.01-.18-.08-.1-.01-.09.05-.17.06-.406-.21-.92-.34-1.14-.58l.06.01-.05-.07-.06.1c-.31-.14-.61-.24-.725-.37-.13.03-.21-.02-.26-.1-.14.02-.3-.12-.47-.12-.24-.14-.41-.24-.86-.4-.08-.03-.5-.07-.52-.17-.78-.23-1.34-.47-2.36-.71l-.075-.07c-.9-.23-2.01-.5-2.89-.72-.837-.12-1.45-.29-2.237-.41-.12-.02-.27.01-.34-.07-.52-.02-.91-.12-1.44-.18h-.16c-2.49-.33-5.23-.4-7.8-.28-.2 0-.44 0-.65.01-.29.01-.61.04-.92.07.45.01 1-.08 1.38-.05.283-.03.9-.05 1.24-.05.15 0 .4-.01.44.01l.03-.02h.11l.02.02c1.14-.05 2.29.04 3.32.07l.01.04c-.5-.02-1.01-.05-1.49-.06l-.16-.01h-.3c-.707-.02-1.506-.04-2.26-.02-1.76.06-3.337.16-5.37.4l-.014.02c-.17-.01-.44.04-.62.07l-.02-.02-.01.02c-.37.04-.81.11-1.19.17-.62.1-1.23.19-1.74.29-.76.12-1.22.24-1.91.37-.16 0-.5.05-.56.03l-.14.02c-.02-.01-.06-.02-.18-.01.083-.03.06-.05-.11-.02l.13-.07c-.11 0-.2-.01-.13-.06-.096.01-.135 0-.02-.04h-.1c.09-.05.12-.09.1-.11l-.14.03.1-.03c-.16-.02-.08-.07-.036-.13.08-.02.05-.02.15-.04H.4c.338-.11.937-.25 1.45-.36l.006-.02h.04l.065-.02-.04.02c.09-.01.13-.04.21-.06.17-.02.34-.07.36-.09.11-.02.19-.03.27-.05h-.09l.15-.02m6.7 4.21l.16.01-.16-.03.01.02m-.15-.03h.12-.13m-.32-.06l.21.04-.21-.04m-.8-.14c.28.06.43.07.64.11-.19-.07-.43-.09-.64-.11M31.1 33.65l.038.14c.08-.06.194.05.147-.06-.13.07-.087-.11-.184-.08m.34-.8c-.13.02.05.08.02.18.14-.02-.01-.13-.02-.18m-2.82-6.64c.24.29.35.6.6.74.01-.13-.16-.19-.13-.3-.2-.05-.19-.34-.46-.44m2.41 4.19l.08.1.09-.03c0-.1-.17-.12-.16-.07m-7.61-9.77l.12.14.14-.06-.25-.08m6.5 7.13c-.18-.02-.34-.33-.27-.44l-.11.02c-.02-.06.12-.06.01-.14-.11.12-.2-.24-.35-.2.27.41.5.69.74 1.05.15.25.22.64.55.76-.03-.36-.57-.7-.56-1.05m-7.3-7.84l.04.1.09.03.05-.05-.17-.08m-9.25-4.25l-.17-.05.18.05m-.54-.11c.12.02.16.06.21.03l-.21-.03m-9.68-.42c.02-.03.21-.07.32-.08l.03.03.2-.01-.14-.01c.13-.06.56-.09.87-.11.7-.07 1.36-.11 1.87-.15l.23.02-.1.03.17.02.08-.02-.09-.04c.15 0 .7-.05.81.04.1 0 .19 0 .22.02l.03-.05h.19l-.11.02c.16.05.38.02.64.04l.02.04c.37-.06.97.04 1.42.06l.16.07c.24-.06.83.07 1.05.09l-.02.02.06-.03c.52.09 1.03.23 1.66.32l-.12.03.24.07-.06-.07c.24.03.26.07.45.08.08.05.24.08.36.09.02.09-.16-.02-.15.03l.24.06-.03-.03c.08-.04.03.05.12.05l.04-.04c.28.07.44.07.63.17l-.18-.02c.04.07.48.19.59.14l-.2-.02-.03-.02.01-.04c.21.1.44.11.65.23-.15-.04-.22-.06-.36-.11.22.14.57.23.87.32l-.04-.07-.07.03c-.15-.08-.23-.13-.38-.15.17-.04.44.12.66.16l-.11.04c.25.1.47.16.66.26l-.12-.02.07.09.12-.06.36.19.08-.03c.14.07.19.07.37.15l-.05.06c.07.04.01-.09.11-.02l-.02.06c.11.04.19.05.23.01.14.07-.07.02-.04.08l.12-.03.15.04-.02.06c.2.06.22.14.31.2l-.04-.08.244.14c.15.03.15-.04.31.06-.17.02.18.12.04.13h.11l-.11-.11.21.08c.01.06.06.11.15.16l-.09-.09c.16 0 .28.13.46.18-.03.1.19.17.15.23.06.02.05-.08.11.04l.06.03.09.03-.05-.1c.23.08.304.16.56.27l-.09.02.113.1c.12.04.26.02.34.09l-.085.12c.11.05.12.05.18.12l-.03-.1-.005-.11c.11.07.11.11.16.2l.13.03c-.05.1.08.02.25.18-.12-.03-.04.03-.03.09l.04-.06c.18.1.24.11.34.26l.04-.11.08.09.34.17c-.07-.01-.104 0-.01.07l.06-.03.14.07c.07.09-.08-.01-.09.01l.1.11.01-.06.24.14-.06.03c.167.02.32.13.48.24l-.09.06.118-.04.15.11-.07.02c.12-.03.32.19.42.23.04.11-.17-.08-.22-.08l.01.08c.29.09.35.28.685.4l.05.12-.04-.09-.09.09c.12-.01.21.09.276.03.09.05-.02.07.05.12l-.11-.06c.01.06.08.07-.014.09.06.08.14 0 .194.11l-.06-.02c-.01.09.11.04.14.03.17.07.33.24.44.26l-.02.1c.16.04.09.09.24.19l-.01-.11c.05.1.16.16.27.33.11.04.05-.01.08-.07.09.08.05.13.03.18.1-.02.04.16.22.17l-.05-.14c.16.02.02.1.2.15-.11.04 0 .16-.12.1.05.08.07.09.14.2.13-.07.19.15.33.01l-.04.15c-.01-.17-.03.02-.13-.06.08.13.31.4.43.47l-.05-.08c.11-.02.01-.09.07-.13.054.14.15.13.195.24l-.15-.12c-.06.06.11.15-.05.11.05.11.09.01.14.09-.06.06.17.14.04.22.095.07.19-.02.223-.08l.09.09c-.09-.04-.07.13-.14.03.1.07.135.14.29.2-.11.06.034.08.02.17.045.06.084-.07.125.03l-.08.09.127-.04.06.1-.02-.13.187.1v.11l-.16-.08c.03.13.38.31.31.45.02.04.15-.03.06-.08.09 0 .06.04.16.12l-.08-.02c-.02.21.25.2.31.27-.13-.01-.02.15.12.31l.17.01.06.08-.08.11.01.06c.21.01.21.25.37.32l-.03.05c.1-.03.05.16.22.22-.01-.09.04-.06.13-.09l-.03.08.16.23h.07c-.06.12-.12-.13-.23-.19-.16.08.17.1-.03.18l.18.08-.05.06c.22.13.31.32.46.56-.15.05.04.16.13.2-.15.05.12.38.23.27l.05.14-.09.01c.14.13.13.32.32.32v.1l.08-.03c.05.1.02.12.11.19l-.08.03c.193.38.323.53.46.8l-.13.01c-.11-.03-.06-.07-.14-.14l-.1.07c.11.19.37.41.22.56.19-.01.25.31.34.43l-.11-.03-.035.07c.08.02.18.01.22.12-.05-.01-.12.02-.13-.08l.07.16.1-.06c.09.24.11.26.23.53-.19-.02-.01.14-.12.16l-.14-.33c-.063.19.12.33.17.48.01.04-.174.05-.18-.04-.06.15.12.16.05.29.1-.02.08-.11.096-.18.08-.01.13.04.16.15.05-.1-.08-.22.12-.2-.04-.16-.14.05-.16-.07.16-.02-.02-.07.04-.14.11.09.16.23.21.35l-.09-.04c.03.11.04.12.16.23-.09.03-.19.07-.21-.03-.03.11.17.14.2.16-.07.04-.123.05-.134.17h.1l.03.18c-.1.01-.04.1-.16.1.22.23.11.44.31.7-.24.03-.19-.45-.31-.33-.04.05.013.24.124.37l-.087.05c.1.02.02.09.13.12l-.06.01c.02.12.14.08.16.21l-.09.02c.13.1.02.29.15.4-.11.01-.12-.29-.27-.34-.08.04-.01.16-.11.18.1.03.16.2.15.3l-.11-.04c.02.14.01.16.13.22-.1.01-.01.08-.03.15-.12-.13-.24-.38-.19-.59-.07-.02-.14-.03-.15-.15-.21.08.26.4.09.55l.13.09c-.12.11-.05.04-.04.22l-.1-.12-.11-.04c-.115.06.02.1.015.2l-.08.08-.1-.04c.032.07-.16.14-.25.21.002.07.14-.05.12.06l-.09.02c.04.14.17.24.04.34 0-.04-.26-.08-.17-.02-.19-.12-.12-.35-.28-.55l.01.18c-.13.05.01-.15-.15-.08-.09.16.15.28.11.55-.08-.11-.16-.21-.21-.36-.02.14.06.24-.02.38l-.23-.03c-.04.23 0 .28.05.47l-.06.07-.09-.12c-.17.05.02.16-.09.22-.1-.02-.03-.08-.09-.12-.07.18.04.46.06.61-.13-.01-.22-.34-.26-.48-.08-.22-.138-.48-.16-.69-.26-.16-.21-.82-.43-.98-.02-.42-.39-.76-.47-1.16l-.22-.01c.005-.09.07.01.1 0-.1-.07-.15-.2-.026-.28 0-.1-.22-.13-.1-.19H28c-.2-.51-.52-.97-.59-1.41l.047.04-.016-.11-.08.09c-.18-.34-.36-.64-.4-.87-.11-.04-.15-.15-.15-.28-.12-.05-.18-.33-.31-.41-.13-.32-.23-.55-.51-.99-.06-.08-.37-.34-.35-.5-.53-.71-.89-1.33-1.63-2.15l-.04-.14c-.65-.75-1.49-1.64-2.16-2.35-.67-.53-1.15-1.06-1.79-1.56-.1-.08-.24-.1-.28-.25-.44-.24-.75-.55-1.21-.85l-.14-.08c-2.11-1.47-4.6-2.58-6.99-3.24-.19-.05-.41-.13-.6-.19-.28-.07-.58-.12-.86-.18.41.15.93.2 1.28.36.27.05.83.22 1.15.33.13.04.36.12.41.17l.03-.03.1.04.03.05c1.06.3 2.09.85 3.01 1.28v.07c-.45-.23-.9-.46-1.34-.65l-.14-.06-.27-.11c-.63-.29-1.36-.58-2.06-.8-1.63-.5-3.1-.82-5.02-1.03l-.01.02c-.16-.05-.42-.05-.58-.06l-.02-.03-.01.02c-.35-.04-.77-.04-1.13-.05-.58-.02-1.16-.02-1.64.01-.72-.01-1.15.07-1.8.11-.15-.03-.47-.03-.53-.07h-.13c-.02-.02-.05-.03-.17-.04.08-.03.05-.07-.11-.06l.13-.07c-.1-.01-.19-.05-.13-.1-.09-.02-.13-.04-.02-.06l-.09-.03.09-.13-.13.01.1-.03c-.15-.05-.09-.11-.05-.19L1 15.5l-.065-.01c.313-.08.88-.17 1.362-.22l.007-.02h.04l.06-.01-.046.02.2-.04c.156.01.323-.03.34-.06.107 0 .175 0 .256-.02h-.08.14"/>
    <path d="M9.525 14.28l.165-.01h-.17l.005.01m-.17 0l.136-.01-.13.01m-.34-.01h.23-.23m-.86-.03c.31.02.47.01.69.02-.2-.04-.46-.03-.69-.02M34.81 24l.062.1.15-.08c-.128.08-.12-.06-.22-.02m.203-.68c-.137.04.06.05.057.13.15-.04-.03-.1-.05-.13m-4.17-4.49c.3.18.46.39.746.45-.012-.09-.2-.11-.19-.2-.225.01-.25-.22-.555-.25m3.26 2.71l.1.06.09-.04-.19-.02m-9.43-6.04l.138.08.14-.06-.27-.02m7.79 4.26c-.2.02-.42-.18-.36-.28l-.12.04c-.03-.04.12-.06-.01-.11-.1.12-.25-.14-.41-.08.35.25.65.42.95.65.21.16.35.44.71.47-.09-.27-.73-.42-.76-.69m-8.69-4.68l.05.07.1.02.05-.06-.19-.03m-10.04-1.97l-.19-.02.19.02m-.58-.02c.13 0 .17.03.23 0h-.22m-10.47.64c.03-.02.24-.07.36-.08l.03.02.21-.03-.15.01c.14-.06.61-.12.95-.17.76-.11 1.49-.2 2.04-.28h.25l-.11.03h.18l.09-.02-.09-.03c.17-.01.76-.11.88-.04.1-.01.19-.02.23-.01l.05-.05.2-.01-.12.02c.17.03.41-.02.7-.03l.02.03c.4-.08 1.04-.06 1.53-.1l.18.03c.26-.07.89-.03 1.13-.04l-.03.02.06-.03c.57.01 1.1.07 1.78.06l-.13.04.26.02-.06-.05c.25 0 .27.03.48.01.08.04.26.04.38.03l-.17.05c.01.01.16 0 .26.01l-.03-.02c.08-.04.03.03.13.02l.04-.03c.3.02.47 0 .67.05l-.19.01c.04.05.51.09.64.04h-.2l-.03-.01.01-.03c.22.05.47.02.69.09-.16-.01-.24-.01-.38-.03.23.07.61.09.94.13l-.05-.05-.07.03c-.16-.04-.24-.07-.4-.07.19-.05.47.04.71.04l-.12.05c.26.04.51.06.71.11l-.13.01c.08.03-.03.03.07.06l.13-.07.38.1.09-.04c.14.04.2.04.39.08l-.06.05c.08.02.01-.07.12-.03l-.02.04c.12.02.2.01.24-.02.16.03-.06.02-.04.07l.13-.04.16.01-.03.05c.22.02.24.07.34.11l-.03-.06.26.08c.16 0 .15-.06.34-.01-.19.04.2.07.04.11.1.04.05-.04.11-.02l-.13-.07.22.03c.02.04.07.08.17.11l-.1-.07c.18-.02.31.07.5.08l.17.15.13.02.06.01.1.01-.05-.07c.25.03.34.08.61.13l-.09.02.13.06c.13.02.28-.02.37.02l-.08.11c.12.02.13.02.19.06l-.04-.07v-.08c.12.03.12.06.18.12l.14.01c-.05.08.09 0 .28.1-.13-.01-.04.03-.03.07l.04-.05c.21.05.27.05.38.14l.04-.09.1.06.37.08c-.07 0-.11.02 0 .05l.06-.03.16.03-.09.02.12.07.01-.04.27.06-.07.04c.18-.02.35.04.53.1l-.09.06.13-.05.17.06-.07.03c.13-.04.35.09.46.11l-.24-.03.01.06c.32.02.4.16.768.19.1.02-.016.06.06.08l-.05-.06c-.09-.01-.06.07-.09.09.124-.03.23.03.3-.02.1.02-.01.06.06.08l-.12-.03c.02.05.1.05-.01.08l.22.05-.07-.01h.16c.18.02.37.13.49.13l-.01.08c.18 0 .1.05.28.09l-.03-.07c.07.06.19.09.32.2.12.01.06-.02.09-.07.11.04.07.09.05.14.103-.04.06.11.25.09l-.076-.1c.17-.01.03.07.23.08-.114.05.01.12-.126.1l.17.13c.147-.08.23.08.36-.06l-.03.13c-.02-.13-.02.02-.14-.03.1.09.38.25.518.29l-.06-.06c.11-.03 0-.07.06-.11.07.09.17.07.23.15l-.17-.07c-.06.06.14.1-.05.1l.16.03c-.06.06.2.09.07.17.1.04.2-.05.23-.1l.09.05c-.1-.02-.06.11-.15.05.12.04.16.08.33.1-.112.07.05.06.04.13h.13l-.08.08c.1.02.04-.07.13-.06l.08.07-.04-.09.21.04c-.09 0-.09.04.014.08l-.19-.03c.05.09.45.17.39.29.03.03.16-.06.06-.07.09-.03.07.02.19.05h-.1c0 .17.29.11.37.15-.14.02 0 .12.17.22l.182-.03.07.05-.06.1.02.04c.23-.02.257.15.44.17l-.02.05c.11-.04.08.12.27.13l.12-.1-.02.07.2.14.07-.01c-.057.11-.15-.07-.28-.1-.16.09.2.05-.01.15l.21.02-.05.06c.26.05.38.18.57.33-.15.07.08.11.18.13-.15.06.19.26.29.15l.08.1-.1.02c.18.08.2.22.4.19l.01.08.08-.05c.07.07.04.09.148.13l-.08.04c.28.24.44.33.64.51l-.13.03c-.12 0-.072-.04-.17-.07l-.09.07c.14.12.46.23.33.38.197-.05.32.19.43.26h-.12l-.02.06.26.04-.16-.03.1.11.1-.07c.15.17.17.18.35.35-.2.03.02.11-.11.16l-.21-.23c-.03.16.19.23.27.33l-.2.01c-.04.13.16.09.11.21.11-.04.07-.1.07-.15l.2.07c.04-.08-.12-.15.1-.17-.07-.11-.14.06-.19-.03.17-.04-.025-.04.02-.11.13.05.22.15.29.22l-.1-.01c.05.08.058.08.216.15-.09.04-.19.09-.23.01-.02.09.2.07.24.09l-.12.15.11-.02.07.13c-.11.03-.02.09-.15.11.28.13.2.32.465.47-.25.08-.3-.3-.4-.19-.045.05.06.19.2.26l-.08.05c.11 0 .05.07.17.07l-.07.02c.05.08.17.03.22.12l-.1.04c.16.04.09.22.24.27-.12.03-.19-.2-.356-.2-.08.04.03.12-.09.16.12 0 .22.12.23.19h-.13c.05.1.05.12.18.13-.1.04.01.07 0 .13-.15-.08-.34-.24-.33-.41-.08 0-.16.01-.19-.08-.21.1.37.25.21.4l.16.04c-.11.11-.05.04 0 .18l-.135-.08H35c-.11.06.04.07.06.15l-.07.07h-.12l-.23.21.14.02-.1.04c.08.09.25.14.12.25 0-.03-.3-.01-.19.02-.23-.06-.2-.24-.42-.36l.05.13c-.13.07-.01-.11-.18-.03-.07.14.23.18.24.4-.11-.07-.22-.13-.306-.23.004.1.114.17.06.29l-.266.02c.01.19.065.22.16.35l-.04.07-.12-.08c-.17.07.065.12-.055.19-.11 0-.046-.06-.12-.08-.036.15.15.35.2.45-.15.03-.31-.21-.39-.3-.13-.16-.25-.34-.32-.5-.32-.07-.4-.58-.68-.66-.106-.32-.576-.5-.737-.79-.1.01-.13.06-.24.04l.11-.03c-.11-.03-.2-.12-.07-.2-.02-.08-.27-.06-.14-.14l-.17.04c-.31-.35-.75-.64-.89-.96l.057.02-.03-.09-.074.09c-.25-.23-.5-.42-.58-.59-.13-.01-.19-.08-.22-.18-.14-.02-.25-.22-.41-.26-.19-.22-.32-.37-.7-.66-.07-.06-.44-.2-.44-.32-.68-.45-1.14-.86-2.05-1.36l-.05-.1c-.79-.46-1.79-1.01-2.58-1.44-.77-.31-1.33-.63-2.06-.93-.12-.04-.26-.04-.32-.14-.5-.12-.86-.31-1.37-.48l-.16-.04c-2.36-.83-5.06-1.36-7.65-1.6-.2-.02-.44-.06-.64-.08-.3-.03-.63-.03-.93-.05.44.07 1 .06 1.38.14.29.01.9.08 1.25.12.14.02.39.05.43.09l.03-.03.11.02.02.03c1.14.11 2.27.41 3.27.61l.01.05c-.49-.11-.99-.23-1.46-.32l-.16-.03-.29-.05c-.7-.14-1.49-.28-2.25-.37-1.77-.2-3.36-.29-5.44-.26l-.01.02c-.17-.03-.46-.01-.64.01l-.02-.03-.01.02c-.38.01-.84.04-1.23.07-.64.04-1.27.08-1.8.15-.79.05-1.27.15-1.99.23-.16-.01-.51.01-.57-.01l-.14.01c-.02-.02-.06-.03-.19-.03.09-.02.07-.05-.11-.03l.15-.07c-.11 0-.21-.02-.13-.07-.1 0-.14-.02-.02-.05L.2 14.5c.106-.04.13-.09.11-.11l-.14.02.1-.03c-.16-.03-.08-.08-.03-.15.08-.01.057-.02.15-.04H.2c.357-.09.98-.2 1.516-.28l.01-.02h.045l.07-.01-.05.01c.1 0 .14-.03.22-.04.17-.01.36-.05.38-.08.12 0 .19-.01.28-.03h-.09l.16-.01"/>
  </g>
</svg>
