<svg display="none" width="0" height="0" version="1.1" xmlns="http://www.w3.org/2000/svg" xmlns:xlink="http://www.w3.org/1999/xlink">
<defs>

<symbol id="logo" viewBox="0 0 179 30" xmlns="http://www.w3.org/2000/svg">
  <title>Land Trust Alliance</title>
  <g fill="#FFF" fill-rule="evenodd">
    <path d="M38.174 20.362c0 1.092-.148 1.536 1.406 1.536 4.27 0 4.9-1.905 5.138-1.905.13 0 .15.185.15.222 0 .666-.48 1.314-.926 1.795-.59.665-1 .63-1.81.63-1.408 0-2.812-.113-4.217-.075-.737.017-1.516.074-2.254.074-.16 0-.27-.04-.27-.19.04-.22.22-.19.82-.48.48-.23.52-.74.52-1.61v-9.37c0-.96-1.55-.83-1.55-1.21 0-.21.13-.24.37-.24.39 0 .96.07 1.87.07 1.05 0 1.5-.08 1.78-.08.24 0 .35.04.35.26 0 .42-1.35-.04-1.35 1.57v8.98m12.06-1.77c-1.18.25-3.44.55-3.44 2.18 0 1.05.54 1.46 1.52 1.46.67 0 1.93-.52 1.93-1.5v-2.14zm0-1.87c0-.96-.76-1.61-1.91-1.61-.88 0-1.61.09-1.61 1.11 0 .28.11.55.11.76 0 .2-.05.35-.4.35-.31 0-.87-.28-.87-.61.02-.85 1.06-2.15 3.11-2.09 1.15 0 2.92.33 2.92 1.9v3.82c0 .63-.16 1.72.8 1.72l.31-.04c.09 0 .24 0 .24.13 0 .39-.81.46-1.07.46-.72 0-1.2-.34-1.44-.95-.77.66-1.79 1.07-2.83 1.07-1.2 0-1.99-.45-1.99-1.76 0-.98.32-2.15 4.64-2.87v-1.4zm5.51 4.42c0 1.27 1.63.74 1.63 1.24 0 .22-.13.26-.4.26-.31 0-.68-.08-1.76-.08-.98 0-1.35.07-1.57.07-.24 0-.33-.04-.33-.23 0-.37 1.09 0 1.09-1.21V16.6c0-1.11-1.37-.63-1.37-1.016 0-.11.08-.186.17-.204 1.54-.335 1.91-.925 2.33-.925.11 0 .22.11.22.3V16c-.03.222.89-1.368 2.68-1.368 2.48 0 3.02 2.053 3.02 3.457v3.05c0 1.27 1.44.74 1.44 1.24 0 .22-.12.26-.31.26-.24 0-.7-.08-1.61-.08-.7 0-1.09.07-1.33.07s-.33-.04-.33-.23c0-.37.8 0 .8-1.2v-3.46c0-.92-.66-2.31-2.16-2.31-1.55 0-2.2 1.14-2.18 1.44v4.25m13.28-3.93c0-1.37-1.11-2.15-2.44-2.15-1.74 0-2.51 1.62-2.51 3.16 0 1.53 1.11 3.75 2.87 3.75 1.54 0 2.09-.95 2.09-1.61V17.2zm0-6.27c0-1.11-1.46-.63-1.46-1.02 0-.11.07-.19.17-.21 1.43-.34 2-.93 2.42-.93.11 0 .22.11.22.29V21.7c0 .223.38.37.99.465.12.02.2.02.2.17 0 .13-.48.25-1.17.25-.48 0-1 .15-1.16.15-.15 0-.2-.15-.2-.28v-1.01h-.04c-.62.79-1.64 1.29-2.71 1.29-2.03 0-3.27-1.87-3.27-3.774 0-2.18 1.53-4.36 3.86-4.36.78 0 1.54.22 2.17.64V10.9zm12.24.48c0-.13.08-.83-.18-.85H78.1c-1.146 0-1.182.28-1.515 1.29-.06.18-.074.42-.317.42-.11 0-.186-.13-.186-.22l.205-1.8c.01-.23 0-.73.33-.73 1.44 0 2.86.07 5.25.07 3.34 0 5.05-.08 5.41-.08.42 0 .514.11.534.54l.09 1.48c.02.18.04.4-.2.4-.68 0 .32-1.41-1.57-1.41h-2.64c-.83 0-.74-.08-.74.9v9.43c0 1.55 1.5.94 1.5 1.52 0 .05.02.22-.17.22-.44 0-.96-.08-1.5-.08-2.07 0-2.42.07-2.53.07-.16 0-.22-.06-.22-.24 0-.45 1.46-.26 1.46-1.37v-9.6"/>
    <path d="M88.608 21.01c0 1.72 1.645.833 1.645 1.425 0 .165-.092.204-.297.204-.258 0-.702-.08-1.738-.08-1.238 0-1.57.07-1.7.07-.148 0-.203-.06-.203-.17 0-.39.943-.32.943-1.08v-4.77c0-1.11-1.33-.63-1.33-1.02 0-.11.146-.19.237-.2 1.425-.34 1.794-.93 2.22-.93.11 0 .223.11.223.29v1.39h.036c.388-.54 1.054-1.54 1.83-1.54.388 0 1.22.48 1.22.83 0 .28-.443.83-.665.83-.36 0-.56-.43-1.22-.43-.76 0-1.21.85-1.21 1.09V21m9.65-5.03c0-.7-.98-.255-.98-.7 0-.15.24-.166.33-.166.53 0 .79-.055 1-.11.2-.038.37-.094.66-.094.07 0 .33.09.33.443v6.394c0 .48 1.16.24 1.16.645 0 .147-.39.167-.69.167-.52 0-.78.05-1 .09-.21.05-.35.11-.63.11-.15 0-.17-.2-.17-.28v-1.01h-.04c-.57.87-1.48 1.29-2.46 1.29-1.48 0-2.7-.91-2.7-2.48v-4.31c0-.7-.98-.26-.98-.7 0-.15.24-.17.33-.17.54 0 .8-.06 1-.11.2-.04.37-.1.67-.1.07 0 .33.09.33.44V20c-.02 1.96 1.55 2.09 1.79 2.09 1.05 0 1.98-.777 2.01-1.312v-4.82m3.54.87c0-1.48 1.14-2.22 2.49-2.22.31 0 1.59.15 1.81.427.11.15.09.78.09.91 0 .5.07.72-.21.72-.19 0-.35-1.61-2.03-1.61-.72 0-1.3.426-1.3 1.184 0 .6.48.99 2.42 1.77 1.05.44 1.53 1.01 1.53 2.2 0 1.38-1.13 2.53-2.5 2.53-1.3 0-1.63-.54-2.08-.54-.4 0-.4-.02-.4-1.48 0-.32-.05-.91.22-.91.41 0 .21 2.44 2.2 2.44.91 0 1.65-.56 1.65-1.52 0-.98-.95-1.28-1.69-1.63-1-.5-2.24-.98-2.24-2.3m6.96-1.22c-.87 0-1 0-1-.13 0-.15.46-.46 1.4-1.5.37-.45.55-.85.7-.85.26 0 .24.39.24 1.72h2.03c.46 0 .67-.32.72-.32.1 0 .13.09.13.14 0 .07-.05.16-.11.26l-.37.66h-2.4V21c.04.76.55 1.11 1.29 1.11.98 0 1.26-.425 1.57-.425.08 0 .15.018.15.166 0 .28-1 .91-2.29.91-.85 0-2.07-.24-2.07-2.14v-4.99m13.27.74c-.13.26 0 .33.24.33h3.66c.41 0 .39-.13.3-.37l-1.81-4.45c-.09-.22-.18-.22-.29 0l-2.09 4.5zm5 1.85c-.19-.42-.3-.7-.82-.7h-4.06c-.35 0-.68 0-.87.39L120 20.5c-.05.13-.12.41-.12.65 0 1.3 1.31.74 1.31 1.22 0 .33-.26.28-.5.28-.51 0-1.03-.07-1.55-.07-.5 0-1 .08-1.48.08-.11 0-.16-.1-.16-.21 0-.39.87-.08 1.35-1.13l4.41-9.43c1.09-2.33 1.15-2.62 1.39-2.62.21 0 .34.54.39.69l3.85 9.52c.27.69.5 1.46.92 2.11.55.86 1.63.45 1.63.91 0 .17-.14.17-.26.17-.76 0-1.52-.07-2.28-.07-.5 0-1 .08-1.5.08-.11 0-.41 0-.41-.19 0-.44 1.11-.26 1.11-.96 0-.41-.39-1.26-.574-1.76l-.59-1.52zm7 2.93c0 1.28 1.54.74 1.54 1.24 0 .22-.15.26-.43.26-.26 0-.84-.07-1.7-.07-.91 0-1.26.08-1.44.08-.15 0-.23-.08-.23-.25 0-.27.91-.22.91-1.01V10.94c0-1.11-1.26-.63-1.26-1.018 0-.11.07-.184.17-.204 1.42-.333 1.79-.925 2.22-.925.11 0 .22.11.22.294v12.06m4.81 0c0 1.277 1.54.74 1.54 1.24 0 .22-.15.26-.43.26-.26 0-.83-.075-1.7-.075-.91 0-1.26.072-1.44.072-.15 0-.22-.08-.22-.25 0-.273.9-.22.9-1.012V10.94c0-1.11-1.26-.63-1.26-1.02 0-.11.07-.183.16-.203 1.42-.333 1.79-.925 2.21-.925.11 0 .22.11.22.293v12.06m4.77-9.338c0 .223-.54.963-.78.963-.22 0-.78-.76-.78-.963 0-.2.56-.978.78-.978.24 0 .77.75.77.97m-1.44 4.82c0-1.11-1.02-.63-1.02-1.02 0-.11.07-.18.17-.2 1.18-.33 1.55-.92 1.98-.92.11 0 .22.11.22.29v6.64c0 .94 1.46.53 1.46 1.02 0 .14-.11.2-.35.2-.39 0-.96-.08-1.72-.08-.59 0-1.07.07-1.28.07-.15 0-.26-.02-.28-.21 0-.47.82.24.82-1.44V16.6m8.38 1.96c-1.18.26-3.44.557-3.44 2.18 0 1.056.54 1.46 1.52 1.46.67 0 1.93-.514 1.93-1.493v-2.14zm0-1.865c0-.964-.76-1.61-1.91-1.61-.88 0-1.6.09-1.6 1.11 0 .276.11.552.11.756 0 .21-.05.35-.41.35-.31 0-.87-.27-.87-.6.02-.85 1.06-2.14 3.11-2.09 1.15 0 2.92.34 2.92 1.91v3.83c0 .63-.16 1.72.8 1.72l.32-.04c.09 0 .24 0 .24.13 0 .39-.81.47-1.07.47-.72 0-1.2-.33-1.44-.94-.77.67-1.79 1.08-2.83 1.08-1.2 0-1.99-.44-1.99-1.75 0-.98.31-2.14 4.64-2.86V16.7zm5.73 4.416c0 1.28 1.63.74 1.63 1.24 0 .22-.13.26-.4.26-.32 0-.69-.07-1.76-.07-.98 0-1.35.07-1.57.07-.24 0-.33-.04-.33-.22 0-.37 1.09 0 1.09-1.2v-4.58c0-1.11-1.37-.63-1.37-1.01 0-.11.08-.19.17-.2 1.53-.34 1.91-.93 2.33-.93.11 0 .22.11.22.29V16c-.04.222.88-1.368 2.68-1.368 2.47 0 3.01 2.053 3.01 3.457v3.05c0 1.27 1.44.74 1.44 1.24 0 .22-.13.26-.32.26-.24 0-.7-.08-1.61-.08-.71 0-1.09.07-1.33.07s-.34-.04-.34-.23c0-.37.79 0 .79-1.2v-3.46c0-.92-.67-2.31-2.16-2.31-1.55 0-2.19 1.14-2.18 1.44v4.25m7.51-2.29c0-2.31 1.83-4.22 4.16-4.22.92 0 2.18.26 2.23.68.04.4.02.85.02 1.09 0 .25-.05.39-.14.39-.18 0-.39-.36-.44-.43-.63-.85-1.44-1.13-2.29-1.13-1.57 0-2.18 1.62-2.18 2.96 0 1.99 1.18 3.64 3.27 3.64 1.44 0 2.25-1.08 2.53-1.08l.15.11c0 .29-1.11 1.88-3.64 1.88-2.13 0-3.66-1.87-3.66-3.92m13-1.46c.26 0 .37-.09.37-.37 0-1.04-1.04-1.96-2.06-1.96-1.14 0-1.96 1.31-1.96 2.33h3.64zm-3.64.5c0 3.05 1.85 3.96 2.97 3.96 1.59 0 2.2-.96 2.61-.96l.07.13c0 .42-1.61 1.76-3.27 1.76-2.78 0-3.74-2.58-3.74-3.79 0-2.37 1.31-4.35 3.62-4.35 2.27 0 3.27 2.2 3.27 2.94 0 .33-.2.31-.63.31H173zM22.94 7.98l-.14.066-.003.07.125-.053.017-.082m-7.41-2.46l.11-.11c.16 0 .16-.12.37-.15-.19.11-.29.23-.49.27m-.6.41c-.14.09-.22.25-.47.28.05-.14.49-.25.49-.39.14 0 .28-.11.23-.16l.08.02V5.6c.08.055.17-.086.28-.062-.23.15-.43.25-.63.385m-1.11.91l-.07-.016.13-.02-.07.036m-.38 1.312l-.11-.036c.1.03.08-.04.16-.02l-.05.05m-.16-.33c-.1-.02.02-.05.04-.07.1.01-.04.03-.03.06m6.7-4.67l-.09.05-.1-.03.18-.04m.44-.25l.13-.03-.03.04-.07.01-.04-.03M27.04.96l-.12.03.12-.03m.25-.04l-.145.03.146-.025m2.5.24v.01l-.11.014.11-.02m.11-.02l-.09.01.09-.01m.22-.05l-.14.03.15-.03m.55-.11c-.19.04-.29.06-.44.09.12-.04.29-.07.44-.09M15.9 7.82c.082-.02.136-.074.04-.11.01-.04.187-.04.093-.075l.12.008c.203-.194.493-.366.576-.54l-.04.012.02-.044.05.05c.16-.13.32-.24.37-.33l.14-.1c.1-.01.16-.12.26-.15.12-.13.2-.21.44-.38l.29-.19c.43-.27.73-.51 1.31-.83l.03-.05c.5-.29 1.14-.64 1.63-.92.49-.22.84-.43 1.3-.64l.2-.1c.32-.1.54-.23.86-.36l.1-.03c1.48-.63 3.18-1.15 4.82-1.55l.4-.1c.19-.04.4-.08.59-.12-.28.08-.64.13-.88.22-.18.04-.57.13-.79.19-.09.02-.25.07-.27.09l-.03-.01-.07.02-.01.02c-.73.17-1.43.43-2.07.63l.01.03c.31-.1.62-.21.92-.3l.1-.03.18-.06c.43-.14.93-.29 1.41-.41 1.12-.29 2.13-.5 3.46-.73l.01.01c.11-.03.29-.05.41-.07l.02-.02.01.01c.24-.04.54-.07.79-.1.41-.05.82-.11 1.16-.14.5-.07.82-.08 1.29-.13.1-.03.32-.06.36-.08L35.6.4l.12-.04c-.05-.01-.04-.03.07-.04L35.7.27l.07-.057.002-.03.055-.02-.08-.05.09-.006-.07-.003c.1-.03.034-.05-.01-.08h-.1l.04-.01c-.236 0-.646.03-.996.05l-.02.01-.04.01h.04-.14c-.11.02-.23.02-.25.01L34.1.1l.053-.01-.096.012h-.236l-.01.01-.13.01.1-.02c-.1-.01-.4.018-.62.034-.5.03-.97.07-1.33.09l-.15.024.08.006-.11.02h-.06l.05-.02c-.1.01-.49.025-.56.073l-.18.02-.03-.02-.13.01.08-.01c-.1.03-.26.03-.44.06v.02c-.26 0-.67.08-.98.11l-.1.04c-.18-.01-.57.07-.73.09h.02l-.04-.01c-.36.06-.7.14-1.13.21h.09l-.17.04.03-.03c-.17.02-.18.04-.31.05l-.25.05.11.01-.17.03.02-.02-.07.02-.04-.01c-.19.04-.3.05-.42.09l.13-.02-.41.08.13-.02.02-.01-.01-.02c-.13.05-.3.06-.43.11l.25-.05c-.14.06-.38.11-.59.15l.03-.03h.06c.1-.04.15-.06.25-.07-.12-.01-.29.06-.45.09l.09.01c-.17.04-.32.08-.45.12l.09-.02-.04.04-.09-.02-.24.08-.06-.01c-.09.03-.13.04-.25.07l.05.02-.08-.01.02.03-.16.01c-.1.03.05 0 .03.03H24l-.1.02.03.02c-.14.03-.15.06-.21.09l.017-.03-.16.06c-.11.02-.11-.01-.23.03.13.01-.12.05-.01.06h-.078l.08-.05-.14.03-.11.07.05-.04c-.12 0-.2.06-.33.08l-.1.1-.08.02-.04.01-.07.02.03-.04c-.16.03-.21.06-.39.11l.06.01-.08.04-.24.04.07.05-.12.04.02-.04V2.3l-.11.08-.09.015c.04.04-.06.01-.18.07l.02.033-.03-.026c-.13.04-.18.043-.24.1l-.04-.04-.06.034-.24.07.01.03-.04-.01-.1.024.06.002-.07.04-.01-.02-.17.05.05.01c-.12.006-.23.05-.35.09l.07.03-.08-.016-.11.045.05.01c-.09-.01-.23.07-.3.09l.15-.03v.03c-.21.03-.25.11-.5.15l-.03.05.02-.03.07.04-.2.01-.03.05.08-.02.01.04-.14.04.05-.01-.11.01c-.12.02-.24.08-.32.09l.01.04c-.12.01-.07.03-.18.07l.01-.04-.2.12-.06-.03-.02.07c-.08-.01-.04.07-.17.07l.04-.06c-.11.01-.01.04-.15.06.08.02 0 .06.09.04l-.11.08c-.11-.03-.15.05-.25-.01l.03.06.09-.02c-.06.05-.24.15-.33.18l.03-.03-.05-.05-.15.09.11-.04c.04.03-.09.06.04.05l-.11.03c.04.03-.14.05-.04.09l-.16-.03-.06.03.1.02c-.08.03-.1.05-.22.08l-.02.06-.09.01.06.04-.09-.02-.05.04-.25.17-.05-.03-.12.04.06-.01-.25.09c.1 0 0 .06-.1.12h-.13l-.05.03.05.05-.01.02c-.16 0-.16.1-.29.12l.02.02c-.07-.01-.05.07-.18.08l-.09-.04.02.04-.13.09h-.05l.19-.06c.11.04-.14.04.01.08l-.14.03.04.03c-.18.04-.25.11-.38.2.11.03-.04.06-.11.07.11.02-.12.15-.19.09l-.05.06.07.01c-.12.05-.13.12-.27.11l-.01.04-.06-.02-.1.08.06.02c-.18.14-.29.2-.41.3l.09.01.12-.04.07.03c-.09.07-.31.14-.21.21-.14-.01-.22.11-.29.15l.08-.01.02.03-.17.03.11-.03-.07.06-.07-.03c-.1.1-.12.1-.23.2.15.01-.01.06.08.08l.14-.12-.18.2h.14l-.07.11-.06-.08-.13.05c-.03-.04.07-.08-.08-.08l.13-.02c-.13-.02.01-.02-.02-.05-.09.03-.15.09-.2.13l.1-.05c-.03.04-.04.04-.14.08h.17l-.17.05.09.08h-.08l-.05.07c.08.01.02.05.11.06-.2.08-.13.17-.32.26.18.03.2-.164.28-.11.03.027-.04.098-.14.14l.06.027-.12.04.04.01-.15.07.07.01c-.11.04-.05.12-.16.15.08.02.13-.1.24-.11l.07.08-.15.11.09-.006c-.04.05-.03.06-.13.078v.07c.11-.04.24-.13.23-.22l.13-.05c.15.05-.25.14-.14.22l-.11.03v.09l.1-.04.09-.01-.04.08.05.04h.09l.17.1-.09.02.07.01-.08.13h.13c.17-.03.14-.13.3-.2l-.01.07c.09.03 0-.06.13-.02.05.07-.16.1-.16.21l.2-.13-.03.15.19.01c0 .1-.04.11-.11.19l.04.03.09-.04c.13.03-.04.07.05.1l.08-.05-.03.12.2-.12.02.01.15-.21c.23-.05.26-.32.46-.37.06-.17.39-.29.48-.45l.18.01-.08-.005m1.22-3.41l-.14.03v.05l.12-.03.02-.05m.34 3.38l-.147.06V8l.13-.05.02-.08m3.66-2.5l-.07.03-.04-.038.14-.05-.026.06m-.69.48l-.11-.03.2-.06-.09.09m8-3.71l-.133.04.14-.043m.28-.07c-.095.02-.12.05-.167.03l.16-.03m2.69.32l-.01.01-.12.02.12-.03m.11-.02l-.1.02.09-.01m.25-.06l-.17.04.16-.04m.62-.16c-.22.06-.34.08-.5.13.14-.06.33-.1.5-.13M23.22 6l.22-.16c.35-.17.6-.37.95-.58l.11-.06c1.64-.99 3.56-1.82 5.4-2.42.14-.04.31-.11.46-.16.21-.07.45-.12.67-.18-.32.12-.72.2-.99.32-.21.06-.65.21-.89.3-.1.04-.28.1-.31.14l-.02-.01-.08.03-.02.03c-.82.27-1.61.67-2.32.98v.04c.35-.17.7-.34 1.03-.48l.11-.05.21-.09c.49-.21 1.06-.44 1.59-.63 1.27-.43 2.41-.75 3.91-1.06l.01.01c.13-.05.33-.07.46-.09l.01-.03.01.02c.27-.06.6-.1.89-.15.46-.07.92-.13 1.3-.17.564-.08.92-.08 1.44-.14.12-.03.37-.07.41-.1l.1-.01c.01-.02.04-.03.13-.05-.07-.01-.05-.03.08-.05l-.1-.03.08-.08.01-.04.07-.02-.09-.07.1-.01-.07-.01c.12-.04.05-.07.01-.11H38l.05-.01c-.262 0-.722.02-1.112.04h-.08l.04.01h-.16c-.12.02-.26.02-.28 0l-.2.02.064-.01-.11.02L36 .84l-.02.01-.15.01.11-.02c-.11-.02-.454.01-.7.02-.556.03-1.084.08-1.49.11l-.18.03h.087l-.13.03h-.063l.06-.036c-.12.013-.55.04-.63.104l-.17.03-.03-.03-.14.02h.09c-.12.042-.29.05-.5.09l-.005.02c-.29 0-.75.12-1.11.17l-.12.05c-.19-.015-.64.112-.82.145l.03.01-.05-.01c-.41.1-.79.23-1.28.33l.1.01-.19.06.04-.046c-.18.04-.2.06-.35.08l-.27.08.12.007-.18.05.02-.02L28 2.2l-.03-.02c-.216.063-.338.078-.48.146l.142-.027c-.03.04-.368.15-.46.13l.14-.03.02-.02-.01-.03c-.15.07-.337.09-.49.18.112-.03.17-.05.273-.09-.162.09-.43.17-.664.25l.03-.04.06.01c.12-.06.17-.09.29-.12-.13-.01-.33.1-.5.14l.09.01c-.19.07-.36.12-.5.19l.09-.01-.05.06-.09-.03-.27.13-.06-.02c-.1.05-.14.05-.28.11l.05.03h-.06l.02.03-.18.02c-.11.05.05 0 .03.04H25l-.116.04.026.03c-.156.04-.17.09-.24.13l.02-.05-.18.1c-.117.03-.116-.02-.24.05.134 0-.14.08-.026.08h-.08l.09-.07-.16.06-.12.11.07-.07c-.13.01-.22.09-.35.13l-.12.15-.09.03-.04.02-.07.02.037-.07c-.17.06-.23.11-.43.19h.07l-.09.06c-.09.03-.2.03-.27.07l.07.06-.13.08.03-.06V4.3l-.12.12-.1.02c.04.055-.06.015-.2.116.1-.02.03.02.03.05l-.03-.03c-.14.074-.19.08-.26.17l-.03-.06-.06.06-.26.116.01.034-.05-.01-.11.045.07.01-.08.07-.01-.03-.19.1.05.01c-.13.02-.25.09-.37.16l.07.03-.09-.02-.11.07.05.02c-.1-.01-.24.12-.32.15l.17-.06-.01.05c-.22.06-.27.18-.53.26l-.04.07.04-.05.07.05c-.09 0-.17.06-.22.03l-.04.08.09-.04.02.06-.15.07L20 6l-.12.03c-.13.04-.26.15-.35.17l.016.06c-.125.03-.07.06-.195.12l.02-.06c-.04.05-.13.1-.21.2l-.1.006-.02.1c-.08-.01-.04.1-.18.11l.05-.09c-.12.02-.01.06-.16.1.09.02 0 .09.1.06l-.11.13c-.1-.03-.15.1-.26.02l.03.09c.01-.09.02.02.1-.03-.07.08-.26.25-.36.29l.04-.05-.05-.07-.16.15.12-.07c.04.04-.1.1.04.07l-.12.06c.04.03-.14.09-.05.13l-.17-.04-.07.055.11.01c-.08.05-.11.09-.23.13l-.02.1-.1.02.06.05-.1-.02-.06.06-.27.28-.05-.04-.13.07.07-.01c.01.12-.21.13-.26.17.1 0 .01.09-.11.19l-.13.01-.05.04.05.07-.02.04c-.16.01-.17.15-.3.19l.02.03c-.08-.01-.05.1-.19.14l-.1-.05.02.05-.13.08.04.01.09-.07c.09.03-.04.05-.04.08l.23.05.09-.05-.05.05 2.55.56c.38-.37.68-.72 1.23-1.17l.04-.08c.54-.47 1.23-1.03 1.77-1.48.54-.35.92-.68 1.43-1.01m13.59-3.06c.14-.05.32-.07.48-.08-.21.05-.33.05-.48.09m-.28.05l.16-.03-.16.03m-.17.02l.1-.02h-.09m-.02.01l-.12.01.12-.02m-2.56-.57l.14-.04-.16.03m-.24.06l.14-.03-.13.04M26.5 5.42l-.062.024-.037-.035.14-.06-.03.06m-.68.48l-.1-.03.19-.06-.09.08M21.4 9.85l.11-.19c.154-.03.15-.21.36-.28-.19.19-.28.376-.47.472M42.97 2.29l-.07-.018c.12-.033.068-.072.043-.123l-.1-.02.048-.01c-.23-.05-.65-.09-1.01-.12v-.02h-.03l-.04-.01.03.01-.14-.02c-.11.01-.24-.02-.25-.03l-.19-.01.06-.01h-.1l-.23-.04-.02.01h-.14l.11-.01c-.09-.04-.41-.05-.64-.06-.51-.03-1.01-.04-1.39-.05l-.17.02.08.01-.12.01-.06-.01.07-.03c-.11 0-.51-.02-.6.04l-.16.02-.02-.04-.14.01.09.01c-.12.03-.29.02-.48.03l-.02.03c-.27-.03-.72.05-1.06.07l-.12.05c-.18-.03-.62.06-.79.08l.02.01-.04-.02c-.4.07-.78.17-1.25.24l.09.01-.18.05.05-.05c-.18.03-.19.05-.34.06l-.27.06.12.02-.18.04.02-.03-.08.03-.02-.03c-.2.05-.32.06-.47.12l.14-.02-.45.1.14-.01.02-.02-.01-.03c-.16.07-.33.08-.49.16.11-.02.17-.04.27-.07-.17.09-.43.15-.66.21l.04-.04.05.01c.12-.05.18-.09.29-.1-.12-.02-.32.08-.49.11l.08.02c-.19.07-.35.11-.5.18l.09-.01-.05.06-.09-.04-.27.13-.06-.02c-.1.05-.14.05-.27.1l.04.04-.08-.01.02.04-.17.01c-.1.05.05.01.03.05l-.09-.02-.11.03.02.04c-.15.04-.16.08-.24.13l.03-.05-.18.09c-.11.02-.1-.03-.23.04.13.01-.13.08-.03.09h-.08l.1-.07-.16.05-.12.11.07-.07c-.12 0-.21.09-.35.12l-.12.15-.08.03-.04.02-.07.02.04-.07c-.17.06-.23.11-.42.18l.06.01-.08.06c-.1.03-.2.02-.26.06l.05.07-.13.08.03-.06.01-.06-.13.12-.1.02c.03.06-.07.02-.2.12.09-.03.02.02.02.05l-.03-.04c-.14.07-.19.07-.26.17l-.03-.07-.07.06L27 5l.003.04-.05-.02-.1.05h.06l-.08.07-.007-.03-.186.095.05.01c-.13.014-.248.09-.37.16l.066.033-.083-.02-.12.073.05.01-.315.16.167-.06-.01.05c-.22.06-.27.18-.526.26l-.04.07.03-.05.06.06-.21.03-.04.08.08-.04.01.06-.16.07.05-.01-.11.02c-.13.04-.25.15-.34.17l.01.06c-.12.03-.07.06-.19.13l.02-.06c-.04.06-.13.1-.21.21l-.06-.04-.03.11c-.08-.01-.04.1-.17.11l.05-.09c-.12.02-.02.07-.16.1.08.03-.01.1.09.06l-.11.13c-.1-.03-.15.1-.25.02l.03.09c.01-.1.02.02.09-.04l-.34.31.04-.05-.05-.08-.16.15.11-.07c.04.04-.09.1.04.07l-.11.06c.04.04-.14.1-.04.14l-.16-.04-.07.06.1.01c-.08.05-.1.09-.22.14l-.02.1-.09.02.06.06-.09-.02-.05.07-.25.29-.05-.04-.12.08.06-.02c.01.13-.2.13-.25.17.1 0 .01.09-.1.2l-.13.02-.05.05.05.07-.01.04c-.16.01-.16.16-.29.2l.02.03c-.08-.02-.05.1-.18.14l-.09-.06.02.05-.13.14h-.05l.18-.12c.12.04-.13.07.02.11l-.14.05.04.03c-.17.09-.24.21-.36.36.1.03-.04.1-.11.13.11.02-.1.23-.18.16l-.01.04.19.04.02-.13.08.01V10c.08.074.16-.15.27-.13-.11.134-.21.247-.31.357l2.5.548c.05-.074.11-.154.2-.253.04-.055.28-.222.27-.32.42-.448.7-.837 1.28-1.364l.04-.083c.5-.48 1.16-1.053 1.69-1.504.51-.34.89-.68 1.38-1.01.07-.05.17-.06.21-.16.34-.16.58-.36.93-.55l.11-.05C31.3 4.51 33.2 3.77 35 3.31c.14-.03.3-.09.45-.13.21-.05.43-.08.65-.13-.318.1-.7.15-.97.25-.2.04-.63.16-.87.24-.1.03-.28.09-.31.12l-.02-.01-.08.03-.02.03c-.79.22-1.58.58-2.28.87v.04c.34-.15.69-.3 1.02-.43l.11-.04.21-.08c.49-.19 1.04-.39 1.57-.54 1.234-.35 2.34-.58 3.78-.75l.01.02c.12-.04.313-.04.44-.05l.02-.02.01.01c.26-.03.57-.04.84-.05.44-.03.87-.04 1.23-.03.533-.02.852.02 1.34.03.11-.02.36-.03.4-.05h.092l.13-.03c-.058-.01-.036-.04.08-.03l-.09-.04.1-.07.02-.04.064-.01-.06-.09.093.01"/>
    <path d="M8.133 9.85l.138-.026-.14.013.01.012M8 9.86l.11-.03-.11.023m-.287.024l.19-.016-.19.02m-.725.06c.256-.01.392-.03.58-.04-.166 0-.386.03-.58.05m24.427 2.94l.08.06.12-.09c-.096.09-.12-.01-.2.04m.034-.51c-.12.06.06.03.07.08.12-.06-.05-.06-.08-.08m-4.55-2.29c.29.07.47.19.73.18l-.2-.11c-.2.05-.26-.1-.53-.06m3.37 1.25l.1.02.07-.04-.18.03m-9.23-2.54l.12.04.11-.06-.24.03m7.43 1.63c-.17.06-.4-.04-.37-.12l-.1.05c-.04-.02.08-.07-.03-.07-.07.1-.24-.05-.37.02.35.12.64.18.95.28.21.07.39.24.71.18-.14-.17-.72-.14-.8-.33M20.17 8.7l.05.04.08-.005.04-.05-.17.01m-8.67-.1l-.17.01.16-.005m-.49.04c.1-.018.14 0 .19-.03l-.19.02m-8.6 1.38c.022-.022.19-.07.284-.088l.023.01.17-.033-.127.01c.12-.06.51-.13.78-.19.62-.14 1.22-.27 1.67-.37l.2-.02-.09.03.15-.01.07-.03-.07-.01c.14-.03.62-.15.72-.11l.2-.03.03-.04.17-.03-.1.03c.15 0 .34-.05.58-.09l.02.01c.32-.1.86-.14 1.26-.22l.15.01c.21-.08.74-.12.94-.15l-.02.01.05-.03c.47-.05.92-.07 1.49-.15l-.1.04.22-.01-.06-.03c.21-.03.23-.01.41-.05.07.02.22 0 .32-.02l-.13.05.22-.02-.03-.01h.11l.03-.03c.25-.01.39-.05.57-.03l-.164.02c.04.03.44 0 .54-.05l-.16.03-.03-.01c.19.01.4-.04.59-.02-.13.02-.2.02-.322.02.21.03.524 0 .8-.02l-.046-.03-.06.03c-.14-.01-.21-.02-.35 0 .148-.06.394-.03.597-.06l-.09.04c.223-.01.43-.02.603-.01l-.11.02.07.03.09-.07.34.02.07-.04c.123.01.172 0 .34 0l-.048.05c.07.01-.006-.05.09-.04l-.01.04c.1 0 .176-.02.2-.05.14.01-.05.03-.02.06l.1-.05.14-.01-.02.04c.18-.01.21.02.3.04l-.04-.04.23.02c.14-.02.12-.06.28-.04-.15.06.18.02.05.07l.096-.03-.12-.03h.19l.158.05-.09-.03c.15-.04.27.01.43-.01l.17.08.11-.01.05.01.08-.01-.053-.05c.21-.02.29.01.53.01l-.07.03.12.02c.12-.01.23-.06.32-.04l-.06.09c.1 0 .11-.01.17.02l-.05-.05-.02-.06c.11 0 .11.03.17.06l.12-.02c-.02.07.08-.01.25.03-.11.02-.02.03-.01.06l.03-.05c.18.01.24 0 .35.05l.02-.07.08.03h.33c-.06.01-.09.03 0 .04l.05-.04h.14l-.08.03.11.03V8.5l.24.01-.05.03c.15-.04.3-.02.46-.01l-.07.06.1-.05.15.02-.05.04c.11-.06.31.01.41 0l-.2.01.02.04c.27-.04.36.05.68.01l.07.05-.05-.034-.06.07c.1-.04.2-.013.25-.064l.07.05-.11-.007.01.05H22h-.06l.14-.025c.16-.02.33.02.44 0l.004.06c.15-.026.094.02.254.024l-.046-.05c.07.03.18.04.31.1.104-.01.04-.02.06-.06.1.01.07.05.06.09.09-.04.07.07.23.02l-.08-.06c.14-.04.033.04.21.02-.09.05.03.08-.09.09l.16.06c.108-.08.205.02.3-.1l-.01.09c-.04-.09-.01.02-.12.01.1.04.37.11.49.11l-.055-.03.032-.09.22.06-.16-.01c-.04.05.14.04-.02.07h.15c-.03.05.19.02.1.1.09.01.16-.07.18-.11l.09.02c-.09 0-.03.09-.12.06.11 0 .15.03.3.01l.05.08.12-.02-.05.08.09-.07.08.03-.05-.06.18-.01c-.08.02-.07.05.02.06l-.16.01c.06.06.41.04.38.13l.04-.06c.08-.03.06 0 .17.01l-.08.02c.04.12.28.022.35.04-.11.04.03.08.19.12l.15-.05.07.02-.04.08.03.03c.19-.07.24.06.4.032l-.02.03c.08-.05.09.07.26.04l.08-.09-.01.06.2.06.06-.02c-.03.08-.14-.03-.26-.02-.12.09.18-.01.02.1l.18-.03-.03.046c.23-.01.36.06.56.12-.11.08.08.07.18.06-.13.08.21.15.27.06l.09.05-.08.03c.16.02.21.12.38.05l.02.05.06-.04c.07.03.05.05.15.06l-.06.04c.29.12.45.15.65.23l-.11.05c-.11.03-.08-.01-.17-.02l-.07.07c.15.06.45.07.37.2.16-.07.32.07.43.09l-.11.03-.01.05.23-.02-.15.01.12.054.07-.07c.16.09.19.09.37.18-.18.06.03.07-.06.12l-.24-.11c0 .12.21.12.3.18l-.18.04c-.01.1.16.04.14.13l.03-.12.19.01c.01-.07-.14-.08.05-.14l-.18.02c.14-.073-.03-.03-.01-.083.12.01.22.06.3.1l-.09.01c.06.05.07.05.22.05l-.21.06.23.01-.07.13.09-.04.09.08c-.09.05 0 .07-.11.11.28.03.25.18.51.23-.2.11-.32-.146-.39-.04-.03.04.09.11.23.13l-.06.055c.1-.03.06.03.17 0l-.05.03.22.03-.08.05c.15 0 .12.14.27.14-.1.05-.21-.1-.36-.06-.06.04.05.07-.04.12.1-.02.21.04.24.09l-.12.03c.06.06.06.075.19.06l.02.09c-.15-.02-.35-.09-.38-.21l-.18-.02c-.16.12.37.1.27.23h.14c-.08.09-.04.03.03.12l-.14-.03-.11.02.08.1-.04.066-.11.025-.16.2.13-.01-.08.05c.09.05.24.05.16.15-.01-.02-.28.06-.17.05-.22.02-.24-.12-.46-.15l.06.08c-.09.08-.03-.07-.16.02-.03.11.25.08.3.22-.11-.02-.22-.04-.32-.09.02.07.13.09.11.19l-.23.07c.04.13.1.14.22.21l-.02.05-.13-.02c-.14.08.08.06-.01.14-.1.02-.05-.03-.12-.03-.01.11.2.21.27.27-.13.05-.33-.08-.42-.13-.15-.08-.3-.19-.39-.28-.3.01-.47-.32-.74-.32-.16-.2-.61-.23-.81-.4-.09.02-.11.07-.21.07l.09-.04c-.11 0-.2-.05-.11-.13-.03-.05-.25.02-.15-.06l-.15.05c-.34-.18-.78-.3-.97-.5H27l-.04-.05-.05.08c-.264-.12-.52-.21-.62-.31-.11.02-.18-.02-.22-.09-.13.02-.26-.11-.4-.1-.21-.13-.36-.21-.73-.34l-.45-.15c-.66-.19-1.14-.4-2-.61l-.07-.06c-.76-.2-1.71-.43-2.45-.61-.71-.1-1.24-.25-1.91-.35-.1-.02-.224.01-.29-.06-.44-.02-.77-.1-1.23-.15l-.134-.01c-2.1-.26-4.44-.32-6.63-.22-.17 0-.37 0-.55.01-.25.01-.52.04-.78.05.38.01.85-.06 1.17-.04.24-.02.76-.04 1.06-.04.12-.01.34-.01.38.01l.02-.02h.1l.02.03c.972-.04 1.95.03 2.83.06l.01.04c-.43-.02-.866-.04-1.275-.05h-.39c-.6-.02-1.28-.03-1.93-.01-1.51.04-2.84.14-4.57.34l-.02.01c-.14 0-.38.04-.53.07l-.02-.02-.01.01c-.31.04-.69.1-1.01.15-.53.08-1.05.16-1.49.25-.65.1-1.04.2-1.63.31-.13 0-.43.04-.47.03l-.12.02c-.02-.01-.05-.02-.16-.01.07-.03.05-.04-.09-.02l.12-.06c-.09.01-.17 0-.11-.05-.08.01-.11 0-.02-.03h-.1l.08-.09-.11.03.08-.03c-.13-.01-.06-.06-.03-.11l.13-.03H.35c.29-.08.8-.2 1.237-.3l.005-.01.034-.01.055-.01-.04.01.18-.05c.14-.01.3-.06.31-.08.1-.01.16-.02.24-.04H2.3l.126-.02m5.7 3.59l.13.01-.132-.03.006.01M8 13.52l.1.003-.103-.004m-.27-.05l.18.03-.18-.03m-.68-.12c.24.05.364.06.543.1-.157-.06-.366-.08-.544-.1M26.5 28.09l.032.12c.063-.05.163.043.123-.053-.11.064-.074-.09-.157-.067m.285-.68c-.11.012.04.068.02.15.114-.016-.01-.11-.02-.15m-2.4-5.658c.205.25.298.51.508.632.01-.106-.13-.16-.11-.26-.17-.034-.16-.28-.39-.374m2.06 3.57l.07.09.08-.026-.14-.063M19.95 17l.1.117.114-.043-.217-.076m5.53 6.075c-.154-.02-.29-.282-.226-.376l-.1.016.01-.12c-.09.108-.17-.2-.3-.17.23.348.43.588.63.9.13.21.19.54.47.645-.03-.308-.49-.598-.47-.893M19.26 16.4l.03.086.077.03.043-.048-.15-.067m-7.876-3.61l-.152-.04.152.05m-.46-.1c.1.02.132.05.178.03l-.178-.03m-8.246-.35c.022-.02.18-.06.27-.06l.024.03.162-.01h-.12c.11-.05.477-.07.74-.09.592-.06 1.16-.09 1.592-.12l.194.02-.087.03.14.02.068-.01-.07-.03c.13-.01.6-.05.69.03l.19.02.03-.05h.16l-.09.02c.14.04.32.02.55.03l.02.04c.31-.05.82.04 1.21.05l.14.06c.21-.05.71.06.9.08l-.02.02.05-.02c.45.08.88.2 1.42.27l-.1.02.2.06-.05-.06c.21.03.22.06.39.07.07.05.21.07.31.08l-.13.03.2.05-.02-.03.1.05.03-.04c.24.06.37.07.53.15l-.16-.02c.04.06.41.17.51.13l-.15-.02-.03-.02.01-.03c.18.08.38.09.55.2-.12-.03-.19-.05-.3-.09.19.11.49.19.74.26l-.04-.06-.06.02c-.13-.06-.19-.1-.32-.12.14-.03.37.1.56.14l-.09.03c.21.08.4.14.56.22l-.11-.01.06.07.1-.05.3.16.07-.03c.11.06.16.07.31.13l-.05.05.09-.02-.02.05c.09.04.16.04.19.01.12.06-.05.02-.03.07l.1-.03.13.04-.02.05c.17.05.19.12.27.18l-.03-.07.21.12c.13.03.12-.04.26.05-.15.02.16.11.03.12l.09-.01-.1-.09.18.06.13.14-.08-.08c.13.01.24.12.39.16l.13.2c.05.01.05-.07.1.04l.04.03.08.02-.04-.09c.19.07.26.14.47.24l-.07.01.1.09c.1.04.22.02.29.08l-.07.11c.1.04.1.04.15.1l-.03-.09v-.09c.09.05.09.09.13.17l.11.02c-.04.08.07.02.22.15-.1-.03-.03.03-.02.08l.04-.05c.16.09.21.1.29.22l.04-.09.07.08.29.15v.05l.05-.02.12.06-.07.01.09.09.01-.05.21.12-.05.02c.14.01.27.11.41.21l-.08.05.1-.03.13.1-.06.02c.11-.03.27.16.36.19.04.1-.14-.07-.18-.07l.01.07c.25.07.3.24.59.34l.04.11-.04-.07-.07.08c.1 0 .17.08.23.03l.04.1-.1-.05-.01.09c.05.06.13-.01.17.09l-.06-.02.13.03c.14.05.28.2.37.22l-.02.08c.14.03.08.08.21.16l-.01-.1c.05.08.14.13.23.28.1.03.05-.01.08-.06l.02.15c.09-.01.04.14.19.15l-.05-.13c.13.02.02.08.17.13-.09.04 0 .13-.11.08.05.07.07.08.13.17.11-.05.16.13.28.01l-.04.13c0-.14-.02.02-.1-.05.07.12.27.34.37.41l-.04-.07c.09-.01.01-.07.06-.1.05.12.13.11.17.2l-.13-.1c-.05.06.1.14-.04.1l.13.07c-.05.06.15.13.04.19l.19-.06.07.08-.12.02c.09.07.11.12.25.18-.09.04.03.06.02.14l.11.02-.07.08.11-.04.05.09-.01-.11.16.08v.1l-.14-.07c.04.11.33.26.27.38l.05-.06.14.1-.07-.02c-.02.18.22.18.27.23-.11 0-.01.13.11.27l.15.01.05.06-.06.1.01.05c.18.01.18.21.31.27l-.02.04c.09-.02.05.15.19.2l.11-.08-.03.08.13.19H25c-.06.11-.1-.11-.2-.16-.13.07.15.09-.02.16l.15.06-.05.06c.19.11.27.27.4.47-.13.05.03.14.11.18-.13.04.1.32.192.22l.05.13h-.08c.125.11.12.28.28.28l-.005.087.066-.03.09.16-.07.03c.17.32.28.45.39.68l-.11.01c-.09-.02-.05-.06-.11-.12l-.09.06c.09.16.31.35.185.48.16-.01.21.27.28.37l-.1-.02-.03.07c.07.01.15 0 .19.1l-.12-.07.06.14.09-.06c.08.21.1.23.2.45-.16-.01-.01.12-.11.14l-.12-.28c-.05.16.1.28.15.41l-.15-.04c-.05.13.1.13.04.25l.08-.16.13.12c.045-.08-.063-.19.1-.16-.032-.14-.12.03-.14-.07.14-.02-.01-.05.036-.12.09.076.14.2.18.296l-.07-.03c.02.1.03.1.13.2l-.18-.03c-.03.1.14.12.17.14-.06.03-.11.04-.12.14l.086.01.03.15c-.084.01-.03.09-.135.09.187.2.09.38.257.6-.207.03-.16-.38-.26-.28-.04.05.01.21.1.32l-.07.04c.09.014.02.074.12.1l-.05.01c.02.1.12.07.14.18l-.08.02c.11.09.02.25.13.34-.093.01-.103-.25-.23-.29-.07.04 0 .14-.09.16l.123.26-.09-.03c.02.12.01.14.106.18l-.02.13c-.1-.11-.2-.32-.16-.5-.06-.01-.12-.02-.12-.12-.18.07.22.34.08.47l.11.07c-.1.09-.05.03-.03.19l-.09-.11-.09-.03c-.09.05.02.09.02.18l-.07.06-.09-.03-.22.177c0 .06.12-.04.1.05l-.08.02c.03.12.14.2.03.29l-.16-.02c-.17-.1-.1-.3-.24-.47v.15c-.1.05.02-.12-.12-.06-.08.14.13.24.1.47-.07-.09-.14-.17-.18-.3-.02.11.05.2-.02.32l-.2-.03c-.03.19.01.24.05.4l-.04.06-.07-.11c-.14.04.02.14-.08.19l-.07-.11c-.06.16.03.4.05.52-.11-.01-.18-.28-.22-.4-.06-.19-.11-.41-.13-.59-.22-.14-.18-.69-.37-.83-.01-.36-.33-.64-.39-.98l-.18-.01.08-.01c-.08-.05-.13-.17-.02-.24 0-.08-.18-.11-.08-.17h-.12c-.17-.43-.44-.82-.5-1.19l.04.03-.01-.1-.07.09c-.15-.29-.3-.545-.33-.74-.09-.04-.13-.13-.13-.24-.1-.04-.15-.28-.26-.35-.1-.28-.19-.47-.43-.85-.04-.07-.31-.3-.29-.43-.45-.61-.75-1.13-1.386-1.83l-.03-.12c-.55-.64-1.27-1.4-1.84-2-.577-.46-.98-.9-1.53-1.33-.09-.07-.2-.085-.24-.21-.38-.21-.65-.47-1.036-.73l-.12-.06c-1.79-1.26-3.91-2.2-5.95-2.76-.15-.047-.34-.117-.51-.16-.23-.06-.49-.1-.73-.15.35.13.79.17 1.09.3.23.05.71.2.98.29.11.04.31.102.34.142l.03-.03.09.03.02.04c.9.26 1.775.73 2.56 1.09v.05c-.38-.19-.77-.39-1.14-.55l-.12-.05-.23-.1c-.54-.24-1.164-.49-1.76-.68-1.39-.42-2.644-.69-4.28-.87l-.01.02c-.13-.05-.36-.05-.493-.05l-.02-.03v.02c-.3-.03-.65-.04-.96-.05-.5-.02-.99-.02-1.4 0-.61-.01-.98.06-1.536.1-.13-.03-.4-.03-.45-.06H1c-.018-.02-.05-.03-.15-.04.066-.03.045-.06-.09-.05l.107-.06-.107-.09V13l-.075-.016.075-.12-.11.015.08-.03c-.134-.04-.075-.1-.04-.17l.113-.03-.052-.01c.27-.08.75-.15 1.17-.2l.01-.02h.03l.05-.01-.04.02.17-.03c.14 0 .28-.03.29-.05.1 0 .15 0 .22-.01l-.06-.01h.11"/>
    <path d="M8.11 11.61l.14-.008-.144-.005.004.012m-.145-.01l.115-.01-.115.01m-.29-.01l.195.01-.194-.01m-.735-.03c.26.01.4.01.59.02-.17-.03-.39-.03-.59-.02m22.69 8.31l.06.08.13-.07c-.11.07-.1-.05-.19-.02m.18-.58c-.11.03.06.04.05.11.12-.04-.03-.09-.05-.12m-3.55-3.82c.26.15.39.33.64.38l-.16-.18c-.19.01-.21-.18-.47-.21m2.78 2.31l.09.05.08-.03-.16-.02M21 12.64l.116.075.12-.052L21 12.64m6.63 3.636c-.173.014-.36-.158-.307-.24l-.1.03c-.03-.03.094-.053-.01-.09-.088.098-.214-.12-.35-.072.296.22.55.362.81.56.175.132.292.376.605.396-.082-.228-.622-.356-.65-.585M20.23 12.29l.037.06.084.01.05-.046-.16-.025m-8.54-1.68l-.16-.02.17.01m-.49-.02c.11 0 .14.02.19 0h-.19m-8.91.55c.03-.02.2-.06.3-.08l.02.01.18-.02h-.12c.12-.05.52-.1.81-.14.65-.1 1.27-.18 1.74-.24l.21-.01-.09.03h.15l.07-.02-.08-.02c.14-.02.64-.1.75-.05l.2-.01.04-.04.17-.02-.1.02c.15.02.35-.02.59-.03l.01.02c.34-.07.89-.05 1.3-.09l.15.03c.23-.07.76-.03.96-.04l-.02.01.05-.02c.49.01.94.06 1.52.05l-.11.03.22.02-.05-.04c.22 0 .23.02.41.01.07.03.22.03.33.02l-.14.03.22.01-.02-.02.1.02.03-.04c.25.02.4 0 .57.04l-.17.01c.04.05.44.08.54.04l-.16.01-.02-.01v-.03c.19.04.41.02.59.08-.13-.01-.2-.01-.32-.03.2.06.52.08.8.11l-.04-.04-.06.03c-.14-.04-.2-.06-.34-.06.16-.04.4.03.61.04l-.1.03c.23.03.43.05.61.09h-.12l.06.05.11-.06.33.08.07-.03c.12.03.17.03.33.06l-.05.05c.07.02.01-.06.1-.03l-.02.04c.1.02.18.01.21-.02.13.03-.05.02-.03.06l.11-.03.14.01-.02.04c.18.02.2.06.29.1l-.03-.05.22.06c.14.01.13-.04.29 0-.16.04.17.06.03.09l.1-.01-.11-.06.19.02.14.09-.08-.05c.15-.02.26.05.42.06l.15.13.11.01.05.01.08.01-.05-.07c.21.03.28.07.52.11l-.08.02.11.05c.12.02.24-.02.32.02l-.07.09c.1.02.11.01.16.05l-.04-.07v-.07c.1.02.1.05.15.1l.12.01c-.04.07.08 0 .24.08-.11-.01-.03.03-.02.06l.04-.05c.17.04.22.04.32.12l.03-.08.08.05.32.07V12l.05-.03.13.03-.08.02.1.06.01-.04.23.06-.06.03c.15-.02.3.04.45.09l-.08.05.1-.046.14.05-.06.03c.11-.03.3.08.39.1l-.2-.03.01.05c.27.02.34.14.65.166l.06.07-.04-.05-.08.07c.11-.023.2.03.25-.02l.05.07-.1-.02-.01.06.19.04-.06-.01H22c.15.02.31.107.41.107l-.01.07c.15 0 .09.045.24.085l-.02-.06c.056.05.156.08.27.17.1.01.045-.02.07-.06l.04.114c.09-.03.05.1.21.08l-.065-.09c.14-.01.02.06.19.07-.09.045.01.1-.1.085l.145.1c.12-.06.19.07.31-.04l-.03.11c-.02-.11-.02.02-.12-.02.08.08.32.21.44.24l-.05-.04c.092-.03 0-.06.05-.1l.2.12-.147-.06c-.05.05.12.08-.04.08l.14.03c-.05.05.17.07.06.14.09.04.178-.04.2-.08l.087.05-.12.04c.1.04.13.07.28.09-.1.06.04.05.03.11h.11l-.06.07.11-.05.06.06-.03-.08.18.03.01.07-.16-.02c.045.07.38.14.33.24l.05-.06c.08-.02.06.02.16.05h-.08c0 .14.25.09.32.12-.12.02 0 .1.14.19l.16-.02.054.04-.06.09.02.04c.19-.02.21.13.37.15l-.02.04c.09-.04.07.1.23.11l.1-.09-.02.06.17.13.06-.01c-.05.09-.13-.06-.24-.08-.13.08.17.04-.003.12l.18.02-.04.05c.22.05.32.16.49.28-.13.06.06.1.15.11-.14.06.16.23.24.13l.07.09-.08.02c.15.06.16.19.34.15l.01.07.07-.03.13.11-.07.04c.24.21.38.29.54.44l-.11.03c-.1 0-.06-.03-.14-.06l-.07.06c.12.1.4.2.28.32.17-.04.28.16.37.22h-.11l-.01.05.22.04-.13-.03.09.1.09-.06c.12.14.14.15.29.3-.18.02.01.09-.09.13l-.18-.19c-.03.13.16.19.23.28h-.17c-.04.11.13.08.09.18l.06-.13.16.06c.03-.06-.11-.12.08-.14-.06-.1-.13.05-.16-.02.14-.04-.03-.04.01-.1.11.04.18.12.24.18h-.08c.04.07.05.07.18.13l-.21.01.2.07-.1.13.1-.02.06.11c-.09.02-.02.07-.13.09.24.11.18.27.4.4-.21.07-.25-.25-.33-.15-.04.04.05.16.18.22l-.07.05c.1-.01.04.05.15.05l-.05.02.18.11-.08.03c.13.04.07.18.21.23-.1.03-.16-.17-.3-.17-.06.03.03.1-.07.13.1 0 .18.1.19.16H30c.046.09.04.1.15.12v.1c-.13-.06-.283-.2-.28-.34l-.16-.07c-.18.09.31.21.18.34l.13.04c-.09.09-.04.03 0 .15l-.17.05h-.11c-.097.06.034.06.05.13l-.06.07h-.105l-.2.18.12.02-.087.03c.064.08.203.12.1.22 0-.03-.26-.01-.16.02-.206-.04-.18-.2-.37-.3l.04.12c-.1.05-.01-.1-.15-.03-.053.12.2.15.21.33-.09-.06-.19-.102-.26-.193.005.1.1.15.05.25l-.224.02c.01.16.058.18.14.3l-.04.06-.1-.06c-.14.07.06.11-.05.16-.09.01-.04-.04-.1-.06-.03.13.13.3.17.39-.12.02-.26-.17-.33-.26-.11-.13-.21-.29-.27-.42-.27-.06-.34-.49-.57-.56-.09-.26-.49-.42-.62-.67-.08.01-.11.06-.2.03l.09-.02c-.1-.02-.17-.1-.06-.17-.01-.06-.23-.04-.12-.11l-.14.03c-.27-.29-.64-.54-.76-.81l.05.02-.03-.07-.06.08c-.22-.19-.43-.36-.49-.5-.1-.01-.16-.07-.18-.16-.12-.01-.21-.18-.34-.21-.16-.19-.28-.32-.59-.56-.06-.04-.38-.17-.38-.27-.58-.38-.97-.73-1.74-1.16l-.05-.08c-.67-.4-1.52-.86-2.2-1.23-.66-.25-1.13-.53-1.76-.78-.1-.04-.22-.03-.27-.12-.42-.1-.73-.27-1.16-.41l-.13-.03c-2-.71-4.31-1.16-6.51-1.37-.17-.01-.37-.04-.55-.06-.25-.03-.53-.03-.79-.04.38.06.86.04 1.18.11.25.01.77.07 1.07.11.12.01.34.04.37.07l.03-.02.1.01.02.03c.98.1 1.93.35 2.79.52v.05c-.41-.1-.84-.2-1.24-.27l-.13-.02-.25-.04c-.59-.12-1.27-.24-1.91-.31-1.51-.17-2.86-.24-4.63-.22l-.02.02c-.14-.02-.39 0-.54.01l-.02-.02-.01.018c-.32.01-.71.03-1.04.06-.54.03-1.07.07-1.53.12-.66.048-1.07.13-1.68.2-.14-.01-.44.01-.49-.01l-.12.01C.35 12.01.31 12 .2 12c.08-.026.055-.05-.09-.033l.112-.05c-.09 0-.18-.02-.11-.06-.08-.004-.12-.017-.02-.04l-.08-.008.09-.1-.12.01.09-.02c-.14-.02-.07-.07-.027-.13l.13-.03-.06-.01c.304-.08.835-.17 1.29-.24l.006-.02h.03l.05-.01-.04.01.18-.04c.15-.01.31-.05.32-.07.1-.01.17-.01.24-.03h-.07l.14-.01"/>
  </g>
</symbol>

<symbol id="logo-footer" viewBox="0 0 210 40" xmlns="http://www.w3.org/2000/svg">
  <title>Land Trust Alliance - Together, conserving the place you love</title>
  <g fill="#FFF" fill-rule="evenodd">
    <path d="M44.84 24.56c0 1.29-.175 1.81 1.65 1.81 5.016 0 5.754-2.24 6.035-2.24.153 0 .176.22.176.26 0 .78-.56 1.54-1.08 2.11-.69.78-1.17.74-2.13.74-1.65 0-3.3-.13-4.95-.09-.86.02-1.78.09-2.65.09-.19 0-.32-.05-.32-.22.05-.26.26-.22.96-.56.57-.27.61-.87.61-1.9v-11c0-1.13-1.82-.98-1.82-1.42 0-.23.15-.28.44-.28.46 0 1.13.09 2.2.09 1.24 0 1.76-.09 2.08-.09.28 0 .41.05.41.31 0 .5-1.58-.05-1.58 1.84v10.55M59 22.48c-1.39.31-4.04.65-4.04 2.56 0 1.24.63 1.72 1.78 1.72.784 0 2.26-.61 2.26-1.76v-2.52zm0-2.19c0-1.13-.89-1.89-2.24-1.89-1.04 0-1.886.11-1.886 1.3 0 .33.13.65.13.89s-.06.41-.474.41c-.37 0-1.02-.32-1.02-.71.02-1 1.236-2.52 3.647-2.46 1.348 0 3.432.39 3.432 2.24v4.49c0 .74-.2 2.02.93 2.02l.37-.04c.1 0 .28 0 .28.16 0 .45-.96.54-1.26.54-.85 0-1.41-.4-1.7-1.11-.91.78-2.11 1.26-3.32 1.26-1.42 0-2.35-.52-2.35-2.06 0-1.16.37-2.52 5.45-3.37v-1.67zm6.47 5.19c0 1.5 1.91.87 1.91 1.45 0 .26-.15.31-.477.31-.368 0-.8-.09-2.06-.09-1.154 0-1.587.09-1.85.09-.28 0-.387-.05-.387-.26 0-.44 1.28 0 1.28-1.41v-5.39c0-1.3-1.607-.74-1.607-1.2 0-.13.08-.21.19-.23 1.8-.4 2.24-1.09 2.74-1.09.13 0 .26.13.26.35v1.43c-.05.26 1.04-1.61 3.15-1.61 2.91 0 3.54 2.41 3.54 4.06v3.59c0 1.5 1.69.87 1.69 1.45 0 .26-.15.31-.37.31-.28 0-.83-.09-1.89-.09-.83 0-1.28.09-1.57.09-.29 0-.39-.05-.39-.26 0-.44.93 0 .93-1.41V21.5c0-1.08-.78-2.71-2.54-2.71-1.83 0-2.59 1.34-2.56 1.69v5m15.61-4.63c0-1.6-1.31-2.52-2.87-2.52-2.04 0-2.96 1.91-2.96 3.71 0 1.81 1.3 4.41 3.36 4.41 1.8 0 2.45-1.1 2.45-1.89v-3.71zm0-7.36c0-1.3-1.72-.74-1.72-1.19 0-.13.08-.22.19-.24 1.67-.39 2.34-1.09 2.84-1.09.13 0 .26.13.26.35v14.85c0 .26.43.44 1.15.55.15.02.24.02.24.19 0 .15-.57.3-1.37.3-.57 0-1.17.18-1.37.18-.18 0-.24-.18-.24-.33v-1.19H81c-.74.93-1.935 1.52-3.19 1.52-2.39 0-3.846-2.19-3.846-4.43 0-2.56 1.8-5.13 4.54-5.13.91 0 1.8.26 2.54.76v-5.1zm14.37.57c0-.16.09-.98-.22-1H91.7c-1.347 0-1.39.32-1.78 1.52-.066.22-.086.5-.37.5-.13 0-.218-.16-.218-.26l.24-2.11c.022-.26 0-.85.39-.85 1.694 0 3.366.09 6.168.09 3.93 0 5.93-.09 6.362-.09.498 0 .608.13.63.63l.108 1.74c.02.22.044.48-.24.48-.802 0 .37-1.65-1.845-1.65h-3.103c-.98 0-.87-.09-.87 1.06v11.07c0 1.83 1.76 1.11 1.76 1.79 0 .06.02.26-.198.26-.52 0-1.13-.09-1.758-.09-2.43 0-2.845.09-2.974.09-.195 0-.262-.07-.262-.29 0-.52 1.717-.3 1.717-1.6V14.06"/>
    <path d="M104.078 25.32c0 2.02 1.932.98 1.932 1.68 0 .19-.108.24-.35.24-.302 0-.823-.09-2.04-.09-1.454 0-1.845.09-1.997.09-.174 0-.24-.07-.24-.2 0-.46 1.11-.37 1.11-1.26v-5.6c0-1.3-1.564-.74-1.564-1.2 0-.13.17-.21.28-.23 1.67-.4 2.1-1.09 2.6-1.09.13 0 .26.13.26.35v1.63h.04c.45-.63 1.23-1.81 2.15-1.81.45 0 1.43.57 1.43.98 0 .33-.52.98-.78.98-.42 0-.66-.5-1.44-.5-.89 0-1.41 1-1.41 1.28v4.75m11.33-5.9c0-.83-1.15-.3-1.15-.83 0-.17.28-.19.39-.19.63 0 .93-.07 1.17-.13.23-.04.43-.11.78-.11.08 0 .39.11.39.52v7.51c0 .57 1.36.29 1.36.76 0 .18-.46.2-.81.2-.61 0-.91.06-1.17.11-.24.06-.42.13-.74.13-.18 0-.2-.24-.2-.33v-1.19h-.04c-.68 1.02-1.74 1.52-2.89 1.52-1.74 0-3.17-1.06-3.17-2.91v-5.06c0-.83-1.15-.3-1.15-.83 0-.17.28-.19.39-.19.63 0 .93-.07 1.17-.13.24-.04.43-.11.78-.11.09 0 .39.11.39.52v5.49c-.02 2.31 1.82 2.46 2.11 2.46 1.24 0 2.32-.92 2.37-1.54v-5.67m4.16 1.02c0-1.74 1.35-2.61 2.93-2.61.36 0 1.86.18 2.12.5.13.18.11.92.11 1.07 0 .58.09.84-.24.84-.22 0-.41-1.89-2.39-1.89-.85 0-1.52.5-1.52 1.39 0 .72.56 1.18 2.84 2.09 1.24.52 1.8 1.19 1.8 2.58 0 1.63-1.33 2.98-2.94 2.98-1.52 0-1.91-.63-2.43-.63-.48 0-.48-.02-.48-1.74 0-.37-.06-1.06.26-1.06.47 0 .23 2.86 2.58 2.86 1.06 0 1.93-.65 1.93-1.78 0-1.15-1.11-1.5-1.98-1.91-1.17-.58-2.63-1.15-2.63-2.69m8.17-1.43c-1.02 0-1.17 0-1.17-.16 0-.17.54-.54 1.65-1.75.43-.53.65-1 .82-1 .3 0 .28.45.28 2.02h2.39c.54 0 .78-.37.85-.37.11 0 .15.11.15.17 0 .09-.07.2-.13.31l-.44.78h-2.82v6.31c.04.9.65 1.31 1.52 1.31 1.15 0 1.48-.5 1.85-.5.09 0 .17.02.17.2 0 .32-1.17 1.06-2.69 1.06-1 0-2.43-.28-2.43-2.52v-5.86m15.58.87c-.15.3 0 .39.28.39h4.3c.48 0 .46-.16.35-.44l-2.13-5.23c-.11-.26-.22-.26-.35 0l-2.46 5.28zm5.87 2.17c-.22-.5-.34-.83-.96-.83h-4.77c-.41 0-.8 0-1.02.46L141 24.72c-.06.15-.15.48-.15.76 0 1.52 1.54.87 1.54 1.43 0 .39-.305.33-.59.33-.606 0-1.213-.09-1.82-.09-.59 0-1.18.09-1.74.09-.13 0-.196-.11-.196-.24 0-.46 1.02-.09 1.584-1.33l5.19-11.07c1.28-2.74 1.346-3.09 1.63-3.09.24 0 .39.63.45.81l4.516 11.18c.326.81.59 1.72 1.086 2.48.653 1 1.914.52 1.914 1.06 0 .2-.16.2-.31.2-.89 0-1.78-.09-2.67-.09-.59 0-1.18.09-1.76.09-.13 0-.48 0-.48-.22 0-.52 1.3-.3 1.3-1.13 0-.48-.46-1.48-.672-2.06l-.696-1.78zm8.23 3.43c0 1.5 1.8.87 1.8 1.45 0 .26-.17.31-.5.31-.3 0-.98-.09-2-.09-1.06 0-1.47.09-1.69.09-.17 0-.26-.09-.26-.29 0-.32 1.07-.26 1.07-1.19V13.49c0-1.3-1.48-.74-1.48-1.19 0-.13.08-.22.19-.24 1.67-.39 2.11-1.09 2.61-1.09.13 0 .26.13.26.35v14.16m5.64 0c0 1.5 1.8.87 1.8 1.45 0 .26-.17.31-.5.31-.3 0-.98-.09-2-.09-1.06 0-1.48.09-1.69.09-.18 0-.26-.09-.26-.29 0-.32 1.06-.26 1.06-1.19V13.49c0-1.3-1.48-.74-1.48-1.19 0-.13.09-.22.2-.24 1.68-.39 2.11-1.09 2.61-1.09.13 0 .26.13.26.35v14.16m5.6-10.97c0 .26-.63 1.13-.91 1.13-.26 0-.92-.89-.92-1.13 0-.24.65-1.15.91-1.15.28 0 .91.89.91 1.15m-1.7 5.67c0-1.3-1.19-.74-1.19-1.2 0-.13.09-.21.19-.23 1.39-.4 1.83-1.09 2.32-1.09.13 0 .26.13.26.35v7.79c0 1.11 1.72.63 1.72 1.2 0 .17-.13.24-.41.24-.45 0-1.13-.09-2.02-.09-.7 0-1.26.09-1.5.09-.17 0-.3-.03-.33-.24 0-.55.96.28.96-1.7v-5.12m9.84 2.3c-1.39.31-4.04.65-4.04 2.56 0 1.24.63 1.72 1.78 1.72.78 0 2.26-.61 2.26-1.76v-2.52zm0-2.19c0-1.13-.89-1.89-2.24-1.89-1.04 0-1.89.11-1.89 1.3 0 .33.13.65.13.89s-.07.41-.48.41c-.37 0-1.02-.32-1.02-.71.02-1 1.23-2.52 3.65-2.46 1.34 0 3.42.39 3.42 2.24v4.49c0 .74-.19 2.02.94 2.02l.37-.04c.1 0 .28 0 .28.16 0 .45-.96.54-1.26.54-.85 0-1.41-.4-1.7-1.11-.91.78-2.11 1.26-3.32 1.26-1.41 0-2.34-.52-2.34-2.06 0-1.16.37-2.52 5.45-3.37v-1.67zm6.73 5.19c0 1.5 1.91.87 1.91 1.45 0 .26-.15.31-.48.31-.37 0-.8-.09-2.07-.09-1.15 0-1.58.09-1.84.09-.28 0-.39-.05-.39-.26 0-.44 1.28 0 1.28-1.41v-5.39c0-1.3-1.61-.74-1.61-1.2 0-.13.09-.21.2-.23 1.8-.4 2.24-1.09 2.73-1.09.13 0 .26.13.26.35v1.43c-.04.26 1.05-1.61 3.15-1.61 2.91 0 3.54 2.41 3.54 4.06v3.59c0 1.5 1.7.87 1.7 1.45 0 .26-.15.31-.37.31-.28 0-.82-.09-1.89-.09-.82 0-1.28.09-1.56.09s-.39-.05-.39-.26c0-.44.94 0 .94-1.41V21.5c0-1.08-.78-2.71-2.54-2.71-1.826 0-2.58 1.34-2.56 1.69v5m8.81-2.69c0-2.72 2.15-4.96 4.89-4.96 1.083 0 2.56.31 2.622.81.05.48.03 1 .03 1.28 0 .3-.06.46-.17.46-.22 0-.46-.42-.52-.5-.74-1-1.69-1.33-2.69-1.33-1.85 0-2.56 1.91-2.56 3.48 0 2.34 1.385 4.27 3.844 4.27 1.69 0 2.64-1.26 2.97-1.26l.17.13c0 .35-1.3 2.22-4.28 2.22-2.49 0-4.3-2.19-4.3-4.6m15.26-1.72c.31 0 .44-.11.44-.44 0-1.21-1.22-2.3-2.41-2.3-1.34 0-2.3 1.55-2.3 2.74h4.27zm-4.27.59c0 3.58 2.17 4.64 3.497 4.64 1.87 0 2.59-1.13 3.07-1.13l.08.16c0 .5-1.89 2.06-3.84 2.06-3.26 0-4.39-3.02-4.39-4.45 0-2.78 1.54-5.11 4.26-5.11 2.67 0 3.84 2.59 3.84 3.46 0 .39-.24.37-.74.37h-5.77zM41.57 32.13h4.23v.47h-1.835v5.72H43.4V32.6h-1.836v-.47m4.538 3.97c0 1.21.402 1.9 1.32 1.9.916 0 1.32-.69 1.32-1.9s-.404-1.91-1.32-1.91c-.918 0-1.32.7-1.32 1.91m3.154 0c0 1.21-.445 2.31-1.835 2.31-1.38 0-1.83-1.1-1.83-2.31s.45-2.32 1.84-2.32c1.39 0 1.84 1.11 1.84 2.32m2.36.35c.73 0 1.16-.35 1.16-1.12 0-.78-.43-1.14-1.16-1.14-.71 0-1.15.45-1.15 1.14 0 .77.53 1.12 1.16 1.12m-1.37 2.3c0 .44.43.74 1.36.74 1.12 0 1.6-.3 1.6-.76 0-.37-.29-.73-1.63-.73-1.01 0-1.32.37-1.32.75m3.44-4.59c-.23 0-.53.02-.71.2.2.24.32.51.32.94 0 1.1-.78 1.56-1.72 1.56-.28 0-.49-.06-.72-.14-.28.1-.41.27-.41.43 0 .26.17.39 1.38.39 1.34 0 1.9.42 1.9 1.15 0 .65-.5 1.21-2.03 1.21s-1.95-.52-1.95-1.05c0-.39.16-.71.78-.95v-.01c-.32-.07-.59-.21-.59-.58 0-.38.34-.69.67-.76-.4-.27-.64-.7-.64-1.17 0-.97.69-1.6 1.77-1.6.43 0 .76.12 1.04.31.26-.26.58-.4.93-.4v.47m3.57 1.54c-.11-.92-.51-1.5-1.29-1.51-.91-.01-1.29.92-1.3 1.51h2.59zm-2.59.41c0 1.01.42 1.89 1.43 1.89.57 0 .86-.2 1.3-.9l.42.22c-.48.79-.91 1.09-1.76 1.09-1.17 0-1.9-.75-1.9-2.31 0-1.39.7-2.32 1.84-2.32 1.21 0 1.78.95 1.78 2.33H54.7zm4.22-2.24v-1.46h.51v1.46h.98v.41h-.98v3.26c0 .3.14.46.45.46.18 0 .36-.04.53-.1v.43c-.17.03-.35.08-.53.08-.72 0-.96-.24-.96-.78v-3.35h-.66v-.41h.67m2.33 4.45v-6.19h.51v2.44c.48-.5.88-.79 1.53-.79.92 0 1.32.53 1.32 1.5v3.04h-.52v-2.99c0-.74-.22-1.14-.91-1.14-.55 0-.85.34-1.42.85v3.28h-.51m7.48-2.62c-.1-.92-.5-1.5-1.28-1.51-.91-.01-1.29.92-1.3 1.51h2.59zm-2.59.41c0 1.01.42 1.89 1.44 1.89.57 0 .86-.2 1.3-.9l.42.22c-.48.79-.92 1.09-1.77 1.09-1.16 0-1.9-.75-1.9-2.31 0-1.39.7-2.32 1.83-2.32 1.21 0 1.78.95 1.78 2.33h-3.1zm4.14 2.21v-4.45h.51v.84h.02c.25-.54.73-.93 1.29-.93h.23v.5h-.23c-.56 0-1.3.67-1.3 1.52v2.52h-.52m3.12-.77v.77l-.54 1.29h-.34l.5-1.29h-.36v-.77h.74M80 35.12c-.23-.52-.56-.93-1.153-.93-.84 0-1.4.52-1.4 1.91 0 1.14.51 1.9 1.4 1.9.64 0 .98-.35 1.34-.93l.41.2c-.372.63-.893 1.14-1.743 1.14-1.25 0-1.92-.97-1.92-2.31 0-1.54.77-2.32 1.92-2.32.84 0 1.36.47 1.63 1.21l-.475.13m1.72.98c0 1.21.4 1.9 1.32 1.9s1.32-.69 1.32-1.9-.41-1.91-1.32-1.91c-.92 0-1.32.7-1.32 1.91m3.15 0c0 1.21-.44 2.31-1.83 2.31-1.39 0-1.83-1.1-1.83-2.31s.45-2.32 1.83-2.32c1.39 0 1.83 1.11 1.83 2.32m1.01 2.22v-4.45h.51v.7c.48-.5.87-.79 1.52-.79.93 0 1.32.53 1.32 1.5v3.04h-.52v-2.99c0-.74-.22-1.14-.91-1.14-.55 0-.86.34-1.42.85v3.28h-.52m4.65-1.08c.42.6.79.76 1.38.76.56 0 .99-.37.99-.85 0-1.3-2.62-.57-2.62-2.15 0-.84.66-1.22 1.41-1.22.74 0 1.22.29 1.54.81l-.4.27c-.3-.41-.62-.67-1.16-.67-.5 0-.89.24-.89.78 0 1.09 2.62.45 2.62 2.18 0 .8-.74 1.26-1.54 1.26-.69 0-1.31-.27-1.73-.9l.37-.27m6.63-1.54c-.1-.92-.51-1.5-1.29-1.51-.91-.01-1.3.92-1.3 1.51h2.59zm-2.59.41c0 1.01.42 1.89 1.43 1.89.57 0 .85-.2 1.3-.9l.42.22c-.48.79-.92 1.09-1.77 1.09-1.17 0-1.91-.75-1.91-2.31 0-1.39.7-2.32 1.83-2.32 1.21 0 1.78.95 1.78 2.33H94.5zm4.13 2.21v-4.45h.51v.84h.01c.24-.54.72-.93 1.28-.93h.23v.5h-.24c-.57 0-1.3.67-1.3 1.52v2.52h-.52m2.32-4.45h.55l1.21 3.67h.02l1.24-3.67h.55L103 38.32h-.506l-1.53-4.45m4.39 0h.51v4.45h-.517v-4.45zm0-1.74h.51v.76h-.515v-.76zm1.91 6.19v-4.45h.51v.7c.48-.5.876-.79 1.526-.79.926 0 1.32.53 1.32 1.5v3.04h-.51v-2.99c0-.74-.226-1.14-.91-1.14-.55 0-.858.34-1.424.85v3.28h-.51m6.12-1.87c.72 0 1.16-.35 1.16-1.12 0-.78-.435-1.14-1.156-1.14-.72 0-1.155.45-1.155 1.14 0 .77.53 1.12 1.15 1.12m-1.37 2.3c0 .44.43.74 1.356.74 1.12 0 1.6-.3 1.6-.76 0-.37-.29-.73-1.63-.73-1.01 0-1.32.37-1.32.75m3.44-4.59c-.23 0-.53.02-.71.2.2.24.32.51.32.94 0 1.1-.78 1.56-1.72 1.56-.29 0-.5-.06-.72-.14-.29.1-.41.27-.41.43 0 .26.17.39 1.38.39 1.33 0 1.89.42 1.89 1.15 0 .65-.5 1.21-2.03 1.21s-1.95-.52-1.95-1.05c0-.39.15-.71.78-.95v-.01c-.33-.07-.59-.21-.59-.58 0-.38.34-.69.67-.76-.4-.27-.64-.7-.64-1.17 0-.97.69-1.6 1.77-1.6.43 0 .76.12 1.04.31.26-.26.58-.4.93-.4v.47m3.3-.29v-1.46h.52v1.46h.98v.41h-.97v3.26c0 .3.14.46.46.46.18 0 .36-.04.53-.1v.43c-.17.03-.35.08-.52.08-.73 0-.97-.24-.97-.78v-3.35h-.67v-.41h.67m2.33 4.45v-6.19h.52v2.44c.48-.5.87-.79 1.52-.79.92 0 1.32.53 1.32 1.5v3.04h-.51v-2.99c0-.74-.22-1.14-.91-1.14-.54 0-.85.34-1.42.85v3.28h-.51m7.48-2.62c-.1-.92-.51-1.5-1.29-1.51-.91-.01-1.29.92-1.3 1.51h2.59zm-2.59.41c0 1.01.42 1.89 1.43 1.89.57 0 .86-.2 1.3-.9l.42.22c-.48.79-.91 1.09-1.76 1.09-1.17 0-1.91-.75-1.91-2.31 0-1.39.7-2.32 1.83-2.32 1.21 0 1.78.95 1.78 2.33H126zm7.15 1.09c.17.3.76.8 1.26.8.93 0 1.38-.74 1.38-1.97 0-.93-.41-1.84-1.3-1.84-.57 0-.9.35-1.34.82v2.19zm-.51-3.33h.51v.68h.02c.35-.51.77-.77 1.34-.77 1.16 0 1.79 1.11 1.79 2.34 0 1.55-.72 2.29-1.76 2.29-.6 0-.96-.2-1.39-.67v2.16h-.52v-6.03zm4.67-1.74h.51v6.19h-.51v-6.19zm4.26 3.67c-2.04.45-2.31.87-2.31 1.44 0 .48.34.76.8.76.48 0 1.07-.29 1.52-.74V35.8zm.09 2.52l-.07-.54c-.53.43-.93.63-1.62.63-.69 0-1.22-.43-1.22-1.17 0-1.21.99-1.44 2.86-1.85v-.31c0-.59-.25-.89-1.02-.89-.53 0-.97.29-1.29.81l-.34-.21c.38-.72.93-1.01 1.65-1.01 1.01 0 1.49.41 1.49 1.4v2.33c0 .22.02.51.07.81h-.49zm4.54-3.2c-.23-.52-.56-.93-1.16-.93-.84 0-1.4.52-1.4 1.91 0 1.14.52 1.9 1.41 1.9.64 0 .98-.35 1.34-.93l.41.2c-.38.63-.9 1.14-1.75 1.14-1.25 0-1.92-.97-1.92-2.31 0-1.54.77-2.32 1.92-2.32.84 0 1.36.47 1.63 1.21l-.47.13m4.32.58c-.11-.92-.51-1.5-1.29-1.51-.91-.01-1.292.92-1.302 1.51h2.59zm-2.59.41c0 1.01.42 1.89 1.43 1.89.58 0 .86-.2 1.3-.9l.416.22c-.48.79-.92 1.09-1.77 1.09-1.17 0-1.91-.75-1.91-2.31 0-1.39.7-2.32 1.83-2.32 1.21 0 1.79.95 1.79 2.33h-3.11zm4.05 1.13c.42.6.795.76 1.38.76.56 0 .99-.37.99-.85 0-1.3-2.622-.57-2.622-2.15 0-.84.66-1.22 1.41-1.22.75 0 1.22.29 1.54.81l-.4.27c-.3-.41-.63-.67-1.16-.67-.5 0-.89.24-.89.78 0 1.09 2.63.45 2.63 2.18 0 .8-.73 1.26-1.54 1.26-.68 0-1.3-.27-1.72-.9l.38-.27m7.49.25h.02l1.25-3.62h.55l-1.66 4.77c-.3.88-.62 1.26-1.42 1.26-.226 0-.36-.02-.48-.05v-.42c.15.02.314.06.51.06.36 0 .755-.32 1-1.24l-1.55-4.38h.567l1.23 3.62m2.73-1.39c0 1.21.41 1.9 1.32 1.9.92 0 1.32-.69 1.32-1.9s-.4-1.91-1.32-1.91c-.91 0-1.32.7-1.32 1.91m3.16 0c0 1.21-.45 2.31-1.832 2.31-1.38 0-1.83-1.1-1.83-2.31s.45-2.32 1.83-2.32c1.39 0 1.83 1.11 1.83 2.32m4.37-2.23v4.45h-.512v-.7c-.48.5-.88.79-1.53.79-.93 0-1.32-.53-1.32-1.5v-3.04h.51v2.99c0 .74.22 1.14.91 1.14.55 0 .86-.34 1.42-.85v-3.28h.52m3.78-1.74h.51v6.19h-.52v-6.19zm2.03 3.97c0 1.21.4 1.9 1.32 1.9s1.32-.69 1.32-1.9-.41-1.91-1.32-1.91-1.32.7-1.32 1.91m3.15 0c0 1.21-.45 2.31-1.84 2.31-1.39 0-1.83-1.1-1.83-2.31s.44-2.32 1.83-2.32 1.84 1.11 1.84 2.32m.43-2.23h.55l1.22 3.67h.01l1.24-3.67h.55l-1.534 4.45h-.507l-1.53-4.45m7.09 1.83c-.1-.92-.5-1.5-1.28-1.51-.91-.01-1.29.92-1.3 1.51h2.59zm-2.58.41c0 1.01.42 1.89 1.43 1.89.57 0 .86-.2 1.3-.9l.42.22c-.48.79-.92 1.09-1.766 1.09-1.17 0-1.91-.75-1.91-2.31 0-1.39.707-2.32 1.84-2.32 1.2 0 1.78.95 1.78 2.33h-3.11zM26.94 10.02l-.164.08-.01.08.147-.06.02-.1M18.24 7.13l.14-.14c.185-.01.188-.15.435-.18-.228.13-.346.26-.575.32m-.705.47c-.16.11-.255.29-.556.32.06-.16.57-.29.58-.45.16-.01.33-.14.27-.2l.1.02c.03-.02-.09-.03 0-.06.09.06.19-.11.33-.08-.27.18-.5.3-.74.45m-1.3 1.07l-.08-.02.15-.02-.09.04m-.44 1.54l-.13-.04c.11.05.1-.04.18-.02l-.05.06m-.19-.38c-.12-.02.03-.06.04-.08.12.01-.04.03-.04.08m7.86-5.49l-.09.06-.12-.02.21-.04m.52-.29l.15-.04-.03.05-.08.02-.05-.03m7.78-2.27l-.14.04.14-.04m.29-.05c-.1.02-.12.04-.17.03l.17-.03m2.93.29l-.13.02.13-.02M35.1 2l-.1.01.106-.01m.255-.05l-.16.03.17-.03m.65-.13c-.22.05-.35.07-.52.1.15-.04.35-.07.52-.1M18.67 9.83c.098-.02.16-.08.05-.13.01-.04.22-.04.11-.08h.145c.238-.22.58-.42.675-.63L19.6 9l.022-.05.068.05c.195-.15.384-.29.433-.39.104-.02.15-.07.162-.13.115-.02.186-.15.312-.18.14-.15.24-.25.52-.45l.34-.23c.513-.32.854-.6 1.536-.97l.04-.07c.592-.34 1.34-.76 1.92-1.09.582-.25.986-.5 1.53-.74l.233-.12c.376-.12.633-.27 1.01-.42l.118-.04c1.74-.74 3.74-1.36 5.664-1.82.147-.03.323-.09.477-.13.223-.05.47-.09.696-.14-.32.1-.75.16-1.02.25-.21.05-.67.16-.93.23-.1.03-.29.08-.32.1l-.02-.01-.08.02-.01.03c-.85.2-1.67.5-2.43.73l.01.04c.37-.13.73-.25 1.08-.36l.12-.04.22-.06c.52-.16 1.1-.34 1.66-.48 1.32-.34 2.51-.59 4.07-.86l.02.01c.13-.04.35-.06.48-.08l.01-.02.02.01c.29-.04.63-.09.93-.13.48-.06.96-.12 1.37-.16.59-.08.96-.09 1.51-.15.12-.04.39-.07.42-.1l.11-.01c.02-.02.04-.03.14-.05-.07 0-.06-.02.08-.04L42 .94l.075-.07c.07-.02.093-.03 0-.03l.06-.02-.1-.05.11-.01-.082-.01c.117-.04.04-.06-.01-.09h-.12l.05-.01c-.28 0-.76.02-1.17.06L40.77.7h-.03l-.05.01h.04-.17c-.128.02-.273.02-.293.01l-.214.03.064-.02-.113.02h-.277l-.02.01-.154.02.112-.02c-.116-.01-.477.02-.736.04-.59.04-1.14.08-1.57.11l-.19.03.09.01-.13.02h-.08l.06-.03c-.13.02-.58.04-.66.09l-.18.03-.04-.02-.15.01h.09c-.13.04-.31.05-.53.07l-.01.02c-.31.01-.79.1-1.16.14l-.12.04c-.21-.01-.68.09-.86.11l.03.01-.05-.01c-.43.08-.83.18-1.34.25l.1.01-.19.04.04-.03c-.19.03-.21.05-.37.06-.06.03-.2.05-.29.06l.13.01-.19.03.01-.01-.09.03-.04-.02c-.22.05-.35.06-.5.11l.15-.02c-.03.04-.38.11-.48.09l.15-.01.02-.01V2c-.16.05-.36.07-.52.13.12-.02.18-.03.28-.06-.17.07-.45.12-.7.18l.03-.04.06.01c.11-.04.17-.06.29-.08-.15-.01-.35.07-.54.1l.09.02c-.2.05-.38.09-.53.14l.1-.01-.05.04-.1-.03-.28.11-.07-.02c-.11.04-.15.04-.29.09l.05.02h-.1l.02.02-.2.01c-.11.04.06.01.04.04l-.1-.01-.12.02.02.03c-.16.03-.17.07-.24.1l.02-.04-.19.07c-.13.02-.13-.01-.26.04.15 0-.15.06-.02.06h-.09l.09-.05-.17.04-.12.08.07-.05c-.14 0-.23.07-.38.09l-.11.11-.1.03-.05.01-.08.01.03-.05c-.19.04-.25.08-.46.14l.07.01-.09.05c-.1.02-.22.01-.29.04l.08.06c-.09.02-.1.02-.14.06l.02-.06v-.04l-.13.09-.1.02c.04.04-.07 0-.21.08.1-.02.03.01.03.04l-.04-.03c-.16.05-.21.06-.28.12l-.04-.04-.06.04-.29.08.02.03-.06-.02-.12.04h.08l-.09.05-.01-.02-.2.06.05.01c-.14.01-.27.06-.4.11l.08.03-.11-.02-.13.05.06.02c-.1-.02-.26.08-.35.1l.19-.04-.01.04c-.24.04-.29.13-.58.18l-.04.05.04-.04.08.04c-.1 0-.18.05-.24.01l-.04.06.09-.03.01.05-.17.05.06-.01-.12.01c-.14.03-.28.1-.38.11l.02.05c-.14.01-.07.04-.21.08l.02-.05c-.05.05-.14.07-.23.15-.1.02-.05-.01-.07-.03l-.03.08c-.09-.01-.04.08-.19.08l.05-.07c-.13.01-.01.05-.17.06.1.03 0 .08.11.06l-.12.09c-.12-.04-.17.06-.29-.01l.04.07.11-.02c-.07.06-.28.18-.39.21l.04-.04c-.09-.01-.01-.04-.06-.06l-.18.1.13-.05c.05.03-.1.07.05.06l-.12.03c.05.03-.16.06-.05.1l-.2-.04-.08.04.13.02c-.09.03-.12.06-.26.08.09.03-.04.04-.03.08l-.11.01.07.05-.11-.03-.06.05-.29.19-.05-.04-.15.05h.08c.01.1-.23.08-.29.11.12 0 .01.07-.12.14H19l-.05.03.06.06-.02.03c-.182-.01-.19.1-.34.13l.027.02c-.09-.02-.06.08-.21.1l-.1-.06.03.05-.15.09h-.06c.04.06.11-.05.21-.08.13.05-.16.04.014.09l-.16.03.04.03c-.2.05-.29.13-.44.24.13.03-.05.07-.13.08.13.03-.13.18-.22.11l-.06.07.08.01c-.14.05-.15.14-.31.13v.05l-.07-.02-.11.08.07.02c-.21.16-.34.23-.48.34l.11.02c.1-.01.06-.03.14-.06l.08.04c-.11.08-.37.16-.25.25-.17-.02-.26.13-.35.17h.1l.03.04-.21.03.13-.02-.08.07-.08-.04c-.11.11-.13.12-.26.23.17.01 0 .07.1.09l.16-.15c.04.1-.14.15-.2.22l.16-.01-.08.13c-.09-.02-.06-.05-.06-.09l-.152.06c-.03-.05.1-.1-.08-.1l.16-.03c-.15-.02.01-.03-.02-.06-.11.03-.18.1-.24.14l.08-.01c-.04.06-.05.06-.17.1h.193l-.2.06.11.09-.09-.01-.06.08c.09.02.02.06.135.07-.23.08-.15.2-.364.3.21.03.23-.2.32-.13.036.03-.04.11-.16.16l.07.03c-.1 0-.04.04-.14.05l.06.01-.18.08.08.02c-.13.04-.06.14-.19.17.1.02.15-.12.29-.13.07.02-.02.07.08.09-.1.01-.173.08-.18.13l.11-.01c-.04.06-.03.07-.144.09l.007.07c.12-.05.27-.15.26-.26l.15-.06c.18.06-.29.17-.16.26l-.12.03c.1.06.05.02.01.11l.11-.06h.11c.1.03-.03.04-.04.09l.06.04.1-.01.21.12-.12.02.09.02c-.06.06-.2.1-.09.16 0-.03.26-.03.16 0 .2-.05.164-.16.34-.24l-.03.08c.1.04 0-.07.15-.02.06.08-.19.12-.19.25l.25-.16-.03.18h.22c0 .11-.04.14-.11.22l.03.04.1-.05c.15.03-.05.07.05.11.09 0 .03-.04.1-.05l-.04.13.24-.14.03.01.18-.24c.26-.06.3-.38.53-.44.07-.2.45-.33.57-.52.08 0 .118.03.21.01l-.09-.01m1.44-4l-.16.03v.06l.144-.03.02-.06m.4 3.96l-.176.07-.01.08.15-.06.03-.09m4.32-2.94l-.08.03-.05-.04.16-.06-.03.07m-.81.56l-.13-.03.24-.07-.11.1m9.35-4.3l-.16.06.16-.06m.323-.08c-.107.03-.14.06-.19.05l.19-.05m3.16.38v.02l-.14.02.144-.04m.14-.02l-.12.01.11-.01m.29-.08l-.19.05.19-.05m.73-.18c-.25.07-.39.09-.58.15.16-.07.38-.12.58-.15m-10.7 4.55c.1-.06.22-.09.26-.19.41-.2.7-.43 1.12-.67l.13-.06c1.93-1.18 4.18-2.15 6.35-2.85.17-.05.37-.13.54-.19.25-.08.53-.14.79-.21-.37.14-.846.23-1.16.38-.24.06-.76.23-1.04.34-.12.04-.33.12-.36.16l-.03-.02-.09.03-.02.04c-.96.31-1.89.78-2.72 1.15v.05c.4-.2.82-.39 1.21-.56l.13-.06.24-.1c.57-.25 1.23-.52 1.87-.74 1.48-.51 2.82-.89 4.58-1.26l.01.02c.144-.06.39-.09.54-.11l.015-.03.01.02c.32-.07.71-.13 1.04-.18.54-.08 1.08-.16 1.53-.2.67-.1 1.08-.1 1.7-.17.135-.04.44-.08.48-.12l.12-.01c.02-.02.05-.03.16-.06-.08-.01-.06-.04.09-.05l-.13-.04c.09-.02.17-.06.1-.09.08-.02.11-.04.01-.04l.08-.03c-.09-.02-.12-.05-.1-.08l.12-.01-.09-.01c.14-.05.06-.09.01-.14h-.13l.06-.02c-.3-.01-.84.01-1.3.04v-.02l-.04.01h-.05l.04.01h-.19c-.15.03-.31.02-.33 0-.1.02-.16.03-.24.03l.07-.02-.13.02c-.02-.02-.2-.02-.3-.01l-.02.02-.18.02.13-.02c-.13-.03-.53.01-.82.03-.65.04-1.27.1-1.75.13l-.21.05h.1l-.15.04-.07-.01.08-.03c-.14.01-.65.04-.74.12l-.2.04-.04-.04-.17.02h.11c-.14.06-.35.07-.59.11l-.01.02c-.34.01-.88.14-1.3.2l-.14.07c-.23-.02-.76.13-.96.17l.03.01-.056-.01c-.48.12-.93.26-1.5.39h.11l-.21.08.05-.06c-.22.05-.24.08-.42.1-.06.04-.21.08-.32.1h.15l-.213.06.02-.02-.1.04-.04-.02c-.25.08-.4.09-.57.17l.17-.03c-.04.05-.43.18-.54.16l.16-.03.02-.02-.01-.03c-.18.08-.4.11-.58.21.13-.03.2-.05.32-.1-.196.11-.51.2-.78.29l.04-.05.064.01c.13-.06.2-.1.33-.13-.16-.01-.39.12-.6.17l.1.02c-.23.08-.43.15-.6.23l.11-.02-.06.07-.11-.04-.32.16-.074-.02c-.12.07-.17.07-.33.14l.06.04c-.07.03-.01-.07-.1-.01l.02.04c-.1.03-.17.05-.21.02-.13.06.06.01.04.06l-.11-.02-.14.04.03.04c-.18.06-.2.11-.28.16l.03-.06-.22.12c-.14.04-.13-.02-.28.06.16 0-.17.1-.03.1h-.1l.1-.08-.18.07-.14.12.08-.07c-.15.01-.26.11-.42.16l-.14.17-.11.03-.05.03-.08.02.04-.07c-.2.07-.27.13-.5.22l.08.01-.1.08c-.11.03-.23.03-.31.08l.08.08c-.1.04-.11.04-.16.1l.03-.08v-.07c-.1.05-.1.08-.14.14l-.12.03c.047.07-.073.02-.23.14.11-.03.04.02.03.06v-.04c-.17.09-.223.09-.31.2l-.04-.07-.075.07-.31.14.01.04-.06-.02-.13.06h.08l-.1.09-.01-.05-.23.11.05.02c-.16.02-.3.11-.44.19l.08.04-.11-.02-.12.08.06.01c-.11-.01-.29.15-.38.18l.2-.07-.01.06c-.27.07-.32.21-.63.31l-.05.08.04-.06.08.06c-.11 0-.19.07-.25.03l-.05.09.1-.05c-.01.04-.08.06.02.07l-.19.08.05-.02-.13.03c-.15.05-.31.18-.41.2l.01.07c-.15.03-.08.06-.23.14l.02-.08c-.05.07-.15.12-.25.24-.1.03-.05-.01-.08-.04l-.02.12c-.09-.01-.04.11-.205.13l.06-.11c-.144.03-.02.07-.19.12.1.02 0 .11.11.06l-.13.14c-.12-.04-.18.12-.31.03l.04.1c.01-.12.02.01.116-.05-.07.1-.3.29-.41.34l.04-.05c-.1-.02-.01-.07-.06-.09-.06.1-.15.09-.19.17l.14-.09c.05.05-.11.11.04.08l-.134.06c.05.04-.16.11-.05.16l-.2-.05-.08.07.13.01c-.09.06-.12.1-.27.15.1.04-.04.06-.03.12l-.11.02.07.06-.11-.02-.06.07c-.04.09-.37.23-.31.32l-.06-.05c-.08 0-.06.03-.15.08l.074-.01c.01.14-.24.15-.31.19.12 0 .01.11-.12.23l-.16.01-.06.05.066.07-.02.05c-.2.01-.21.18-.36.23l.02.03c-.09-.02-.06.12-.22.16l-.11-.06.03.06-.15.09.05.01.1-.08c.103.04-.05.07-.047.1l.27.06.105-.06-.06.07 3.006.65c.44-.43.81-.84 1.45-1.37l.04-.1c.64-.55 1.45-1.21 2.08-1.74.64-.41 1.08-.8 1.68-1.19m15.97-3.6c.17-.06.38-.08.57-.1-.25.05-.39.06-.57.1m-.32.06l.19-.04-.18.04m-.2.02l.11-.01-.11.01m-.03.02l-.13.01.14-.03v.02m-3.03-.67l.186-.03c-.11.02-.14.05-.19.03m-.29.07l.15-.04-.15.04M31.12 7l-.08.03-.04-.04.16-.06-.035.07m-.8.57l-.115-.03.224-.07-.107.1m-5.205 4.65c0-.09.148-.14.13-.22.182-.04.178-.25.422-.33-.222.22-.33.44-.552.55M50.47 3.34l-.08-.02c.137-.04.078-.09.048-.15l-.12-.02.057-.01c-.273-.06-.768-.11-1.19-.14l-.003-.01h-.036l-.05-.01.037.02-.172-.02c-.13 0-.28-.02-.29-.04-.09 0-.15 0-.22-.01h.08-.12c-.02-.02-.18-.05-.28-.05l-.02.02h-.16l.13-.01c-.11-.04-.49-.05-.76-.06-.6-.04-1.19-.05-1.63-.06l-.2.02.1.02-.14.02-.06-.02.08-.03c-.13 0-.61-.02-.71.05l-.19.02-.03-.04-.16.01.1.01c-.14.04-.33.02-.56.04l-.01.03c-.32-.03-.85.06-1.24.08l-.14.06c-.21-.04-.73.07-.93.09l.03.01-.05-.01c-.47.08-.91.2-1.47.28l.1.01-.22.06.05-.05c-.21.03-.22.06-.4.07-.06.04-.21.07-.31.08l.13.02-.21.04.03-.02-.1.04-.03-.03c-.25.06-.38.07-.55.14l.16-.02c-.04.06-.43.16-.53.12l.16-.02.03-.02-.01-.02c-.18.07-.39.09-.57.18.13-.03.19-.04.31-.08-.2.1-.5.17-.77.25l.04-.05.06.02c.13-.06.2-.1.33-.12-.15-.03-.38.1-.58.14l.09.02c-.22.08-.41.13-.58.21l.11-.02-.06.07-.1-.04-.31.15-.07-.03c-.12.06-.17.07-.33.13l.04.04c-.07.03 0-.07-.09-.01l.02.04c-.09.03-.16.04-.19.01-.13.06.06.02.03.06l-.1-.02-.13.04.02.04c-.17.05-.19.1-.28.16l.03-.07-.22.11c-.13.03-.12-.02-.28.05.15.01-.16.1-.03.1h-.1l.11-.08-.18.06-.14.13.08-.07c-.15 0-.26.1-.41.14l-.14.17c-.06.02-.05-.05-.11.04l-.04.02-.08.02.05-.07c-.2.06-.27.12-.49.21l.07.01-.1.08c-.11.04-.23.02-.31.08l.07.08c-.1.04-.11.04-.16.1l.03-.08.01-.08c-.09.05-.1.08-.14.15l-.11.03c.04.07-.07.01-.23.13.11-.03.03.03.02.07l-.03-.05c-.17.09-.22.09-.31.2L32 6.4l-.073.08-.3.13.01.04-.054-.01-.127.05.077.01-.096.08-.005-.04-.218.11.052.02c-.146.01-.286.1-.428.18l.078.04-.1-.02-.134.08.056.02c-.105-.02-.28.14-.37.18l.19-.07-.006.06c-.257.07-.317.21-.614.31l-.047.08.04-.06.08.06c-.1 0-.19.07-.24.03l-.05.09.1-.05.01.08-.17.08.06-.02-.13.03c-.15.05-.29.18-.39.2l.01.07c-.14.03-.08.07-.22.14l.02-.07c-.05.07-.14.11-.25.24-.1.03-.04-.01-.07-.05l-.03.14c-.08-.02-.04.11-.2.13l.06-.11c-.13.02-.02.07-.18.12.1.02 0 .11.11.06l-.13.15c-.12-.04-.18.12-.29.02l.04.11c.01-.12.02.01.11-.05-.07.1-.29.3-.4.36l.05-.07c-.09-.01-.01-.06-.05-.09-.06.1-.14.1-.18.18l.13-.09c.05.04-.1.11.04.08l-.13.06c.05.05-.15.12-.05.17l-.19-.05-.07.07.13.01c-.09.06-.12.11-.26.16.1.04-.03.06-.02.12l-.11.02.07.07-.11-.03-.05.08c-.04.09-.35.23-.29.33l-.05-.05-.14.09.08-.02c.01.15-.23.15-.29.2.12 0 .01.11-.11.23l-.15.02-.05.05.06.08-.02.05c-.18.01-.19.18-.33.24l.02.03c-.09-.02-.05.12-.2.17l-.11-.07.03.07-.14.16-.06.01c.06.09.11-.1.21-.15.14.06-.15.08.02.14l-.16.06.05.04c-.2.1-.28.24-.43.41.13.04-.04.12-.12.16.13.02-.12.27-.21.19l-.01.05.23.05.03-.16.1.01c.02-.04-.09-.03 0-.1.1.09.19-.18.32-.16-.13.16-.25.29-.37.43l2.94.64c.06-.09.13-.18.22-.3.06-.06.33-.26.32-.38.5-.52.83-.98 1.51-1.6l.04-.1c.6-.56 1.37-1.23 1.99-1.76.61-.41 1.05-.8 1.63-1.19.09-.06.21-.08.26-.18.4-.19.68-.43 1.09-.66l.13-.06c1.9-1.13 4.12-2 6.24-2.55.16-.04.36-.11.53-.15.24-.07.51-.11.76-.16-.37.12-.82.17-1.14.3-.23.04-.74.18-1.02.27-.12.03-.33.1-.36.13L40 4.92l-.09.02-.024.04c-.937.25-1.86.68-2.68 1.02l-.01.05c.4-.18.804-.36 1.19-.51l.13-.05.24-.09c.566-.22 1.22-.46 1.836-.64 1.444-.41 2.75-.68 4.435-.88l.01.02c.14-.05.37-.05.518-.06l.02-.03.01.02c.31-.04.68-.05.99-.07.51-.02 1.02-.04 1.44-.03.63-.02 1.01.03 1.58.04.13-.03.42-.03.46-.06h.12c.02-.02.05-.03.16-.04-.06-.02-.04-.05.1-.05l-.11-.05.12-.08c.078-.01.11-.03.02-.04l.08-.02-.07-.1.11.01"/>
    <path d="M9.553 12.21l.162-.02-.168.01.006.01m-.164.02l.12-.03-.13.03m-.34.03l.22-.02-.23.02m-.85.07c.3-.02.46-.04.68-.06-.2-.01-.46.03-.68.06m28.69 3.44l.09.06c.06-.07.23-.06.14-.1-.12.1-.14-.02-.24.04m.04-.6c-.14.06.08.02.09.09.13-.07-.07-.07-.09-.09m-5.34-2.69c.34.08.55.22.86.21l-.24-.13c-.23.06-.31-.12-.62-.08m3.95 1.47l.12.02.08-.05-.2.03M24.7 10.96l.15.05.134-.08-.28.03m8.74 1.92c-.2.06-.47-.05-.43-.15l-.117.06c-.045-.03.1-.08-.038-.09-.08.12-.29-.06-.44.03.41.13.75.2 1.11.32.24.08.45.28.83.21-.17-.19-.85-.17-.94-.38m-9.72-2.1l.06.05h.1l.04-.06-.2.01m-10.21-.1l-.19.01.19-.01m-.57.06c.12-.02.16 0 .22-.03l-.22.03M2.82 12.4c.027-.02.225-.08.336-.1l.027.01.2-.04-.148.02c.135-.06.59-.15.913-.22.73-.17 1.427-.32 1.956-.43l.237-.03-.1.04.17-.02.09-.03-.09-.01c.16-.03.73-.17.85-.13.1-.02.19-.03.23-.03l.04-.04.19-.04-.11.04c.17 0 .4-.06.67-.11l.02.03c.38-.11 1.01-.17 1.48-.26l.17.02c.25-.1.87-.14 1.1-.18l-.02.02.06-.03c.55-.06 1.09-.08 1.75-.17l-.12.05.26-.01-.06-.04c.25-.03.28-.01.48-.05.09.02.26-.01.38-.03l-.16.06c.01.01.16-.02.25-.02l-.03-.02c.07-.04.03.03.12.01l.03-.04c.3-.02.46-.06.66-.04l-.19.03c.05.04.52.01.63-.05l-.19.03-.03-.01.01-.03c.22.01.46-.04.69-.01-.16.01-.24.02-.38.02.24.03.61 0 .94-.02l-.05-.03-.07.03c-.17-.01-.25-.02-.41.01.17-.08.46-.04.7-.07l-.11.05c.27 0 .51-.02.72 0l-.13.02c.09.01-.02.03.08.04l.11-.08.39.03c.09.01.07-.02.08-.04.15.01.21 0 .4 0l-.05.05c.08.01-.01-.06.11-.04l-.02.04c.12 0 .2-.02.24-.05.16 0-.06.03-.03.06l.11-.06.16-.01-.02.05c.22-.02.25.02.35.04l-.04-.04c.09.02.25-.03.27.02.16-.02.15-.07.33-.06-.17.07.21.03.06.08.1.02.04-.04.11-.03l-.14-.04.23-.01c.02.04.08.06.18.06l-.11-.03c.17-.05.32 0 .51-.02l.2.1.12-.01.06.01.1-.01-.06-.06c.24-.01.34.02.62.01l-.09.04.14.03c.13-.01.27-.07.37-.05l-.06.1c.12 0 .13 0 .2.03l-.05-.06-.02-.06c.12 0 .13.03.2.07l.14-.02c-.03.08.09-.01.29.03-.13.02-.03.04-.01.07l.03-.05c.21.01.27-.01.4.05l.03-.08.1.04c.02-.06.28-.02.38 0-.07.01-.11.03 0 .04l.05-.04h.16c.09.03-.08.02-.09.04l.13.03v-.04l.28.01-.06.04c.17-.05.35-.02.54-.01l-.08.07.12-.06.18.01-.06.04c.12-.06.36.02.48.01l-.24.02.02.05c.31-.05.42.06.79.01.1 0 0 .06.08.06l-.06-.04c-.1 0-.05.06-.08.09.12-.05.24-.02.3-.08.11 0 0 .06.08.06h-.12c.03.04.11.02.01.07h.23-.07l.16-.02c.19-.02.39.03.52 0l.01.07c.18-.03.11.03.3.03l-.04-.06c.08.04.21.04.36.11.12-.02.05-.03.07-.07.11.01.08.05.07.1.1-.05.08.08.27.03l-.1-.08c.16-.04.04.06.24.03-.1.06.04.1-.11.1.07.04.1.03.2.08.13-.1.24.02.35-.12l-.01.11c-.04-.1-.01.02-.14.01.12.05.43.13.58.13l-.07-.03c.11-.06-.01-.07.04-.11.1.06.19.02.27.07l-.18-.02c-.05.07.16.06-.03.09h.17c-.04.06.22.03.11.12.11.01.19-.08.21-.13l.11.03c-.11 0-.03.1-.14.06.13.01.18.04.36.02-.11.08.05.04.06.1l.13-.03-.06.08c.1 0 .03-.07.11-.07.02.03 0 .06.1.04l-.06-.07.22-.01c-.1.02-.08.06.03.07l-.19.01c.07.07.49.04.45.15.04.02.15-.08.04-.07.1-.03.08 0 .2.01l-.09.02c.04.13.32.03.41.04-.14.05.03.1.22.14l.18-.06.08.03-.05.09.04.03c.22-.07.29.07.47.05l-.02.04c.1-.06.11.08.31.04l.1-.1-.01.06.24.07.07-.02c-.03.1-.16-.03-.3-.02-.14.11.215-.01.026.12l.22-.03-.04.06c.277-.01.428.06.66.14-.13.1.1.08.21.07-.143.09.25.17.326.06l.11.06-.1.05c.19.02.25.13.45.06l.02.06.07-.06c.09.04.06.06.177.07l-.07.05c.34.14.53.17.77.27l-.13.06c-.12.03-.09-.02-.2-.02l-.07.08c.18.06.53.08.43.23.19-.08.374.08.51.11l-.13.03-.01.06.27-.03-.17.01.14.06.09-.08c.19.1.22.11.44.21-.21.07.04.08-.07.15-.09-.05-.18-.09-.27-.13.01.14.25.14.36.2l-.2.05c-.01.12.19.04.17.15.1-.06.04-.1.03-.14l.22.01c.02-.07-.16-.09.06-.16-.1-.08-.13.09-.2.02.16-.08-.04-.02-.01-.09.14 0 .26.06.35.11l-.1.01c.08.06.08.05.26.07l-.24.07.27.01-.08.15.11-.04.102.08c-.11.06 0 .08-.137.13.33.04.29.21.6.27-.24.12-.38-.17-.45-.05-.03.05.11.13.28.15l-.07.07c.12-.04.06.04.19.01l-.06.03.26.05-.09.05c.18 0 .14.15.32.16-.11.05-.25-.11-.42-.08-.07.06.06.09-.05.15.12-.02.25.05.28.11l-.14.03c.08.06.08.08.22.06-.09.05.03.05.04.1-.18-.02-.41-.11-.44-.25l-.21-.02c-.2.14.44.12.31.28l.17-.01c-.09.12-.05.05.04.15l-.16-.03-.13.03c-.1.08.06.04.1.11l-.05.07-.13.03-.19.23.15-.02-.09.06c.107.06.29.06.19.17-.01-.03-.323.07-.2.07-.26.01-.27-.15-.53-.19l.077.1c-.102.08-.03-.09-.19.02-.03.13.29.09.357.26-.13-.03-.26-.05-.37-.11.03.08.16.11.13.22l-.27.09c.05.14.11.16.25.24l-.03.07-.15-.04c-.16.11.1.08-.01.17-.12.03-.06-.03-.147-.03 0 .13.24.24.32.32-.15.05-.38-.09-.49-.15-.18-.1-.34-.22-.45-.33-.36.02-.56-.38-.87-.38-.19-.23-.72-.27-.95-.47-.11.03-.13.09-.25.09l.1-.04c-.13 0-.24-.06-.13-.15-.04-.06-.29.01-.18-.08-.1-.01-.09.05-.17.06-.406-.21-.92-.34-1.14-.58l.06.01-.05-.07-.06.1c-.31-.14-.61-.24-.725-.37-.13.03-.21-.02-.26-.1-.14.02-.3-.12-.47-.12-.24-.14-.41-.24-.86-.4-.08-.03-.5-.07-.52-.17-.78-.23-1.34-.47-2.36-.71l-.075-.07c-.9-.23-2.01-.5-2.89-.72-.837-.12-1.45-.29-2.237-.41-.12-.02-.27.01-.34-.07-.52-.02-.91-.12-1.44-.18h-.16c-2.49-.33-5.23-.4-7.8-.28-.2 0-.44 0-.65.01-.29.01-.61.04-.92.07.45.01 1-.08 1.38-.05.283-.03.9-.05 1.24-.05.15 0 .4-.01.44.01l.03-.02h.11l.02.02c1.14-.05 2.29.04 3.32.07l.01.04c-.5-.02-1.01-.05-1.49-.06l-.16-.01h-.3c-.707-.02-1.506-.04-2.26-.02-1.76.06-3.337.16-5.37.4l-.014.02c-.17-.01-.44.04-.62.07l-.02-.02-.01.02c-.37.04-.81.11-1.19.17-.62.1-1.23.19-1.74.29-.76.12-1.22.24-1.91.37-.16 0-.5.05-.56.03l-.14.02c-.02-.01-.06-.02-.18-.01.083-.03.06-.05-.11-.02l.13-.07c-.11 0-.2-.01-.13-.06-.096.01-.135 0-.02-.04h-.1c.09-.05.12-.09.1-.11l-.14.03.1-.03c-.16-.02-.08-.07-.036-.13.08-.02.05-.02.15-.04H.4c.338-.11.937-.25 1.45-.36l.006-.02h.04l.065-.02-.04.02c.09-.01.13-.04.21-.06.17-.02.34-.07.36-.09.11-.02.19-.03.27-.05h-.09l.15-.02m6.7 4.21l.16.01-.16-.03.01.02m-.15-.03h.12-.13m-.32-.06l.21.04-.21-.04m-.8-.14c.28.06.43.07.64.11-.19-.07-.43-.09-.64-.11M31.1 33.65l.038.14c.08-.06.194.05.147-.06-.13.07-.087-.11-.184-.08m.34-.8c-.13.02.05.08.02.18.14-.02-.01-.13-.02-.18m-2.82-6.64c.24.29.35.6.6.74.01-.13-.16-.19-.13-.3-.2-.05-.19-.34-.46-.44m2.41 4.19l.08.1.09-.03c0-.1-.17-.12-.16-.07m-7.61-9.77l.12.14.14-.06-.25-.08m6.5 7.13c-.18-.02-.34-.33-.27-.44l-.11.02c-.02-.06.12-.06.01-.14-.11.12-.2-.24-.35-.2.27.41.5.69.74 1.05.15.25.22.64.55.76-.03-.36-.57-.7-.56-1.05m-7.3-7.84l.04.1.09.03.05-.05-.17-.08m-9.25-4.25l-.17-.05.18.05m-.54-.11c.12.02.16.06.21.03l-.21-.03m-9.68-.42c.02-.03.21-.07.32-.08l.03.03.2-.01-.14-.01c.13-.06.56-.09.87-.11.7-.07 1.36-.11 1.87-.15l.23.02-.1.03.17.02.08-.02-.09-.04c.15 0 .7-.05.81.04.1 0 .19 0 .22.02l.03-.05h.19l-.11.02c.16.05.38.02.64.04l.02.04c.37-.06.97.04 1.42.06l.16.07c.24-.06.83.07 1.05.09l-.02.02.06-.03c.52.09 1.03.23 1.66.32l-.12.03.24.07-.06-.07c.24.03.26.07.45.08.08.05.24.08.36.09.02.09-.16-.02-.15.03l.24.06-.03-.03c.08-.04.03.05.12.05l.04-.04c.28.07.44.07.63.17l-.18-.02c.04.07.48.19.59.14l-.2-.02-.03-.02.01-.04c.21.1.44.11.65.23-.15-.04-.22-.06-.36-.11.22.14.57.23.87.32l-.04-.07-.07.03c-.15-.08-.23-.13-.38-.15.17-.04.44.12.66.16l-.11.04c.25.1.47.16.66.26l-.12-.02.07.09.12-.06.36.19.08-.03c.14.07.19.07.37.15l-.05.06c.07.04.01-.09.11-.02l-.02.06c.11.04.19.05.23.01.14.07-.07.02-.04.08l.12-.03.15.04-.02.06c.2.06.22.14.31.2l-.04-.08.244.14c.15.03.15-.04.31.06-.17.02.18.12.04.13h.11l-.11-.11.21.08c.01.06.06.11.15.16l-.09-.09c.16 0 .28.13.46.18-.03.1.19.17.15.23.06.02.05-.08.11.04l.06.03.09.03-.05-.1c.23.08.304.16.56.27l-.09.02.113.1c.12.04.26.02.34.09l-.085.12c.11.05.12.05.18.12l-.03-.1-.005-.11c.11.07.11.11.16.2l.13.03c-.05.1.08.02.25.18-.12-.03-.04.03-.03.09l.04-.06c.18.1.24.11.34.26l.04-.11.08.09.34.17c-.07-.01-.104 0-.01.07l.06-.03.14.07c.07.09-.08-.01-.09.01l.1.11.01-.06.24.14-.06.03c.167.02.32.13.48.24l-.09.06.118-.04.15.11-.07.02c.12-.03.32.19.42.23.04.11-.17-.08-.22-.08l.01.08c.29.09.35.28.685.4l.05.12-.04-.09-.09.09c.12-.01.21.09.276.03.09.05-.02.07.05.12l-.11-.06c.01.06.08.07-.014.09.06.08.14 0 .194.11l-.06-.02c-.01.09.11.04.14.03.17.07.33.24.44.26l-.02.1c.16.04.09.09.24.19l-.01-.11c.05.1.16.16.27.33.11.04.05-.01.08-.07.09.08.05.13.03.18.1-.02.04.16.22.17l-.05-.14c.16.02.02.1.2.15-.11.04 0 .16-.12.1.05.08.07.09.14.2.13-.07.19.15.33.01l-.04.15c-.01-.17-.03.02-.13-.06.08.13.31.4.43.47l-.05-.08c.11-.02.01-.09.07-.13.054.14.15.13.195.24l-.15-.12c-.06.06.11.15-.05.11.05.11.09.01.14.09-.06.06.17.14.04.22.095.07.19-.02.223-.08l.09.09c-.09-.04-.07.13-.14.03.1.07.135.14.29.2-.11.06.034.08.02.17.045.06.084-.07.125.03l-.08.09.127-.04.06.1-.02-.13.187.1v.11l-.16-.08c.03.13.38.31.31.45.02.04.15-.03.06-.08.09 0 .06.04.16.12l-.08-.02c-.02.21.25.2.31.27-.13-.01-.02.15.12.31l.17.01.06.08-.08.11.01.06c.21.01.21.25.37.32l-.03.05c.1-.03.05.16.22.22-.01-.09.04-.06.13-.09l-.03.08.16.23h.07c-.06.12-.12-.13-.23-.19-.16.08.17.1-.03.18l.18.08-.05.06c.22.13.31.32.46.56-.15.05.04.16.13.2-.15.05.12.38.23.27l.05.14-.09.01c.14.13.13.32.32.32v.1l.08-.03c.05.1.02.12.11.19l-.08.03c.193.38.323.53.46.8l-.13.01c-.11-.03-.06-.07-.14-.14l-.1.07c.11.19.37.41.22.56.19-.01.25.31.34.43l-.11-.03-.035.07c.08.02.18.01.22.12-.05-.01-.12.02-.13-.08l.07.16.1-.06c.09.24.11.26.23.53-.19-.02-.01.14-.12.16l-.14-.33c-.063.19.12.33.17.48.01.04-.174.05-.18-.04-.06.15.12.16.05.29.1-.02.08-.11.096-.18.08-.01.13.04.16.15.05-.1-.08-.22.12-.2-.04-.16-.14.05-.16-.07.16-.02-.02-.07.04-.14.11.09.16.23.21.35l-.09-.04c.03.11.04.12.16.23-.09.03-.19.07-.21-.03-.03.11.17.14.2.16-.07.04-.123.05-.134.17h.1l.03.18c-.1.01-.04.1-.16.1.22.23.11.44.31.7-.24.03-.19-.45-.31-.33-.04.05.013.24.124.37l-.087.05c.1.02.02.09.13.12l-.06.01c.02.12.14.08.16.21l-.09.02c.13.1.02.29.15.4-.11.01-.12-.29-.27-.34-.08.04-.01.16-.11.18.1.03.16.2.15.3l-.11-.04c.02.14.01.16.13.22-.1.01-.01.08-.03.15-.12-.13-.24-.38-.19-.59-.07-.02-.14-.03-.15-.15-.21.08.26.4.09.55l.13.09c-.12.11-.05.04-.04.22l-.1-.12-.11-.04c-.115.06.02.1.015.2l-.08.08-.1-.04c.032.07-.16.14-.25.21.002.07.14-.05.12.06l-.09.02c.04.14.17.24.04.34 0-.04-.26-.08-.17-.02-.19-.12-.12-.35-.28-.55l.01.18c-.13.05.01-.15-.15-.08-.09.16.15.28.11.55-.08-.11-.16-.21-.21-.36-.02.14.06.24-.02.38l-.23-.03c-.04.23 0 .28.05.47l-.06.07-.09-.12c-.17.05.02.16-.09.22-.1-.02-.03-.08-.09-.12-.07.18.04.46.06.61-.13-.01-.22-.34-.26-.48-.08-.22-.138-.48-.16-.69-.26-.16-.21-.82-.43-.98-.02-.42-.39-.76-.47-1.16l-.22-.01c.005-.09.07.01.1 0-.1-.07-.15-.2-.026-.28 0-.1-.22-.13-.1-.19H28c-.2-.51-.52-.97-.59-1.41l.047.04-.016-.11-.08.09c-.18-.34-.36-.64-.4-.87-.11-.04-.15-.15-.15-.28-.12-.05-.18-.33-.31-.41-.13-.32-.23-.55-.51-.99-.06-.08-.37-.34-.35-.5-.53-.71-.89-1.33-1.63-2.15l-.04-.14c-.65-.75-1.49-1.64-2.16-2.35-.67-.53-1.15-1.06-1.79-1.56-.1-.08-.24-.1-.28-.25-.44-.24-.75-.55-1.21-.85l-.14-.08c-2.11-1.47-4.6-2.58-6.99-3.24-.19-.05-.41-.13-.6-.19-.28-.07-.58-.12-.86-.18.41.15.93.2 1.28.36.27.05.83.22 1.15.33.13.04.36.12.41.17l.03-.03.1.04.03.05c1.06.3 2.09.85 3.01 1.28v.07c-.45-.23-.9-.46-1.34-.65l-.14-.06-.27-.11c-.63-.29-1.36-.58-2.06-.8-1.63-.5-3.1-.82-5.02-1.03l-.01.02c-.16-.05-.42-.05-.58-.06l-.02-.03-.01.02c-.35-.04-.77-.04-1.13-.05-.58-.02-1.16-.02-1.64.01-.72-.01-1.15.07-1.8.11-.15-.03-.47-.03-.53-.07h-.13c-.02-.02-.05-.03-.17-.04.08-.03.05-.07-.11-.06l.13-.07c-.1-.01-.19-.05-.13-.1-.09-.02-.13-.04-.02-.06l-.09-.03.09-.13-.13.01.1-.03c-.15-.05-.09-.11-.05-.19L1 15.5l-.065-.01c.313-.08.88-.17 1.362-.22l.007-.02h.04l.06-.01-.046.02.2-.04c.156.01.323-.03.34-.06.107 0 .175 0 .256-.02h-.08.14"/>
    <path d="M9.525 14.28l.165-.01h-.17l.005.01m-.17 0l.136-.01-.13.01m-.34-.01h.23-.23m-.86-.03c.31.02.47.01.69.02-.2-.04-.46-.03-.69-.02M34.81 24l.062.1.15-.08c-.128.08-.12-.06-.22-.02m.203-.68c-.137.04.06.05.057.13.15-.04-.03-.1-.05-.13m-4.17-4.49c.3.18.46.39.746.45-.012-.09-.2-.11-.19-.2-.225.01-.25-.22-.555-.25m3.26 2.71l.1.06.09-.04-.19-.02m-9.43-6.04l.138.08.14-.06-.27-.02m7.79 4.26c-.2.02-.42-.18-.36-.28l-.12.04c-.03-.04.12-.06-.01-.11-.1.12-.25-.14-.41-.08.35.25.65.42.95.65.21.16.35.44.71.47-.09-.27-.73-.42-.76-.69m-8.69-4.68l.05.07.1.02.05-.06-.19-.03m-10.04-1.97l-.19-.02.19.02m-.58-.02c.13 0 .17.03.23 0h-.22m-10.47.64c.03-.02.24-.07.36-.08l.03.02.21-.03-.15.01c.14-.06.61-.12.95-.17.76-.11 1.49-.2 2.04-.28h.25l-.11.03h.18l.09-.02-.09-.03c.17-.01.76-.11.88-.04.1-.01.19-.02.23-.01l.05-.05.2-.01-.12.02c.17.03.41-.02.7-.03l.02.03c.4-.08 1.04-.06 1.53-.1l.18.03c.26-.07.89-.03 1.13-.04l-.03.02.06-.03c.57.01 1.1.07 1.78.06l-.13.04.26.02-.06-.05c.25 0 .27.03.48.01.08.04.26.04.38.03l-.17.05c.01.01.16 0 .26.01l-.03-.02c.08-.04.03.03.13.02l.04-.03c.3.02.47 0 .67.05l-.19.01c.04.05.51.09.64.04h-.2l-.03-.01.01-.03c.22.05.47.02.69.09-.16-.01-.24-.01-.38-.03.23.07.61.09.94.13l-.05-.05-.07.03c-.16-.04-.24-.07-.4-.07.19-.05.47.04.71.04l-.12.05c.26.04.51.06.71.11l-.13.01c.08.03-.03.03.07.06l.13-.07.38.1.09-.04c.14.04.2.04.39.08l-.06.05c.08.02.01-.07.12-.03l-.02.04c.12.02.2.01.24-.02.16.03-.06.02-.04.07l.13-.04.16.01-.03.05c.22.02.24.07.34.11l-.03-.06.26.08c.16 0 .15-.06.34-.01-.19.04.2.07.04.11.1.04.05-.04.11-.02l-.13-.07.22.03c.02.04.07.08.17.11l-.1-.07c.18-.02.31.07.5.08l.17.15.13.02.06.01.1.01-.05-.07c.25.03.34.08.61.13l-.09.02.13.06c.13.02.28-.02.37.02l-.08.11c.12.02.13.02.19.06l-.04-.07v-.08c.12.03.12.06.18.12l.14.01c-.05.08.09 0 .28.1-.13-.01-.04.03-.03.07l.04-.05c.21.05.27.05.38.14l.04-.09.1.06.37.08c-.07 0-.11.02 0 .05l.06-.03.16.03-.09.02.12.07.01-.04.27.06-.07.04c.18-.02.35.04.53.1l-.09.06.13-.05.17.06-.07.03c.13-.04.35.09.46.11l-.24-.03.01.06c.32.02.4.16.768.19.1.02-.016.06.06.08l-.05-.06c-.09-.01-.06.07-.09.09.124-.03.23.03.3-.02.1.02-.01.06.06.08l-.12-.03c.02.05.1.05-.01.08l.22.05-.07-.01h.16c.18.02.37.13.49.13l-.01.08c.18 0 .1.05.28.09l-.03-.07c.07.06.19.09.32.2.12.01.06-.02.09-.07.11.04.07.09.05.14.103-.04.06.11.25.09l-.076-.1c.17-.01.03.07.23.08-.114.05.01.12-.126.1l.17.13c.147-.08.23.08.36-.06l-.03.13c-.02-.13-.02.02-.14-.03.1.09.38.25.518.29l-.06-.06c.11-.03 0-.07.06-.11.07.09.17.07.23.15l-.17-.07c-.06.06.14.1-.05.1l.16.03c-.06.06.2.09.07.17.1.04.2-.05.23-.1l.09.05c-.1-.02-.06.11-.15.05.12.04.16.08.33.1-.112.07.05.06.04.13h.13l-.08.08c.1.02.04-.07.13-.06l.08.07-.04-.09.21.04c-.09 0-.09.04.014.08l-.19-.03c.05.09.45.17.39.29.03.03.16-.06.06-.07.09-.03.07.02.19.05h-.1c0 .17.29.11.37.15-.14.02 0 .12.17.22l.182-.03.07.05-.06.1.02.04c.23-.02.257.15.44.17l-.02.05c.11-.04.08.12.27.13l.12-.1-.02.07.2.14.07-.01c-.057.11-.15-.07-.28-.1-.16.09.2.05-.01.15l.21.02-.05.06c.26.05.38.18.57.33-.15.07.08.11.18.13-.15.06.19.26.29.15l.08.1-.1.02c.18.08.2.22.4.19l.01.08.08-.05c.07.07.04.09.148.13l-.08.04c.28.24.44.33.64.51l-.13.03c-.12 0-.072-.04-.17-.07l-.09.07c.14.12.46.23.33.38.197-.05.32.19.43.26h-.12l-.02.06.26.04-.16-.03.1.11.1-.07c.15.17.17.18.35.35-.2.03.02.11-.11.16l-.21-.23c-.03.16.19.23.27.33l-.2.01c-.04.13.16.09.11.21.11-.04.07-.1.07-.15l.2.07c.04-.08-.12-.15.1-.17-.07-.11-.14.06-.19-.03.17-.04-.025-.04.02-.11.13.05.22.15.29.22l-.1-.01c.05.08.058.08.216.15-.09.04-.19.09-.23.01-.02.09.2.07.24.09l-.12.15.11-.02.07.13c-.11.03-.02.09-.15.11.28.13.2.32.465.47-.25.08-.3-.3-.4-.19-.045.05.06.19.2.26l-.08.05c.11 0 .05.07.17.07l-.07.02c.05.08.17.03.22.12l-.1.04c.16.04.09.22.24.27-.12.03-.19-.2-.356-.2-.08.04.03.12-.09.16.12 0 .22.12.23.19h-.13c.05.1.05.12.18.13-.1.04.01.07 0 .13-.15-.08-.34-.24-.33-.41-.08 0-.16.01-.19-.08-.21.1.37.25.21.4l.16.04c-.11.11-.05.04 0 .18l-.135-.08H35c-.11.06.04.07.06.15l-.07.07h-.12l-.23.21.14.02-.1.04c.08.09.25.14.12.25 0-.03-.3-.01-.19.02-.23-.06-.2-.24-.42-.36l.05.13c-.13.07-.01-.11-.18-.03-.07.14.23.18.24.4-.11-.07-.22-.13-.306-.23.004.1.114.17.06.29l-.266.02c.01.19.065.22.16.35l-.04.07-.12-.08c-.17.07.065.12-.055.19-.11 0-.046-.06-.12-.08-.036.15.15.35.2.45-.15.03-.31-.21-.39-.3-.13-.16-.25-.34-.32-.5-.32-.07-.4-.58-.68-.66-.106-.32-.576-.5-.737-.79-.1.01-.13.06-.24.04l.11-.03c-.11-.03-.2-.12-.07-.2-.02-.08-.27-.06-.14-.14l-.17.04c-.31-.35-.75-.64-.89-.96l.057.02-.03-.09-.074.09c-.25-.23-.5-.42-.58-.59-.13-.01-.19-.08-.22-.18-.14-.02-.25-.22-.41-.26-.19-.22-.32-.37-.7-.66-.07-.06-.44-.2-.44-.32-.68-.45-1.14-.86-2.05-1.36l-.05-.1c-.79-.46-1.79-1.01-2.58-1.44-.77-.31-1.33-.63-2.06-.93-.12-.04-.26-.04-.32-.14-.5-.12-.86-.31-1.37-.48l-.16-.04c-2.36-.83-5.06-1.36-7.65-1.6-.2-.02-.44-.06-.64-.08-.3-.03-.63-.03-.93-.05.44.07 1 .06 1.38.14.29.01.9.08 1.25.12.14.02.39.05.43.09l.03-.03.11.02.02.03c1.14.11 2.27.41 3.27.61l.01.05c-.49-.11-.99-.23-1.46-.32l-.16-.03-.29-.05c-.7-.14-1.49-.28-2.25-.37-1.77-.2-3.36-.29-5.44-.26l-.01.02c-.17-.03-.46-.01-.64.01l-.02-.03-.01.02c-.38.01-.84.04-1.23.07-.64.04-1.27.08-1.8.15-.79.05-1.27.15-1.99.23-.16-.01-.51.01-.57-.01l-.14.01c-.02-.02-.06-.03-.19-.03.09-.02.07-.05-.11-.03l.15-.07c-.11 0-.21-.02-.13-.07-.1 0-.14-.02-.02-.05L.2 14.5c.106-.04.13-.09.11-.11l-.14.02.1-.03c-.16-.03-.08-.08-.03-.15.08-.01.057-.02.15-.04H.2c.357-.09.98-.2 1.516-.28l.01-.02h.045l.07-.01-.05.01c.1 0 .14-.03.22-.04.17-.01.36-.05.38-.08.12 0 .19-.01.28-.03h-.09l.16-.01"/>
  </g>
</symbol>

<symbol id="typeset" viewBox="0 0 720 97" xmlns="http://www.w3.org/2000/svg">
  <title>The Conservation Pledge</title>
  <g fill="none" fill-rule="evenodd">
    <g id="Shape" fill="#FFF">
      <path d="M330.7 4.6h-6.9V0h18.7v4.6h-6.9v18h-5v-18h.1zM349 0h5v8.9h9.2V0h5v22.6h-5v-9.1H354v9.1h-5V0zM376.1 0h17v4.4H381V9h10.7v4.4H381v4.7h12.3v4.4h-17.2V0zM211.8 48.1c0-6.5 4.8-11.7 11.8-11.7 4.3 0 6.8 1.4 8.9 3.5l-3.2 3.6c-1.7-1.6-3.5-2.5-5.8-2.5-3.8 0-6.6 3.2-6.6 7 0 3.9 2.7 7.1 6.6 7.1 2.6 0 4.2-1 5.9-2.6l3.2 3.2c-2.3 2.5-4.9 4-9.3 4-6.6 0-11.5-5.1-11.5-11.6zM237.5 48.1c0-6.5 5.1-11.7 12-11.7s12 5.2 12 11.6c0 6.4-5.1 11.7-12 11.7s-12-5.2-12-11.6zm18.8 0c0-3.9-2.8-7.2-6.8-7.2s-6.8 3.2-6.8 7v.1c0 3.9 2.8 7.1 6.8 7.1s6.8-3.1 6.8-7zM268.5 36.7h4.6l10.6 13.9V36.7h4.9v22.6h-4.2l-11-14.3v14.4h-4.9V36.7zM295 56l2.9-3.5c2 1.7 4.2 2.7 6.7 2.7 2 0 3.3-.8 3.3-2.1V53c0-1.3-.8-1.9-4.5-2.9-4.6-1.2-7.5-2.4-7.5-6.9v-.1c0-4.1 3.3-6.8 7.9-6.8 3.3 0 6.1 1 8.4 2.9l-2.6 3.7c-2-1.4-4-2.2-5.9-2.2-1.9 0-2.9.9-2.9 2v.1c0 1.5 1 2 4.9 3 4.6 1.2 7.2 2.8 7.2 6.8v.1c0 4.5-3.4 7-8.3 7-3.4 0-6.9-1.2-9.6-3.7zM319.8 36.7h17v4.4h-12.1v4.6h10.7v4.4h-10.7v4.7H337v4.4h-17.2V36.7zM344 36.7h10.3c2.9 0 5.1.8 6.6 2.3 1.3 1.3 1.9 3 1.9 5.2v.1c0 3.6-2 5.9-4.8 7l5.5 8.1h-5.8l-4.8-7.2H349v7.2h-5V36.7zm10 11c2.4 0 3.8-1.3 3.8-3.2v-.1c0-2.1-1.5-3.2-3.9-3.2H349v6.5h5zM367.3 36.7h5.5l5.9 15.9 5.9-15.9h5.4l-9.1 22.8h-4.4l-9.2-22.8zM400.6 36.6h4.6l9.7 22.8h-5.2l-2.1-5.1H398l-2.1 5.1h-5.1l9.8-22.8zm5.2 13.3l-3-7.3-3 7.3h6zM423.3 41.3h-6.9v-4.6h18.7v4.6h-6.9v18h-5v-18h.1zM441.7 36.7h5v22.6h-5V36.7zM453.9 48.1c0-6.5 5.1-11.7 12-11.7s12 5.2 12 11.6c0 6.4-5.1 11.7-12 11.7s-12-5.2-12-11.6zm18.8 0c0-3.9-2.8-7.2-6.8-7.2s-6.8 3.2-6.8 7v.1c0 3.9 2.8 7.1 6.8 7.1s6.8-3.1 6.8-7zM484.9 36.7h4.6l10.6 13.9V36.7h4.9v22.6h-4.2l-11-14.3v14.4h-4.9V36.7zM287.5 73.5h9.2c5.4 0 8.6 3.2 8.6 7.8v.1c0 5.2-4.1 7.9-9.1 7.9h-3.8v6.8h-5V73.5h.1zm8.9 11.4c2.5 0 3.9-1.5 3.9-3.4v-.1c0-2.2-1.5-3.4-4-3.4h-3.8v6.9h3.9zM311.6 73.5h5v18.1h11.3v4.5h-16.2V73.5h-.1zM334.2 73.5h17v4.4h-12.1v4.6h10.7v4.4h-10.7v4.7h12.3V96h-17.2V73.5zM358.4 73.5h8.8c7.1 0 12 4.9 12 11.2v.1c0 6.4-4.9 11.3-12 11.3h-8.8V73.5zm4.9 4.5v13.6h3.8c4.1 0 6.8-2.7 6.8-6.7v-.1c0-4-2.7-6.8-6.8-6.8h-3.8zM385.2 84.9c0-6.5 5-11.7 11.8-11.7 4.1 0 6.5 1.1 8.9 3.1l-3.1 3.8c-1.7-1.5-3.3-2.3-5.9-2.3-3.6 0-6.5 3.2-6.5 7v.1c0 4.1 2.8 7.2 6.8 7.2 1.8 0 3.4-.5 4.7-1.4v-3.2h-5v-4.3h9.8V93c-2.3 2-5.5 3.6-9.6 3.6-7.1-.1-11.9-5.1-11.9-11.7zM414.1 73.5h17v4.4H419v4.6h10.7v4.4H419v4.7h12.3V96h-17.2V73.5z"/>
    </g>
    <path d="M0 50h186" id="Shape" stroke="#FFF"/>
    <path d="M534 50h186" stroke="#FFF"/>
  </g>
</symbol>

<symbol id="crosshair" viewBox="0 0 130 130" xmlns="http://www.w3.org/2000/svg">
  <g fill="#FFF" fill-rule="evenodd">
    <path d="M129 65h-.5c0 17.537-7.107 33.408-18.599 44.901C98.408 121.393 82.536 128.5 65 128.5c-17.536 0-33.408-7.107-44.901-18.599C8.607 98.408 1.5 82.537 1.5 65c0-17.536 7.107-33.408 18.599-44.901C31.592 8.607 47.464 1.5 65 1.5c17.536 0 33.408 7.107 44.901 18.599C121.393 31.592 128.5 47.464 128.5 65h1C129.5 29.378 100.622.5 65 .5S.5 29.378.5 65s28.878 64.5 64.5 64.5 64.5-28.878 64.5-64.5h-.5"/>
    <path d="M65 33h1v64h-1V33z"/>
    <path d="M33.5 64.5h64v1h-64v-1z"/>
  </g>
</symbol>

</defs>
</svg>